Sequence	1yjp_1	1yjp_2	2kib_1	2kib_2	2m5n_2	2m5n_3	2m5n_4	2okz_a	2ol9	2omm_1	2omm_2	2omp	2omq	2on9	2ona	2onv_a	2onw	2y2a	2y3j	2y3k_1	2y3k_2	2y3k_3	2y3l_1	2y3l_2	2y3l_3	2y29	3dg1_a	3dg1_b	3dgj_1	3dgj_2	3fpo	3fth_1	3fth_2	3ftk_1	3ftk_2	3ftl_a_1	3ftl_a_2	3ftl_b_1	3ftl_b_2	3ftr_a	3ftr_b	3fva_a	3fva_b	3hyd_a_1	3hyd_a_2	3hyd_b_1	3hyd_b_2	3loz	3nhc	3nhd	3nve	3ow9	3ppd_a	3ppd_b	3pzz	3q2x_a	3q2x_b	3sgs	4nin_1	4nin_2	4nio_a_1	4nio_a_2	4nio_b_2	4nip_a_1	4nip_a_2	4nip_b_1	4nip_b_2	4np8	4r0p_a	4r0p_b	4r0u_a_1	4r0u_a_2	4r0u_b_1	4r0u_b_2	4r0w_a_1	4r0w_a_2	4r0w_b_2	4rik_a_2	4rik_a_3	4rik_a_4	4rik_b_1	4rik_b_2	4rik_b_3	4ril_a_2	4ril_a_3	4ril_a_4	4ril_b_3	4ril_b_4	4ril_b_5	4rp6_1	4rp6_2	4rp7_a	4rp7_b	4tut	4uby	4ubz	4w5l_1	4w5l_2	4w5m_1	4w5m_2	4w5p_1	4w5p_2	4w5y_1	4w67_1	4w71_1	4w71_2	4wbu	4wbv	4xfo	4znn_a_3	4znn_a_4	4znn_a_5	4znn_b_3	4znn_b_4	4znn_b_5	5e5v_1	5e5v_2	5e5x	5e5z	5e5c	6cb9_a	6cb9_b	6cew	5n9i	6cfh_4	5vos_a_3	5vos_a_4	5vos_a_5	5vos_b_5	5vos_b_6	5w52_5	5whp	5wia	5wiq_1	5wiq_2	5wkb	5wkd_a_1	5wkd_a_2	5wkd_b_1	5wkd_b_2
TQQPQQ	142.241	35.3165	42.2984	40.0816	62.6166	55.6152	74.2031	229.554	32.3069	148.301	62.6374	38.8774	49.0528	42.9763	66.3571	121.704	106.148	44.0117	100.681	98.2918	79.875	104.491	77.6796	66.3451	76.1249	64.4371	272.484	125.903	254.241	97.5822	59.4185	44.8503	34.3652	80.6063	77.3725	75.2649	84.8636	84.0886	99.9354	184.358	67.9262	54.1162	48.8603	49.1238	31.256	48.6308	49.695	39.1927	59.0831	100.575	46.9818	56.5176	169.6	133.632	131.433	151.25	47.9686	113.925	112.149	62.496	35.4583	64.1176	183.475	128.648	100.577	44.6478	58.6304	39.5644	52.4392	48.7908	126.873	185.425	278.766	158.282	150.922	100.688	53.3906	104.244	132.048	138.525	53.2906	55.2581	56.809	44.7998	54.9562	57.1001	150.864	191.936	173.419	48.42	49.16	106.461	123.666	139.845	149.202	199.363	107.232	102.628	93.0623	88.9853	134.838	81.4671	120.463	71.0666	82.8708	51.3946	70.5587	79.7076	57.4788	83.3999	121.697	129.476	77.1498	85.937	60.0316	75.1069	69.057	62.3068	48.1396	44.963	59.0077	55.0635	61.4892	88.7318	49.7124	97.1359	138.111	58.7854	53.7703	43.4654	53.9709	92.1185	178.83	177.421	161.399	134.384	172.872	80.8127	51.4953	45.0447
QQPQQD	137.809	74.1743	47.7999	47.1647	104.575	74.8191	102.161	182.776	69.759	166.998	73.9523	48.1186	53.973	67.5892	62.0298	127.915	118.959	43.5904	110.597	109.968	109.391	109.38	83.0029	64.6222	74.8161	69.0531	275.87	142.888	110.269	188.158	66.6596	51.9099	42.8201	147.609	114.911	104.621	128.999	97.6071	211.844	270.972	79.0855	72.9414	61.0786	46.9715	43.7907	69.1187	61.6337	46.3359	58.7167	148.276	62.5216	43.5052	277.499	173.919	104.526	137.916	111.51	108.135	133.342	80.6906	53.1355	79.5844	234.139	87.784	155.506	65.6025	62.5871	57.1394	76.7027	73.276	115.976	221.675	269.936	208.725	87.6574	159.897	60.514	160.312	122.974	135.334	78.454	71.1556	69.3469	80.1983	58.3562	72.8477	201.068	167.573	174.743	70.7342	73.0061	117.58	130.052	112.556	141.663	200.364	117.442	93.2595	108.196	68.4298	137.979	82.7044	96.6863	63.1962	81.1019	61.0149	68.1709	88.2807	96.6814	113.371	174.859	81.0842	133.445	100.937	62.1092	79.4472	74.9199	88.9005	64.0756	61.3185	77.8277	91.6551	60.3104	99.2558	51.1966	179.412	123.448	118.587	63.8259	60.1219	72.8442	116.859	209.578	201.57	174.974	133.449	157.276	148.15	68.6488	56.3815
QPQQDE	95.3509	83.1211	71.9979	60.7839	146.094	119.143	106.991	219.629	85.8156	140.074	80.7224	61.2167	76.6082	86.4529	83.8938	128.53	170.369	39.9896	171.842	119.53	161.184	126.86	107.418	88.581	92.1682	57.9561	198.977	179.612	201.996	217.542	96.1468	70.1843	61.5761	154.623	161.614	144.174	155.931	189.795	231.713	241.473	109.338	88.2102	105.99	59.4893	89.7551	80.3304	80.9293	64.8133	79.7387	138.786	67.6673	68.8324	201.103	156.073	125.709	171.13	117.434	105.867	164.768	97.8876	79.7604	108.629	165.781	136.953	104.837	68.3728	87.0515	73.3915	119.333	82.6093	173.004	219.301	273.553	187.919	160.469	127.509	82.7573	172.409	193.086	124.215	98.276	99.8969	76.8792	109.807	100.047	71.7448	213.39	213.707	177.383	105.312	93.2139	144.565	59.8458	123.542	131.27	178.829	130.408	112.485	118.341	85.6034	146.944	87.9078	127.974	97.9553	97.5251	71.6437	82.8511	101.934	118.093	167.963	179.779	117.503	167.182	134.292	71.6172	101.401	78.4935	109.742	65.9113	90.6858	95.4283	87.8381	80.6578	123.76	52.5179	192.011	192.444	122.714	117.477	71.6942	84.3592	120.444	253.845	241.728	216.037	137.963	228.476	153.968	82.1871	97.109
PQQDEM	164.609	45.7239	61.6725	39.8739	119.648	98.2251	80.2337	220.887	36.0363	173.24	53.0198	24.9371	33.6179	40.4507	64.6127	120.423	179.957	44.257	140.403	131.739	98.1281	131.042	130.703	69.3942	73.7164	57.7245	238.995	153.989	201.277	223.846	106.767	56.2353	30.7602	136.546	126.926	139.156	133.029	158.284	118.807	273.723	83.6804	84.0197	66.5483	50.6328	54.7919	46.7739	72.641	41.4174	51.3559	123.536	53.7131	53.946	238.734	152.939	98.9037	146.106	119.074	104.018	139.566	81.4707	71.4402	100.044	226.445	52.4942	158.709	46.5252	66.0863	38.6657	99.0326	51.763	126.035	209.489	325.505	204.147	81.8167	172.474	49.6116	163.193	152.731	129.196	75.3572	70.4232	55.0105	85.0301	74.0766	60.5301	195.629	179.856	156.899	57.5037	67.3881	116.748	178.841	130.547	184.301	212.321	109.211	91.7597	97.3228	67.7424	161.316	68.9881	134.36	113.707	95.183	55.0082	57.8096	67.5932	82.6665	136.123	176.585	86.9307	101.235	107.072	52.9742	121.746	74.9763	78.9669	66.0344	63.8161	66.6498	113.852	83.6963	66.7086	50.4944	180.277	193.42	135.24	94.5552	68.9342	65.4125	94.3779	248.905	248.321	220.843	150.48	217.248	174.604	107.255	38.6493
QQDEMP	129.47	87.2058	58.9204	49.0248	92.3278	96.3246	114.199	251.444	57.4279	170.659	71.9702	36.8759	71.3905	53.8355	75.6591	163.413	134.72	28.1939	143.285	120.449	119.825	112.17	113.743	115.79	66.6408	36.2911	283.125	136.854	211.503	245.628	103.225	53.7166	36.6018	122.156	131.192	126.732	128.536	100.898	141.048	232.686	101.605	72.0289	93.8364	49.1547	78.2175	67.2785	74.5893	32.7873	66.1514	194.882	49.9736	51.2967	320.961	177.448	127.186	167.396	118.31	122.888	122.355	69.7554	94.3741	64.1014	318.295	158.041	235.088	68.1506	44.0359	52.3419	85.316	67.7853	141.707	204.649	302.485	278.179	142.577	237.703	63.9655	201.34	146.324	124.752	83.3611	76.9424	63.4975	83.3047	76.9722	68.4879	237.538	173.422	142.488	61.5382	60.4683	109.697	133.051	155.495	182.679	241.913	122.917	85.5391	115.546	59.7581	164.177	96.1766	128.357	122.517	104.045	63.6281	79.9816	98.688	94.2836	116.548	143.184	107.066	122.398	82.547	68.574	115.811	94.3511	87.421	68.4445	53.112	93.6684	135.844	104.186	109.08	57.6834	129.204	156.619	146.314	58.5789	85.4488	50.2892	135.791	326.471	199.891	260.351	125.141	217.157	228.793	113.25	95.1257
QDEMPS	81.7577	79.1828	46.9935	62.0897	84.3131	93.2761	110.625	207.911	64.5864	147.818	88.7422	50.9383	69.9032	57.2102	78.5668	113.138	139.249	50.411	110.518	102.747	97.5274	84.2218	94.1363	95.7481	103.234	68.5158	229.474	123.489	210.248	244.644	96.664	49.6846	59.4773	112.926	117.906	116.47	113.578	93.6553	86.902	209.021	89.6909	48.2386	87.341	77.3455	79.0377	76.7684	64.4514	76.9205	84.3565	151.283	63.0452	68.6417	228.455	168.012	153.825	182.945	72.9218	104.106	130.735	73.318	55.6292	68.6809	174.497	213.137	149.195	45.6774	72.975	38.6914	65.6425	54.532	137.096	188.554	270.976	207.842	195.069	163.37	75.9083	119.818	185.886	141.139	54.9969	86.072	68.2533	49.1481	86.5429	68.3574	147.216	213.126	165.885	64.3689	62.2505	119.167	116.83	146.208	145.259	199.909	114.04	104.333	113.243	83.4209	146.749	99.9752	118.371	99.7846	98.7496	70.4899	84.0561	106.599	79.7489	112.291	165.546	90.3202	95.0944	111.863	58.2434	101.009	90.1338	67.9407	59.6737	67.7844	82.778	92.9816	86.7126	126.174	77.6844	100.785	117.998	137.194	89.4966	64.5063	72.2689	124.28	193.912	194.174	187.537	145.534	164.869	189.772	85.6078	101.84
DEMPSP	125.6	43.6727	49.8502	43.4888	82.5014	66.4678	81.0966	232.42	52.3084	160.24	49.3151	51.6447	65.3229	58.1558	71.0288	115.767	75.8602	55.9974	101.997	97.1493	94.5845	100.554	96.8109	78.6726	78.8143	61.7628	347.782	132.898	250.466	101.527	81.6149	50.4305	39.4579	86.4404	127.833	124.942	79.7591	82.0392	80.2471	186.082	93.168	55.5979	63.8638	74.4412	61.1208	62.2471	78.685	35.0536	60.0626	179.795	62.5145	57.9893	227.98	131.301	141.708	121.747	54.9412	117.942	63.1934	85.5045	62.2785	68.6491	231.206	141.603	153.263	70.0959	51.9239	75.5363	68.9819	68.257	111.606	203.946	231.598	210.061	148.278	144.516	56.316	107.475	126.4	168.816	73.2463	65.8601	79.9118	68.6322	62.5348	86.222	132.936	151.36	194.247	60.7172	67.1347	95.84	121.175	144.826	158.965	219.034	113.081	96.5651	118.395	73.7503	148.375	72.4879	116.199	87.5208	80.8742	62.1514	72.0278	83.6225	79.919	112.135	153.325	83.5122	115.696	100.63	77.0928	93.8199	88.2561	82.4886	73.8351	65.7151	63.8763	95.7001	72.3006	104.237	57.2053	75.3058	122.857	89.101	57.7057	74.0087	62.24	95.3687	177.576	196.56	207.668	135.535	148.293	143.16	91.2737	67.0273
EMPSPT	113.93	77.3715	51.5325	53.0695	86.5702	83.5669	88.6142	187.595	70.4718	157.863	77.2746	80.5104	71.1798	68.9314	65.6673	92.5303	106.743	56.4353	74.5068	91.83	91.1868	88.7621	79.9498	88.1511	81.0529	94.8429	248.087	149.007	110.588	203.573	73.3224	64.067	55.1554	117.639	101.292	88.4834	112.007	72.4171	105.34	219.832	95.4322	65.8761	87.9653	72.6409	67.757	83.4665	68.0143	70.39	67.8424	187.132	76.2889	64.1432	168.024	133.505	151.663	119.737	69.3001	107.53	119.547	60.8001	69.7672	71.0282	160.731	127.599	107.007	55.6464	72.357	49.8025	75.3852	77.375	132.233	213.598	240.768	174.983	105.846	129.352	73.3825	100.805	118.395	127.584	70.0145	91.9912	72.9453	64.6268	83.2682	65.3792	111.271	135.971	146.075	72.8366	65.085	133.928	145.066	118.58	142.526	209.305	145.452	101.072	125.221	91.7853	123.407	77.44	108.249	82.4435	104.184	53.801	68.4506	115.731	76.6659	128.676	163.031	88.4078	137.099	119.772	80.3433	74.148	83.6892	75.2365	44.2794	58.0191	68.4855	77.5956	53.5509	100.771	63.3306	98.4704	88.214	111.868	76.8413	61.1321	78.3701	129.197	113.805	169.314	197.402	96.1737	108.297	128.162	70.059	78.9301
MPSPTF	63.2747	44.2018	54.9372	47.1042	84.7077	66.8187	105.638	197.601	41.1567	96.6681	72.4162	54.1028	75.6212	67.6592	89.7316	105.726	82.4361	54.222	121.835	87.4119	135.913	85.3614	80.607	67.5038	84.9382	84.8024	239.918	168.938	193.709	87.0162	53.9154	66.8798	62.4315	84.9684	104.46	84.2099	92.8754	68.0866	207.125	226.432	73.4238	29.8012	71.1904	60.673	47.5244	63.0352	37.244	74.5835	63.0583	131.08	94.0963	80.8119	280.79	117.678	163.187	63.2417	119.846	94.8133	119.942	85.244	41.198	67.6543	139.094	99.7918	61.8139	46.0095	63.5077	46.7429	78.4526	70.379	127.613	201.872	183.314	144.211	107.631	81.6381	58.8584	218.986	92.3604	101.57	57.4709	61.3934	73.7385	57.7784	50.7222	76.947	311.865	113.329	128.334	60.6425	70.0145	124.261	188.395	107.946	109.651	163.181	108.922	120.497	104.275	91.9601	104.966	79.562	133.358	77.8832	86.9029	74.537	73.0019	124.699	91.4476	92.6772	132.549	102.202	114.728	115.727	69.7368	81.2873	66.445	59.5568	67.6301	71.9165	74.6067	94.2556	83.2762	80.9707	60.549	194.111	91.6174	62.3727	71.2072	65.9351	61.9005	95.7458	307.735	188.124	160.472	124.687	157.907	82.5897	78.443	54.3236
PSPTFL	121.803	20.5228	32.9933	33.8268	73.172	40.167	63.4877	199.739	34.2288	100.39	27.9984	45.0035	38.6027	47.6319	68.1004	73.8148	284.495	48.3778	104.613	116.229	56.5234	127.504	76.8206	53.0324	67.8192	67.6434	123.899	135.535	75.1433	193.153	26.5377	40.1061	38.2378	135.025	73.4965	54.9631	137.432	161.218	165.377	139.289	44.289	41.1046	57.8573	35.2824	19.2744	15.8749	28.2461	36.2602	42.0812	139.805	71.803	42.454	169.796	137.52	120.736	249.977	42.7714	50.3219	103.022	49.35	34.8758	55.0664	133.275	27.61	56.222	39.7328	27.3644	28.2812	86.8573	45.87	77.7429	146.816	398.276	63.0294	45.7363	95.0189	40.5069	80.1564	201.857	63.2504	33.5464	41.5368	40.5001	46.3608	31.0825	45.0507	93.7061	289.957	92.9583	45.8386	40.4173	96.6055	128.458	117.978	122.186	159.77	83.6396	90.1983	71.217	55.7938	92.8544	59.8468	68.1494	68.3771	71.3475	46.1719	44.3846	68.3162	46.1823	83.2862	96.3598	68.0215	73.9487	69.3589	54.5298	61.109	61.9442	46.5532	68.1173	59.6088	78.5856	49.1116	40.026	39.8391	52.5998	127.995	177.953	51.3111	45.4747	33.2533	34.9141	87.1032	129.259	181.77	193.43	102.371	214.186	112.4	49.9688	60.0372
SPTFLT	35.523	36.1634	30.7364	29.718	66.4804	62.3142	67.824	260.802	21.5563	47.5465	33.0541	19.8416	29.9848	40.1111	43.7674	86.3465	121.232	0.824094	113.058	63.7746	108.867	58.0178	63.1375	73.6295	73.9607	14.7687	211.71	101.003	191.639	226.314	40.2506	41.0181	39.7582	125.012	129.123	134.567	126.228	156.916	166.503	245.824	51.313	29.3799	29.7476	18.0841	35.0046	25.5882	18.6768	38.7801	40.5605	47.5497	48.4758	33.7648	211.467	56.4304	118.817	71.5314	119.465	30.7689	92.784	26.8933	38.2342	58.9794	235.482	42.9115	220.927	23.2037	24.3696	28.0159	41.4273	42.1684	81.1771	193.28	223.129	335.995	95.2958	241.291	38.5558	259.299	72.2738	113.737	35.6193	28.2659	32.586	47.7034	33.022	20.453	323.96	74.8599	188.28	39.1039	35.4753	103.626	127.323	88.7916	91.5775	121.843	77.1388	80.7291	50.2233	51.2351	80.6382	61.6034	72.0124	54.3397	43.2198	52.7175	45.7825	39.5092	39.1845	94.8479	109.663	54.6787	91.4018	70.9806	30.1964	77.2491	56.5359	40.1547	63.9971	51.9926	26.6158	80.0978	53.2783	68.713	36.7265	184.426	127.195	163.404	32.0832	39.4644	41.0404	130.054	343.77	203.356	190.944	86.2595	185.917	203.662	98.2557	50.2133
PTFLTQ	67.8447	5.85314	-2.38254	2.01758	23.1811	29.5297	62.1721	189.927	12.0062	55.9566	22.1302	-6.01538	9.88697	-1.50574	27.0593	99.0363	35.9439	1.10693	69.4557	37.1667	91.3187	27.0288	47.0683	51.1907	39.428	10.4551	102.083	71.6524	210.67	169.265	21.4759	-13.8635	-0.140482	81.9094	103.185	78.689	83.5695	74.8925	98.3424	168.524	30.6901	-20.4548	15.6587	-1.51191	8.75879	-6.11387	-1.9355	5.44551	4.59987	82.6912	21.836	5.70544	143.51	113.239	93.8732	209.104	35.3456	45.7943	79.5019	15.4439	10.9197	5.59606	136.274	186.266	42.3856	-1.33452	-2.65	0.2226	10.4991	-2.40563	58.0776	182.741	207.336	99.4489	167.055	105.206	1.7642	69.7502	214.486	36.8895	-2.89415	12.1394	-2.15894	2.57863	6.30374	2.50508	102.82	252.363	49.724	0.887338	8.46083	62.0884	88.105	106.088	118.632	162.191	78.9987	40.7137	78.8797	0.484749	92.1973	30.5501	72.5019	32.1842	24.8942	26.5687	12.1333	20.0326	33.9582	50.9111	147.035	29.599	45.3279	55.0194	6.14094	62.679	43.9526	0.793879	30.5533	0.513519	45.2604	10.0929	23.8999	34.9835	21.5871	70.3751	145.73	99.1309	13.6379	-0.69776	18.3502	89.608	239.855	182.677	190.855	106.176	193.065	147.7	13.1021	79.694
TFLTQV	104.192	-5.25503	-6.46678	0.41383	38.1837	17.6587	68.4132	268.748	6.08156	120.024	-0.126006	-7.17819	11.5341	4.85735	37.0837	102.107	102.87	5.16624	77.4013	123.745	35.8465	106.608	57.8746	31.3185	45.5078	20.1466	434.968	95.1582	161.433	154.371	35.1646	-14.2786	-13.7321	84.4539	133.706	124.97	78.5637	92.7578	69.4798	230.618	32.5347	1.16167	22.7795	17.423	1.50461	-1.37159	20.4356	8.2485	14.6254	104.68	11.7082	0.235003	263.384	101.934	99.4452	109.398	13.6529	80.1178	80.4129	14.9258	-5.95368	30.07	353.334	48.0227	243.755	-2.91602	12.2912	5.74885	21.256	-10.1841	100.384	187.785	310.9	228.616	114.984	229.219	-4.92591	55.4752	70.5429	225.658	2.16836	7.92166	21.3216	5.7771	0.967596	34.2002	84.5214	107.933	280.306	-1.83669	3.86925	60.6927	117.827	132.956	166.288	224.548	68.218	75.4093	47.3171	66.7576	192.147	49.1758	99.1601	28.2065	52.1837	14.0749	32.5135	50.4808	4.35725	70.9716	144.007	89.8246	33.4988	52.537	20.2265	48.8837	83.1968	9.11752	15.6502	10.1452	15.4891	95.6331	57.0735	78.9728	29.5999	68.6254	72.1759	142.37	34.5212	24.7957	20.4862	65.8106	131.168	183.55	213.727	118.824	178.623	206.639	118.368	5.48991
FLTQVK	73.3489	31.1584	-2.25547	-7.06985	31.0966	30.8556	107.753	189.505	21.1838	120.955	32.7545	-0.392966	31.1731	-7.27119	38.9089	93.3651	43.4744	-19.0658	51.0993	36.7808	111.825	32.4855	41.7624	79.2322	39.8051	-6.42639	188.249	62.9793	158.053	175.361	54.0307	-6.20321	-15.125	100.278	80.863	85.0461	87.2085	59.2086	186.419	260.558	18.0231	5.24849	10.6877	6.21128	-17.2215	21.8666	3.76576	-7.75476	14.3251	189.262	35.9969	-5.49385	342.189	197.017	110.514	62.2758	80.1991	45.9897	92.0569	10.212	12.1158	13.9073	176.828	228.179	65.3809	1.44623	-0.339737	4.81869	7.24188	0.0608813	89.9585	213.745	181.76	197.951	228.141	124.692	27.0594	133.709	57.2483	50.4232	38.6547	-4.08951	-1.81221	40.6785	4.54128	3.31719	181.939	85.1422	76.472	-5.75198	-0.996628	47.4875	105.651	89.2051	111.517	163.573	81.1655	58.736	63.8539	20.0235	99.3294	63.7691	112.092	33.2977	62.3686	20.9899	26.4967	95.4261	30.0152	45.4548	192.323	56.4928	85.2408	41.1806	10.1547	54.1611	50.5574	12.9578	20.3511	-2.27334	4.14635	43.736	20.6056	59.7245	4.91805	138.944	73.7123	64.0162	4.68272	37.5245	6.71223	79.903	252.994	181.811	179.432	113.59	150.097	176.318	11.4537	107.696
LTQVKE	59.847	21.4443	9.14652	5.07636	49.3612	43.3531	50.9919	197.346	23.8055	88.8554	19.1436	-5.64319	7.81286	17.7609	34.9932	102.444	126.316	-6.47735	85.6722	63.526	52.0436	51.2995	47.6579	26.5646	41.2071	17.7925	108.856	107.543	164.529	166.71	42.1337	2.79312	-6.97721	78.2078	103.782	91.1782	83.7943	123.174	144.02	186.099	37.2713	9.65756	75.2829	-4.89997	5.5715	6.75621	14.0553	9.41087	17.8271	116.178	19.894	9.0832	220.862	163.49	77.4287	168.719	52.2688	54.1237	84.1975	20.8769	-6.30831	42.7823	119.936	57.318	32.2861	2.1468	23.9469	9.0688	39.8105	12.7594	107.064	198.082	316.559	98.3257	89.5019	90.0723	23.3957	75.3759	164.837	51.2734	17.2185	49.6503	2.65842	25.3414	44.7613	6.14808	98.7871	167.295	81.2786	11.4184	13.8914	63.4956	-14.9182	147.737	118.641	165.016	89.426	56.2358	86.8151	30.4214	104.571	36.5667	96.9679	38.9052	46.426	27.1243	27.2892	53.2556	22.4188	56.7562	132.961	103.974	81.148	81.7325	11.2646	60.7727	32.6742	20.7307	16.6569	14.435	44.5072	5.20067	18.6499	49.3555	0.303097	108.077	118.691	62.8818	34.9643	-1.47537	24.3185	44.0052	178.358	167.454	179.313	116.919	173.106	127.102	11.9115	16.3628
TQVKES	109.332	19.6963	14.3483	14.3248	52.1382	46.7417	64.7709	217.075	24.0563	155.157	30.5198	2.61112	11.4348	13.0167	24.4027	91.358	149.11	3.37126	92.4815	66.2309	69.3093	65.8728	61.2948	51.0546	48.5946	25.1694	210.261	77.2663	175.754	199.969	54.2233	13.3276	-0.847232	138.241	110.537	108.748	134.201	141.019	109.327	140.129	43.2296	37.7612	41.7023	5.6111	28.2461	19.0486	29.8796	12.8982	33.4091	75.9361	23.9141	7.98595	254.459	117.942	94.9173	96.4418	56.008	89.6239	89.5089	39.5069	43.311	70.8951	243.62	35.7524	162.245	24.2438	43.8876	17.4253	69.5016	27.9638	121.816	174.666	307.615	231.411	101.086	171.265	3.04492	103.108	81.5085	113.885	26.6065	31.2042	33.3781	27.9292	34.1544	22.5426	124.067	98.7324	139.37	39.1517	26.432	79.7837	122.916	137.658	129.268	171.511	72.0168	79.3953	54.5498	63.1902	129.401	58.5966	97.1449	53.7958	61.8249	20.7371	45.6367	44.2323	43.3418	123.704	100.833	66.7821	89.5116	65.3584	24.937	73.2621	49.8117	33.1077	25.1811	31.8413	45.5285	85.4492	27.3567	87.4362	17.3066	74.3264	124.961	116.852	57.6941	35.9053	34.5708	93.3319	199.594	189.089	175.175	116.724	197.446	159.075	73.4335	10.3834
QVKESL	93.1783	25.6902	21.186	17.8829	50.2301	37.156	69.6083	172.012	23.5983	142.798	49.3946	10.7225	20.6034	34.3657	25.0039	112.913	51.5737	15.0643	85.6509	76.0702	62.5908	62.2984	55.8875	49.4909	52.9456	23.6373	165.396	106.875	208.49	207.852	38.5936	13.3994	12.2712	64.37	107.185	106.622	66.9362	82.7643	131.658	289.836	46.0684	38.3736	25.992	19.8903	20.1857	33.8756	40.2427	24.1713	17.4443	121.882	21.9145	19.8541	265.512	140.065	86.2344	100.245	101.39	69.7923	97.9076	33.2646	31.2335	39.6793	215.633	138.944	112.403	22.0272	21.797	24.544	21.4768	27.9446	84.9426	233.043	211.09	203.332	151.511	165.78	37.6101	149.382	98.1791	46.9869	53.4406	33.1424	20.6068	57.9434	30.1995	25.4487	201.36	133.649	61.3185	18.4327	30.7493	76.0307	117.05	143.199	136.725	181.198	83.3316	57.436	81.1723	27.5536	123.564	54.6126	87.5357	34.4471	51.0906	35.6237	23.285	62.3282	40.8816	72.3413	174.692	38.6267	85.8022	79.6862	29.5116	56.2513	63.5716	26.6375	29.8149	22.8142	36.7176	72.425	20.5731	59.5403	18.724	170.278	78.1377	97.4433	29.0985	38.3807	35.0262	86.7103	275.77	146.314	177.521	88.2615	88.1342	158.347	63.4086	56.8858
VKESLS	96.6241	47.4077	11.6361	23.0615	47.8989	38.4572	56.9668	159.43	40.0806	141.352	58.1294	15.4962	31.6687	32.6519	21.7861	89.8793	111.975	12.8158	75.7154	71.3699	53.5443	54.924	43.5519	35.196	46.7366	28.039	223.28	79.7437	180.541	108.183	38.8883	17.6861	13.1232	87.5895	72.5025	63.3919	91.5936	78.8826	66.2974	112.883	61.626	21.8668	76.2417	27.6415	39.8723	34.0909	24.6821	26.6722	32.8154	99.8354	36.9069	31.4917	208.178	177.556	116.384	153.297	35.3358	82.6855	108.093	46.0365	30.4918	36.771	127.684	82.9709	83.007	22.2755	33.5165	12.9935	37.8842	24.3173	132.988	160.882	264.341	113.451	136.523	108.793	33.5112	41.0948	135.291	104.341	27.873	50.5829	34.8432	26.0669	50.3069	28.12	52.9088	162.654	140.109	34.6665	27.3225	91.901	101.286	120.569	114.591	172.358	82.1614	64.1218	79.4811	52.0258	102.055	66.3749	96.8835	49.5215	67.957	22.0046	37.7737	48.4831	39.1262	87.7312	89.7546	89.1739	65.9378	68.5496	35.569	52.9902	38.6475	30.182	36.4766	34.5307	71.2067	29.5133	25.3145	88.4987	22.7377	33.3378	170.661	65.87	41.6932	22.9181	24.8148	78.3229	84.167	159.715	139.436	100.157	205.482	93.4891	33.9582	63.587
KESLSS	55.1978	34.3457	21.4656	13.9153	39.4921	43.0944	60.1645	155.235	24.2076	103.341	42.0426	13.1643	25.434	32.3715	29.1262	89.8482	44.7534	19.8016	61.8371	61.107	45.385	56.2839	47.2411	23.407	42.3395	31.781	223.491	76.3238	84.3887	189.597	40.442	15.1459	15.3799	91.819	83.4346	83.1512	78.3396	54.6859	75.1092	137.41	37.8977	17.9241	23.208	33.6173	24.504	23.5918	32.8883	17.8702	24.518	84.5781	26.0894	23.0387	226.776	136.147	84.2359	42.2343	37.0571	63.9878	90.6984	43.7866	20.6139	43.3915	218.506	44.1326	116.412	26.1929	29.1854	27.8481	25.1264	31.9301	81.8502	153.393	155.825	178.908	64.383	141.818	27.3836	82.6343	39.8802	141.433	28.088	33.3341	46.0035	29.5791	32.2395	41.479	96.9991	44.4429	152.122	32.0508	34.0526	47.6899	65.4017	103.893	114.281	163.8	73.3145	59.5283	74.1096	35.2564	110.09	35.5417	63.6766	32.1276	39.0706	26.8462	26.591	42.3159	31.9269	60.9198	127.392	45.918	56.3368	68.8623	35.8053	49.8009	32.6459	33.9539	31.3689	34.8447	26.7483	70.1494	25.2709	67.2422	11.9396	79.951	40.2061	122.677	31.8103	30.2974	36.1574	58.7932	173.445	193.302	153.661	85.4427	63.0947	143.795	38.9345	32.2524
ESLSSY	50.783	6.48948	22.7237	25.7591	42.1313	37.2997	57.6346	177.487	12.5515	89.5597	23.6793	22.1866	44.538	20.0959	49.9346	45.1662	46.9457	23.3122	50.6014	35.9668	71.7119	39.3742	34.153	39.5102	46.35	42.7733	127.874	131.676	167.71	90.9841	23.88	8.85194	19.7783	64.4661	71.9086	58.6059	62.7851	54.7312	198.137	166.99	28.468	10.521	17.6325	25.8184	17.0181	27.6112	8.19851	8.09625	23.4525	119.706	30.5511	26.2421	112.514	63.1178	91.3313	92.306	89.4001	57.7781	41.8205	34.4333	23.8294	33.8443	109.936	89.0309	39.2065	18.1562	25.6536	24.837	30.5974	23.7286	69.7552	165.099	144.713	63.547	120.745	60.4827	12.4613	162.543	81.1592	34.4299	27.8363	24.8701	31.2296	30.9069	25.7988	38.8018	238.842	99.3476	40.3338	24.0446	30.3957	71.8588	144.746	98.5862	86.5066	130.437	56.6393	58.7949	79.8887	36.4913	67.7898	53.3489	70.4821	25.0053	38.1742	25.4497	28.954	101.499	71.6686	76.0865	108.893	50.2273	92.0522	61.4708	30.0347	36.8858	41.2258	25.5974	37.8469	18.3694	22.5713	32.6189	24.2988	52.2173	17.3928	171.779	85.0371	32.9427	26.1225	32.8801	27.2904	71.0063	262.165	122.135	184.347	48.6255	113.707	56.7499	36.2517	10.9484
SLSSYW	67.1504	7.81824	-5.21009	20.7222	74.5195	45.605	52.6313	123.996	17.3	69.8677	21.2345	14.0726	19.1	27.2929	51.2851	127.733	293.444	6.70748	73.5747	104.526	113.336	93.476	59.0685	57.6069	48.2934	16.6685	211.887	137.085	82.6798	91.6395	46.9818	16.8888	5.96366	82.2471	82.5049	39.963	100.977	166.537	224.687	326.515	28.0086	29.9344	30.9832	14.8661	3.67368	10.4242	18.3451	11.4347	15.6606	83.148	36.8243	19.1848	144.332	68.8782	88.1272	200.108	141.421	44.087	93.035	39.3768	5.96492	29.468	173.851	29.0081	56.1058	8.57973	10.7533	10.2605	64.9027	12.0729	67.1191	230.894	474.612	72.2584	57.0145	100.525	23.4282	229.304	163.736	63.7023	45.1257	28.5124	10.8104	43.7978	29.9926	24.9464	309.155	241.564	88.3728	14.6563	21.1384	56.6489	140.063	139.297	140.531	155.607	77.2569	56.2208	71.9862	49.4422	126.537	58.6135	64.7029	52.1517	58.5135	17.3808	27.9386	78.4654	86.02	64.2521	210.517	46.5189	78.4598	66.0525	13.4664	52.5929	39.1402	23.6824	21.9048	40.6765	44.4865	30.1428	44.5275	42.702	19.0124	204.334	168.361	65.6979	28.7834	27.7731	11.9802	48.9425	364.388	149.048	124.52	59.3888	174.093	96.8131	26.1869	34.5394
LSSYWE	99.3502	35.4603	16.3984	-0.803218	112.755	92.5129	68.3608	220.65	40.0041	125.729	46.53	0.685832	21.0731	15.2447	54.4057	144.716	391.366	1.29189	175.609	136.25	126.518	207.816	109.572	62.6488	74.7139	30.8707	157.449	130.159	121.96	272.616	65.5657	13.8286	13.135	140.886	117.948	122.087	141.126	228.16	316.003	303.977	42.5234	29.4192	84.0962	7.46953	35.1851	11.7538	19.9852	4.47247	27.2517	107.011	39.6145	14.9384	375.604	168.392	104.664	308.77	145.472	63.1511	101.858	49.855	18.6869	85.6321	262.535	33.4078	249.933	8.31806	22.0908	18.9116	94.7146	11.9274	131.834	228.081	496.984	395.808	50.5968	196.228	10.2374	302.566	233.913	53.8871	61.6601	51.8699	15.9368	78.4986	58.4463	17.6317	355.754	326.807	120.698	28.4241	22.367	68.4134	31.6904	140.811	130.867	152.207	70.5838	61.872	72.4066	35.2344	119.802	77.1878	92.2076	79.4882	79.7226	45.4376	29.9057	58.0463	52.7296	83.5456	150.36	159.865	150.321	56.9762	25.201	82.9668	37.1663	56.2001	37.2627	48.2643	105.154	104.556	82.457	81.9346	24.7533	232.404	238.298	134.238	53.9267	24.2644	8.79908	91.1995	466.203	235.781	175.55	95.5843	222.736	149.911	169.195	30.5832
SSYWES	97.0389	51.8462	23.7173	4.51747	78.5813	111.445	84.731	224.584	24.3714	100.977	46.9397	-3.6321	11.6393	8.2046	34.3555	136.928	148.129	0.969695	195.699	99.6604	212.588	80.1107	80.1802	119.4	71.3057	11.259	179.081	87.3922	258.944	354.593	68.1098	10.4294	10.8836	134.023	154.066	152.771	141.8	181.57	194.095	271.869	63.7495	52.3736	114.769	29.9882	66.7005	23.9373	36.2896	11.7244	51.5554	58.7596	21.5777	24.1285	309.201	103.397	71.9762	301.973	183.643	70.6455	123.455	38.7294	81.1485	92.6199	328.93	232.934	312.449	15.3717	31.0013	13.937	76.0264	28.1877	134.671	183.743	254.23	417.611	161.574	217.915	61.9529	267.029	314.05	62.4939	44.8466	60.7602	23.5726	47.0287	61.9042	23.9253	325.053	350.908	115.444	23.939	34.3689	69.549	110.906	86.1391	122.36	141.87	81.7983	61.5422	59.6975	26.0025	98.0426	64.7333	98.2319	80.4403	56.5581	55.8103	71.4991	41.3316	92.5717	111.665	129.378	108.332	97.982	81.1095	19.6532	86.8591	80.4829	55.3342	43.7257	34.1791	114.179	145.954	99.9585	80.4434	60.3217	151.134	264.869	141.679	75.8982	52.8944	35.054	145.739	447.735	246.338	232.323	132.845	307.984	221.133	129.968	140.354
SYWESA	104.549	67.496	22.9205	27.398	65.5978	71.9431	99.1714	266.639	17.2277	124.665	71.3646	5.57493	33.5071	19.445	38.536	136.415	68.9695	8.45311	154.736	167.311	147.198	133.152	88.1311	77.653	98.5612	19.0234	492.862	62.6923	354.037	192.889	62.6702	14.0859	6.54639	110.386	141.749	135.418	92.5653	110.911	98.2131	199.738	57.6314	30.6433	67.6065	54.8948	42.8155	30.9705	51.5318	4.44464	30.0533	76.7999	7.81521	24.0349	304.998	109.172	88.6786	290.369	76.8012	80.8632	96.2164	34.0513	68.6581	35.9295	388.158	295.125	302.781	14.2474	18.0472	17.7167	48.6335	35.0135	91.7877	233.775	243.54	244.623	202.903	313.106	60.9237	109.124	242.902	278.317	48.3466	33.4985	47.8491	50.7416	46.0163	58.849	141.838	326.396	312.703	17.9761	25.4735	76.2375	158.209	133.108	167.378	185.083	76.5072	67.3601	74.7846	29.1073	207.23	47.0243	82.3824	65.3631	35.3364	48.2744	35.4358	68.761	66.0186	85.6402	143.046	75.9444	76.8695	70.8769	40.3344	82.284	80.717	29.8365	39.4122	38.1541	89.0541	130.396	132.477	117.846	78.9886	90.3673	156.287	220.147	40.5438	71.1833	42.6721	176.189	197.363	163.929	236.606	184.96	201.397	303.462	131.956	121.328
YWESAK	130.039	49.4371	22.7716	34.4023	60.6765	48.9415	149.428	218.68	55.1286	185.766	54.4591	17.0488	40.029	33.2128	73.3141	126.432	79.9979	12.1679	122.867	125.431	150.835	114.629	56.3075	97.4111	65.7154	21.5228	565.108	109.125	179.785	96.4109	68.6759	16.5795	11.2785	104.743	152.863	149.656	98.1786	71.1377	114.446	280.249	73.3298	24.3607	61.2124	49.0441	30.7875	42.647	19.7801	39.6842	34.1761	178.449	40.7371	23.2943	469.646	265.297	98.0778	116.982	64.3328	117.266	152.264	43.9675	19.3454	47.5896	381.769	309.368	307.544	23.9421	31.5136	15.9254	55.5717	19.8549	148.417	245.394	260.744	250.817	277.935	280.107	56.7977	69.8662	92.3011	238.415	41.5857	53.1635	47.0081	40.0387	55.242	48.9524	103.75	120.732	331.759	24.074	22.8633	96.8762	169.744	132.506	184.895	228.276	87.2234	58.9316	90.3663	38.2729	166.41	80.242	86.4233	54.913	68.8234	40.5812	43.2703	125.124	69.2309	101.336	205.153	75.3842	89.8883	77.4922	30.4343	67.1119	82.0019	42.3628	33.5361	38.7172	55.4331	160.436	76.3568	123.413	60.121	75.5486	84.0835	141.405	56.5043	88.5851	33.9552	104.285	214.737	171.153	175.043	131.983	121.801	241.318	149.161	104.488
WESAKT	91.0467	66.7935	29.8943	18.834	48.4293	46.9717	119.853	125.684	18.9055	152.876	72.0516	16.3604	36.8791	29.7486	41.1589	107.841	104.468	25.2191	81.9836	64.6069	77.2949	60.2795	52.0267	60.6685	53.4625	42.9204	213.196	112.075	83.0396	89.5029	50.2959	31.3563	9.33586	79.8635	92.7485	86.0978	74.4035	89.2113	66.5914	190.524	64.5466	38.03	67.8827	33.6115	43.6967	24.3358	35.3774	11.6698	39.3221	172.454	42.7207	27.15	304.495	229.665	111.328	138.736	39.6599	100.541	98.5078	53.5619	33.2794	52.0314	140.548	257.566	80.9807	27.7745	29.9517	46.4086	58.038	35.0816	139.64	157.449	247.472	153.889	232.501	74.9129	46.5404	47.1878	81.7118	69.7779	39.7908	50.868	35.8684	42.1578	43.4307	35.6172	58.8928	110.371	101.609	28.1488	33.7347	64.7413	92.1634	107.866	122.917	181.469	83.6149	61.9363	71.6605	43.8107	116.848	84.545	91.2764	41.5924	67.2239	28.1946	43.7737	77.7404	38.6825	59.1745	142.277	91.1752	66.2483	78.6678	44.6052	49.1961	49.2803	41.9662	31.699	43.3374	51.0443	58.3334	38.0665	90.2456	24.3991	38.1088	92.4432	51.9689	49.9219	51.4008	37.8501	50.8457	104.696	145.712	173.385	106.419	128.17	67.4101	52.214	117.985
ESAKTA	64.9731	42.0283	27.5261	29.7884	41.3866	40.0968	72.0971	125.106	37.6554	94.5132	54.146	26.8764	37.8545	32.8172	19.9743	53.2934	41.2554	21.0493	67.7128	41.5877	56.7293	37.228	43.3611	41.858	44.3159	42.6794	88.568	64.4684	77.0011	183.181	27.9926	22.1042	31.4583	86.411	82.7142	78.8152	72.9324	44.0682	91.2932	78.0986	44.7255	26.1267	39.5322	33.4798	33.0157	31.1788	37.8337	29.0863	30.1427	98.4313	52.5039	31.3502	123.517	80.3893	118.349	52.0119	47.6074	62.7788	53.53	31.8695	32.0695	46.6916	136.526	69.8587	113.035	34.1234	37.9507	35.6773	28.9688	31.5722	80.1401	136.648	122.509	185.497	59.3555	120.725	33.9408	79.1406	43.0959	54.2461	34.4496	37.6946	38.2659	35.6305	38.3987	38.5412	114.257	54.4132	75.5229	35.9888	33.2466	90.5626	111.571	88.0723	81.8967	124.8	64.1226	67.7891	70.9418	31.8927	71.4472	51.9704	87.7725	25.6377	49.5701	40.1176	32.7095	46.1834	36.7127	61.2676	86.0783	67.8512	79.469	67.1554	41.536	41.8266	39.4987	33.4499	49.3618	38.5574	30.5177	39.8008	25.3188	65.5611	24.4274	55.9143	54.3622	75.2143	39.5004	44.6699	31.2402	59.2406	139.707	186.014	125.889	95.0526	78.0619	121.405	60.9761	38.3539
SAKTAA	52.8126	39.0661	24.6373	32.6632	42.9905	41.7143	52.929	187.645	28.7284	68.99	51.0647	13.8502	22.3341	42.9335	20.1265	41.4485	41.4621	20.5901	68.1303	52.896	47.2772	48.7624	33.5966	35.3808	54.8809	29.6504	61.0915	67.2668	179.377	164.2	33.0911	14.9941	24.2115	73.7176	84.293	62.2073	74.1113	69.1015	73.3087	55.2874	42.9961	33.0679	39.0808	29.9605	33.6522	39.305	32.4093	26.214	19.0711	53.8993	29.5945	19.3287	59.7854	83.1444	72.703	89.2999	32.6654	56.6335	80.0538	45.5224	33.2738	46.851	62.6934	122.945	26.4953	33.282	36.038	34.9232	24.217	33.9939	74.3219	103.194	100.761	65.2041	112.218	51.3029	51.9015	47.4547	83.9741	36.4908	33.9169	38.9164	30.8319	36.7386	40.8333	34.0988	55.7401	110.824	48.5026	35.612	36.6637	97.1841	95.4934	80.8241	71.5248	100.599	61.7918	54.8413	51.5816	35.0193	54.137	41.5721	46.2868	36.6217	24.912	33.8937	24.1607	29.4613	37.5917	77.8241	63.2714	56.023	71.6765	72.417	40.5135	32.943	41.5343	36.3769	34.9004	39.7261	44.9072	17.9857	15.706	56.6982	22.1901	51.4001	67.0785	40.4743	38.0325	33.2356	35.0126	71.6536	56.3052	143.653	180.194	85.5134	68.027	60.146	18.0999	67.1805
AKTAAQ	74.5737	27.9448	21.6334	31.8569	44.3298	39.5391	51.6118	145.191	31.2008	77.3313	46.2926	21.2503	22.1602	35.0288	25.3564	66.0049	34.2127	15.4554	67.307	62.0613	40.8115	63.734	42.6548	18.921	53.1403	31.8681	230.238	95.8796	165.383	86.8692	32.8059	18.0111	19.8493	89.8483	87.9594	90.5772	77.2292	67.3684	104.162	142.955	45.1834	32.4394	25.3268	33.9689	23.9336	29.1912	41.4583	19.1762	26.6265	59.246	33.3664	21.1399	141.124	93.3262	70.9947	39.8784	25.2876	44.1632	100.963	38.3604	43.0436	36.2431	141.952	27.7327	86.0238	38.596	31.6113	29.9512	28.8144	38.0212	59.4499	151.191	152.141	95.1992	52.2453	100.104	28.8891	45.8554	33.8609	83.8807	33.1625	29.8769	41.1708	35.4864	31.8601	47.8674	65.9283	46.8613	114.704	38.0788	32.0719	87.6351	118.683	92.0041	107.061	152.503	78.2931	54.6928	78.8138	29.6189	87.5767	33.6246	53.7843	40.0409	37.2635	23.2653	27.2539	28.6914	35.3148	84.5676	95.7562	27.5178	80.1138	68.5654	43.6762	47.3766	38.6211	39.374	36.5795	35.7499	25.7202	47.5642	16.2778	54.9605	21.3836	52.1035	42.0923	65.5555	31.0003	40.4088	36.5697	87.8039	102.481	105.232	151.135	94.7689	57.0023	80.4154	33.472	19.1885
KTAAQN	70.543	44.5205	24.2945	28.126	45.6643	38.5553	74.6881	86.5793	33.9911	97.9917	59.4297	19.3061	29.3925	42.2055	23.4238	93.8101	83.6951	22.7079	77.9155	59.0776	50.6273	55.6564	43.583	26.8451	41.7656	43.3504	92.8044	107.984	88.8506	71.457	33.6652	22.6085	16.4926	73.2512	89.9147	79.4072	64.4231	92.9911	62.6885	140.295	49.9916	30.6543	25.9468	27.1843	21.754	41.4757	26.2042	26.2909	25.2822	101.609	34.5363	31.7404	151.686	146.801	90.6507	65.4876	22.1998	71.5375	106.253	54.3658	27.79	41.7494	74.9178	61.8329	31.5633	31.6951	32.352	38.7823	38.1057	39.321	81.1122	174.878	247.465	67.16	79.7652	48.787	34.3105	32.9156	46.6944	36.3508	25.0923	30.272	32.7581	35.7682	31.182	36.4043	50.8151	63.4976	51.1894	37.7533	42.814	85.9291	108.144	128.964	112.664	165.416	91.3054	71.0466	92.1714	50.6849	107.21	40.1749	73.5257	42.7321	48.1217	27.6489	30.0007	58.6927	39.8659	71.395	133.567	59.9645	59.2187	80.5074	38.4409	41.9446	40.6646	41.1215	40.8094	40.8892	20.0325	23.5792	24.481	73.5233	19.3019	45.5946	56.0264	46.0851	35.4854	23.5244	39.939	56.7298	102.88	126.796	109.62	88.9452	81.0012	57.9709	29.7798	36.5967
TAAQNL	70.4058	22.5681	29.1088	34.3794	38.8114	28.9295	51.1812	130.626	20.067	119.558	37.2526	21.6625	16.9717	27.4224	26.2441	31.1948	54.7006	30.2758	79.7264	53.976	41.0682	42.5552	54.6535	27.844	50.078	48.7231	120.625	103.045	58.3108	168.525	23.5785	21.8926	30.0039	81.0432	68.9544	44.8867	69.7183	59.871	126.204	156.267	37.3284	30.7046	34.9227	22.2313	18.018	20.5992	17.2256	25.4189	31.755	99.6918	36.6019	31.2993	150.165	97.0158	104.941	37.0516	60.5042	69.4285	75.3631	35.7174	19.9712	49.9409	141.827	15.178	85.1025	19.6953	35.8098	17.7503	17.755	25.1031	90.7844	117.209	138.044	147.162	41.874	77.2801	20.8638	126.92	21.4363	45.5639	32.3924	23.91	23.1857	41.6117	21.5906	32.0335	134.039	42.5061	57.225	26.8323	33.1939	90.179	106.645	108.055	85.9091	133.558	69.2366	80.8265	60.9516	64.7579	82.6412	65.7107	83.1926	39.1911	64.5747	29.0091	44.3572	72.5866	23.0518	63.4706	79.7229	53.4466	72.8282	51.4412	30.8164	50.77	38.9809	26.8904	44.7925	27.6454	17.9268	19.3941	33.9707	73.9705	24.2605	136.537	31.7317	53.6156	28.3969	20.5878	29.6418	71.6078	202.263	152.536	132.427	86.4147	70.4247	69.1127	18.0695	23.6645
DLYSKS	46.9753	39.3347	4.4019	12.0553	27.3153	34.7581	54.9345	172.008	1.69827	83.6019	40.6139	4.26056	15.6254	6.18567	21.9633	111.273	112.692	-2.98382	65.6415	48.3581	88.9996	29.9472	46.2055	53.3834	50.5461	13.0343	154.781	75.2304	238.206	74.1389	41.5999	0.320801	-2.596	84.0239	68.5493	60.4872	106.578	117.919	60.1606	128.201	52.2902	4.98864	121.636	4.42358	46.6491	34.4352	3.01514	14.1798	27.2465	89.7368	20.5481	10.3434	97.2539	104.363	90.0388	374.062	26.3804	62.0271	20.0867	25.6177	32.5516	30.6314	90.5184	257.505	27.7525	5.32177	13.2149	13.7665	73.8505	1.44555	126.019	172.771	308.047	66.6761	250.632	57.7461	39.186	22.7458	318.258	42.7459	8.0713	70.1258	-5.83858	17.2848	60.5238	-7.66112	36.9415	343.01	59.8879	11.6423	4.43188	57.8985	65.2594	96.5938	124.54	172.77	70.1593	55.7151	62.071	28.7072	102.6	41.0915	114.638	53.7629	56.7929	13.4221	34.2144	31.9572	29.9318	65.9113	108.796	117.414	65.9486	78.512	8.81567	45.7451	51.2334	11.8175	20.0462	11.3388	96.8199	-10.0551	49.2715	58.7837	33.2443	21.126	267.053	37.7614	63.0675	6.28618	21.9805	104.159	54.6333	126.131	185.144	137.46	291.61	71.7108	-5.132	136.959
LYSKST	130.619	24.4133	13.4368	13.2441	39.3878	32.8152	78.6734	197.043	19.9799	207.853	28.6561	7.88082	26.6923	16.141	31.6079	112.769	58.3872	6.93205	81.9735	95.2815	59.6563	107.558	57.2531	35.4746	63.7033	30.5695	564.311	97.6814	113.852	192.219	36.8214	15.8246	5.36875	74.1342	161.403	193.005	67.0846	55.1695	83.1493	281.009	54.3714	48.5597	28.534	64.6277	14.8749	10.9457	51.7848	13.8579	22.7109	127.665	19.9146	20.662	489.202	173.485	97.7503	39.921	67.0124	82.7734	99.5581	25.136	41.3874	30.4883	448.101	23.7786	387.406	13.1922	22.6829	9.35035	22.1335	33.1124	93.9049	222.089	206.84	399.699	41.6432	384.613	8.13494	137.511	38.0382	302.793	27.2282	24.5093	59.9896	33.61	26.593	68.0727	171.022	35.2157	340.849	23.3437	21.5313	77.8756	190.344	134.477	144.216	185.621	76.571	51.5887	63.5949	29.3243	208.007	51.0294	74.2515	26.8798	51.5426	31.9176	25.3753	65.9951	19.2159	62.5386	235.696	53.2697	69.8062	63.8001	41.1328	57.205	46.2179	21.3381	31.5363	21.4033	23.0399	208.567	41.4399	79.2073	37.5365	113.476	30.7065	246.045	39.3986	84.5927	28.8779	65.1222	259.466	159.772	151.319	101.82	60.8636	310.799	214.527	0.717257
YSKSTA	57.7591	73.8546	20.5477	24.6633	38.1231	37.0887	114.133	159.092	32.9662	114.15	80.409	10.6888	31.1805	40.6491	24.3466	55.1575	46.5224	17.6221	71.3231	55.9478	67.0373	56.3435	36.861	57.7401	58.1683	35.3841	64.7169	75.1071	185.293	116.913	36.0485	12.0366	22.9256	81.6957	78.9882	62.0248	76.1744	55.7363	81.3909	57.7999	55.5451	19.3724	47.3287	30.4681	37.9769	47.6242	28.1823	34.0086	22.5675	138.016	46.2058	26.5898	226.799	246.914	105.958	169.826	34.9565	83.7492	114.005	58.7221	32.572	36.6857	57.5454	417.422	27.5196	33.538	26.5093	43.643	67.6073	27.931	135.045	126.297	137.881	92.5322	366.455	40.9607	70.1551	30.1573	151.229	35.6654	41.9346	47.4995	31.443	47.9128	48.2771	32.8985	42.8166	183.119	50.1239	32.7188	32.6673	95.8222	94.0204	93.1315	90.2151	126.663	65.8781	65.5575	75.273	30.8152	68.4708	73.1151	90.2806	34.8442	47.3481	39.3511	34.1782	73.6428	49.4149	73.3945	83.4094	108.758	66.5875	80.3322	33.7138	33.1021	53.4291	43.7088	29.9183	33.9104	72.7596	25.7299	26.0648	92.5072	35.3592	30.3312	144.813	26.8204	31.9208	44.5145	28.2642	74.8662	49.8158	169.248	157.507	88.458	156.217	54.4634	45.1281	213.05
SKSTAA	66.8408	32.2512	23.0823	32.0219	40.33	36.5098	56.9532	162.183	34.5903	88.8697	43.7104	16.9716	27.1133	39.1796	13.0149	63.6324	43.8418	21.8453	63.9336	60.5571	41.6575	60.0724	32.3367	18.5587	57.0433	28.6681	245.865	69.9823	104.249	167.661	30.5987	18.3098	19.2777	78.2486	77.6326	81.0486	78.7982	61.1434	77.7045	99.2153	45.943	28.7393	34.5124	38.1579	34.9363	32.1474	31.1446	19.9577	20.7197	57.674	33.9098	20.7627	159.122	82.0256	77.9371	26.0797	32.9795	63.2313	98.5806	37.4547	27.2803	48.1884	184.406	35.7399	104.765	32.6969	39.5044	33.1593	30.9869	29.4968	74.5086	161.467	160.537	96.3418	51.2624	156.727	40.9448	47.7368	31.7969	145.066	30.0008	38.2619	38.1336	34.2587	41.8155	45.2733	58.7816	42.3566	173.57	40.5149	35.0824	88.6194	107.245	85.3501	95.0469	136.225	69.5882	57.1841	60.4652	35.4465	85.8357	33.8622	44.2899	33.8652	26.3553	29.3983	23.6484	31.1773	39.7673	72.2344	79.6078	42.6471	66.8657	73.6126	48.1117	42.5621	38.1723	38.5202	34.7491	34.2042	32.4918	47.9551	15.5018	62.0172	22.917	51.3649	38.2028	121.889	42.4077	39.0282	35.244	65.7735	72.1838	160.246	155.948	92.1678	46.5175	148.633	33.1936	36.9661
KSTAAM	58.7759	22.8005	22.3153	29.1098	29.5141	22.077	62.0268	146.738	26.3336	82.7434	36.8394	12.4974	14.5688	28.2687	19.1407	43.896	25.9039	22.9198	62.6912	50.6965	48.7174	44.3255	42.0728	18.6508	46.6321	43.8499	85.8526	95.3088	161.603	82.0662	17.0038	19.6568	24.0333	84.6732	77.3221	62.5446	74.2741	65.5628	92.8876	84.7482	40.6846	19.7019	24.3342	26.9244	19.8819	23.9541	20.5118	20.5847	16.9364	94.9635	39.6845	24.4138	181.276	132.195	69.6806	40.9781	19.7608	58.4891	84.3425	43.2708	29.3693	33.6181	74.2623	65.1919	34.484	31.9826	27.3773	36.2764	19.4967	25.4206	81.5791	117.914	115.695	86.4638	107.577	52.4854	26.8198	32.4964	34.2517	30.5663	19.597	27.3567	29.5311	26.5214	26.9289	32.7989	54.7201	42.9849	42.681	31.265	31.1303	81.515	97.5346	94.0475	84.4866	131.862	67.3436	55.1028	65.5681	35.9237	62.4273	42.8287	61.2827	30.2743	42.0224	26.9259	21.4832	53.36	33.5038	77.396	76.3368	33.7879	57.4134	63.0438	34.5286	34.1559	39.0613	31.5046	36.3421	32.3143	24.5952	33.615	20.2714	63.8602	23.2602	44.4117	41.0348	35.7566	27.8809	29.6451	36.2566	74.0403	82.0602	99.712	169.78	68.687	63.1307	43.7264	32.7942	18.1909
STAAMS	54.2747	21.778	11.7527	22.0474	32.9224	27.2502	47.5971	75.8088	23.1214	67.0402	33.5315	12.8495	25.3291	28.2603	6.19892	84.1337	74.1792	15.9096	58.1186	43.2296	37.037	39.9023	39.6148	30.4168	42.7701	25.9363	71.401	70.1629	79.4323	70.9185	18.7698	16.3522	20.4269	60.9212	80.7844	68.4861	56.8735	82.7915	56.5926	91.0146	33.5709	27.5964	16.1775	20.319	17.3316	18.4362	25.0516	14.6119	20.0646	60.0909	38.3869	15.7101	78.6477	77.2491	95.0561	45.3835	26.636	49.6388	84.0545	31.8793	22.949	24.6385	61.3929	28.3289	17.15	23.8904	20.8655	22.806	21.5253	29.9123	59.3769	179.846	234.688	50.7039	49.2127	47.6361	29.5912	28.2958	25.5157	31.8308	30.1358	20.6854	26.6767	37.6886	19.889	20.1194	40.1342	37.2689	43.0363	33.7461	27.0572	82.0118	98.0933	113.598	104.364	140.192	81.9144	57.7286	71.1622	34.9989	95.1734	37.1105	46.0102	23.4806	18.3692	22.6623	24.4574	23.3659	42.2461	66.913	113.387	32.3365	65.8435	64.7986	33.4835	25.1093	36.2484	26.6674	37.9136	38.34	7.31696	18.6271	7.31881	48.0643	12.2613	40.7794	44.6371	34.8049	19.0048	25.7033	31.3105	51.4173	63.541	122.426	95.9772	75.2409	65.3663	52.0834	20.2498	30.5631
TAAMST	68.2941	39.3396	20.9215	23.0606	49.859	26.2427	52.4619	123.839	36.0539	110.352	47.1132	17.5849	33.1531	33.9813	14.3882	41.4228	45.0448	26.1694	58.2059	56.1428	38.4007	44.8539	45.2738	24.3952	51.4627	40.1095	130.673	105.213	74.005	143.267	18.2773	19.0145	21.4352	90.2085	61.6783	54.3006	75.9556	60.3425	87.8506	106.381	53.4425	18.6855	31.4477	23.7299	31.5628	28.8575	19.1741	13.096	20.0943	87.349	24.5346	23.6953	140.215	117.297	92.9262	38.0588	43.6297	79.8551	85.363	44.034	20.4157	57.1281	102.824	17.265	72.8245	21.0303	42.3532	23.5283	35.3066	29.721	100.225	107.494	106.017	148.855	51.7367	65.046	31.1401	116.966	38.1502	24.1981	29.1191	34.777	25.2292	27.8797	35.7658	21.286	128.143	44.358	40.7469	35.3974	35.8493	95.5195	100.51	104.062	82.8441	127.806	75.3291	73.2433	50.6005	50.4083	78.7488	50.3084	67.527	18.9811	36.2855	17.5391	36.5392	46.092	26.5977	73.1902	75.2525	63.2823	62.3789	68.0005	34.4085	36.937	25.5045	37.4408	36.9738	37.1786	25.7067	19.3096	7.04741	75.0242	11.9104	104.721	49.2327	41.0372	38.4737	20.2379	36.7361	63.8766	185.878	153.338	131.858	66.8107	57.1268	65.4677	29.6561	22.7186
AAMSTY	33.5632	0.756503	12.4482	15.3956	47.9739	20.8862	44.7409	127.678	13.8963	44.5506	24.6093	7.1019	30.6171	16.9507	28.4275	43.9668	39.6738	11.1297	56.2092	30.4998	108.312	35.0155	32.4512	36.7594	39.3258	29.5739	120.401	119.824	119.98	96.0022	7.53146	1.41982	13.8724	71.7348	62.6127	43.3492	66.783	37.8651	183.002	139.703	26.6254	4.75168	-8.11995	26.8246	9.23366	12.2796	-1.6098	4.10618	2.92922	64.0478	36.8367	14.7426	106.044	54.0438	89.6476	74.0381	69.1915	35.8374	71.073	34.9748	21.0769	24.6178	82.9558	57.8923	20.8546	19.1101	11.8063	13.9499	20.0175	19.0563	33.8269	125.639	126.201	37.6198	51.7717	43.3324	4.64545	158.025	101.408	25.0328	23.882	17.1412	25.2221	23.6498	15.3164	34.4126	231.128	126.268	36.1721	18.9203	28.8747	64.8028	130	68.7183	67.6432	106.785	50.2601	56.1673	65.1022	21.412	50.2406	42.1851	62.4075	11.3383	15.6501	14.4702	11.4652	69.5443	68.9425	63.8796	86.7681	24.8363	68.0781	52.9401	27.1067	22.3966	31.0747	18.7317	30.5507	16.1589	16.1777	23.9649	6.06568	33.1674	4.72874	162.838	95.5058	29.012	21.2038	26.8057	20.2684	51.0127	203.092	140.778	138.069	71.4457	131.271	44.0909	25.5623	11.3155
AMSTYT	48.8525	15.085	8.53288	10.2574	52.4017	46.9798	48.9502	170.383	16.4606	47.2131	31.8491	12.7806	17.0661	20.2739	28.9883	132.343	302.93	0.409951	75.1586	121.585	35.7598	124.27	62.1287	21.6841	45.372	12.0678	204.632	109.091	92.4141	179.148	41.108	4.76224	1.3938	105.089	73.4509	69.4214	114.532	174.403	90.7294	177.513	42.414	16.3888	33.9424	8.80341	17.5422	-2.72418	9.79195	8.88298	6.81537	56.2832	29.6689	16.4618	137.128	86.49	84.9367	203.047	29.2631	35.2478	80.754	19.7353	10.4331	39.9869	153.686	14.884	79.6919	4.56811	20.3228	10.0055	64.4857	16.1912	64.7981	144.914	465.096	84.5848	37.571	109.461	22.8224	74.8652	148.53	103.472	14.9382	29.1181	13.8259	19.9241	28.758	5.74666	88.3313	216.819	138.938	18.3775	15.9324	70.9427	93.7412	118.807	118.182	176.565	75.4486	48.7147	50.2543	37.3005	115.592	30.1298	56.5152	45.5216	42.221	8.44678	19.248	27.1905	22.8041	73.3362	101.673	50.6098	49.5965	58.626	27.7912	53.8842	24.7095	28.8964	20.6589	42.9106	38.3855	22.8667	18.4163	34.6905	-5.03677	73.839	167.485	102.116	33.0665	14.5201	16.5488	50.9795	88.9975	181.911	158.881	72.4985	174.073	125.923	23.9629	36.6727
MSTYTG	70.0535	17.9759	12.0147	8.00352	32.3036	37.6141	57.8557	199.91	10.7454	96.587	31.7025	0.298643	11.4629	10.3802	23.5654	46.7548	37.3828	1.45513	99.4271	35.5995	122.55	28.7169	51.9638	40.6538	29.622	15.3504	41.1941	2.20529	174.259	257.803	24.4626	5.80812	8.75782	104.206	95.6903	111.202	93.3138	75.1661	168.655	123.411	2.55753	3.45878	5.73157	13.764	-0.0462548	1.86042	4.9824	12.879	9.98863	65.257	23.4488	7.01783	270.431	119.736	98.2615	54.6181	43.3619	50.8958	75.167	24.761	12.9186	50.844	222.13	72.2164	231.466	7.49184	13.5527	4.55107	10.3173	9.29384	61.7951	124.057	128.045	376.274	77.6207	157.065	4.30409	96.4563	63.66	44.0151	11.8765	5.97706	12.425	24.1916	8.55195	8.19168	125.641	76.5117	86.7395	8.93127	12.8047	56.3821	81.4782	87.4747	82.1102	118.501	38.2188	53.609	55.8171	15.669	66.2188	65.368	85.1625	31.5486	39.3436	33.4805	14.353	18.9628	24.0581	49.7587	67.8756	37.8358	59.7085	47.3307	16.1361	48.0556	43.7083	18.4788	20.6279	11.3372	10.5628	74.7312	36.1146	60.4054	19.6545	51.6395	69.1773	118.552	10.9081	20.855	12.6581	99.5832	226.836	211.14	155.751	77.8723	131.568	139	122.23	11.6828
STYTGI	54.5182	30.7711	18.7	23.9956	44.8508	50.2525	74.0804	219.92	30.1272	56.4722	30.891	10.8691	25.223	27.0614	31.291	105.312	58.4174	20.3672	95.6283	62.2231	126.579	61.1554	52.4799	73.1139	71.8904	41.7126	146.055	126.247	250.658	163.521	33.602	13.5097	15.5823	71.8029	115.12	95.1889	70.1201	89.1408	95.7113	201.447	54.3159	14.5577	23.1966	22.7745	29.2292	23.1113	14.0156	12.143	19.8342	78.3313	18.5217	20.6301	109.052	83.2879	23.1646	109.483	44.5638	63.0046	85.8984	37.632	36.8739	39.4199	162.108	212.158	66.1379	17.403	32.1246	14.9693	12.329	16.1951	68.7258	173.373	221.837	76.6489	150.565	113.005	55.216	85.1621	112.441	67.673	8.53534	21.1902	19.7711	14.574	23.3162	27.371	115.414	151.997	81.4019	20.8332	27.5778	75.0752	102.914	128.01	135.695	178.966	110.841	35.6484	82.3045	31.9541	109.729	30.8093	26.6066	43.0455	26.7018	32.8243	25.5091	47.5186	32.2605	76.9836	138.514	29.1218	54.926	71.1534	27.3043	54.9071	63.0176	27.736	27.3777	26.6623	13.1239	22.4279	45.211	62.7187	43.2443	115.825	76.3472	72.4142	36.2067	13.7089	37.9729	130.377	137.188	104.48	246.973	104.142	102.931	130.436	18.0135	104.842
TYTGIF	110.185	2.09381	2.90575	14.6521	42.2273	27.056	71.6669	104.142	-2.95996	139.233	21.4928	0.465443	2.42873	18.0543	50.5439	122.332	102.405	1.40176	85.064	97.4963	105.48	119.656	41.6275	60.1188	52.5003	20.5746	399.896	105.478	150.747	58.1438	43.8523	8.10357	11.2235	75.8736	58.693	66.8391	68.129	87.4952	108.818	236.866	23.4255	4.45497	9.09776	25.2856	0.466846	5.45944	14.6847	19.126	15.8184	100.218	42.7033	19.915	222.149	99.4597	128.086	79.1358	13.8484	84.2817	88.7446	27.2438	11.1431	8.50185	225.43	52.0183	107.575	11.7921	4.77952	4.21049	21.3403	2.74207	65.3152	203.878	281.727	231.811	105.128	109.852	1.76456	87.0279	71.1136	107.042	9.50067	-0.738497	9.47117	18.7751	2.34026	24.2919	122.018	115.714	144.401	16.4823	17.4703	70.1709	140.889	159.193	167.91	235.502	77.961	96.8157	56.745	69.3547	195.595	93.3004	119.185	47.3339	65.204	19.5419	38.6192	65.2938	50.0092	65.5284	108.634	65.3716	52.5716	40.6211	15.6543	67.1913	55.5175	20.6587	27.62	15.2672	9.5587	23.1875	41.0452	70.4468	35.5091	50.6578	100.039	47.6991	22.1479	18.7086	19.8308	74.2374	266.453	154.266	95.7198	99.4671	185.578	108.796	60.4951	3.36541
YTGIFT	47.7832	35.4033	3.92622	12.489	53.5566	32.4627	145.211	97.1549	16.5916	87.2041	38.6999	2.7638	14.902	16.4939	36.0787	118.575	207.412	16.691	98.3189	117.578	79.8065	101.13	83.6324	60.7268	74.6837	19.2869	142.218	97.7833	66.1308	214.332	34.1868	2.42779	8.23813	64.7784	76.4276	75.932	74.5236	98.6347	89.2688	193.214	45.644	8.4368	35.4378	8.21066	13.8806	22.6317	0.580512	17.024	32.2794	141.264	41.0584	12.4794	299.566	212.981	108.541	117.267	36.8977	66.1043	114.31	29.9215	-10.0245	37.7854	163.579	98.2641	71.5505	-0.13096	11.3962	4.00095	28.727	11.5031	106.999	171.862	359.162	171.075	100.863	123.116	12.0175	88.9396	89.4288	83.4763	8.00228	18.815	4.90768	11.9301	17.3368	4.28325	110.063	120.29	129.815	15.3842	17.4113	73.0313	83.0432	171.352	137.144	195.386	99.3998	64.7834	82.1317	37.1651	128.323	91.66	71.0907	43.7624	29.3932	37.7087	34.6642	77.6115	32.1712	25.8522	102.434	46.7772	8.6018	51.8813	10.9947	51.4234	38.2827	28.3059	42.1286	39.4331	12.0966	27.6927	34.8004	78.9453	35.2621	100.454	79.3351	104.22	23.9364	17.7716	17.4102	18.9489	171.035	189.783	182.774	84.3358	65.3393	179.066	41.5677	69.7823
TGIFTD	77.7647	27.3424	16.4002	11.8248	83.5761	59.7031	68.4002	277.106	43.3524	89.325	33.5705	-6.39798	18.3094	19.9045	27.428	44.3361	69.7902	-6.49385	123.526	71.8463	131.268	68.9835	52.4831	76.4243	43.2767	17.8731	169.666	99.0793	221.842	229.886	45.3936	12.0482	9.23809	144.015	88.2293	81.3864	135.876	72.6428	288.638	189.736	33.4732	11.9792	8.42205	26.4662	26.7137	16.8944	24.4442	6.18521	34.4386	96.5916	24.0412	2.46032	156.631	110.303	102.867	89.0988	109.918	84.601	104.671	43.3761	39.9416	72.1592	125.107	84.8628	116.825	25.6128	36.4958	27.7412	51.1177	30.6251	88.3522	103.059	74.3948	266.077	145.543	89.0337	36.5901	241.202	105.822	48.7178	54.5857	17.4108	26.3197	53.7487	14.8626	31.6214	333.095	124.187	72.3296	34.7422	37.9827	76.1893	85.4814	89.5796	52.017	77.294	37.0092	70.8346	30.2684	42.7994	49.834	80.8478	98.2489	27.7645	51.2024	13.9533	44.001	48.9221	46.2628	90.5164	57.2795	64.9128	119.968	37.0203	24.7231	59.3118	33.8904	42.0606	36.8	35.5664	29.8752	28.9133	32.2763	75.0359	20.5494	199.808	114.388	58.3182	23.0908	27.569	35.333	159.302	365.94	216.359	189.934	103.021	179.356	56.0923	44.5959	38.4522
GIFTDQ	33.4054	1.60785	11.3799	7.42638	55.3183	57.7951	63.6353	215.052	10.1208	9.08538	13.2126	4.79018	3.73136	8.21416	35.8567	142.069	116.531	-11.815	116.744	67.1063	141.412	62.0635	76.8361	62.2701	53.3441	2.82003	178.974	117.305	204.475	181.016	50.8278	1.39361	-0.0595124	104.008	126.027	102.18	112.674	164.09	111.652	226.068	54.6164	28.1049	44.5677	4.92472	32.9281	5.67992	10.2182	0.0979308	16.2011	30.642	-0.748389	6.03437	110.443	70.6546	52.2205	260.038	44.6431	25.1899	82.9295	25.7226	29.4615	35.5375	142.559	82.6567	53.0785	7.21379	24.2454	11.4954	56.0217	8.80315	49.8198	212.125	310.322	40.1562	52.0943	115.013	1.37863	73.8689	231.737	96.5905	19.6304	26.2601	4.38732	26.5484	28.1617	4.77072	107.781	313.012	121.661	23.9062	26.194	68.5943	80.4266	122.217	144.402	212.017	106.489	55.6788	96.9077	33.2659	124.84	25.3274	88.0198	67.1785	50.4485	22.6507	17.04	17.561	43.6982	112.274	118.416	25.9962	66.5095	74.8707	13.2333	72.447	51.0295	36.3029	1.8348	10.7841	45.6835	29.7048	47.0367	42.2891	31.5351	100.332	172.597	97.2169	57.2093	1.42931	32.5505	106.936	157.804	181.582	217.09	133.86	224.84	150.793	16.4479	34.1062
IFTDQV	180.794	32.0195	31.7892	21.0245	77.8603	47.8781	102.423	271.02	20.6494	208.8	35.2333	4.75671	30.5311	24.2072	77.7505	127.708	139.893	11.7452	107.048	153.93	67.6257	156.455	96.1394	47.0656	68.5802	36.2791	443.426	128.208	190.794	178.53	56.2815	30.9114	4.06831	130.212	144.962	142.194	112.76	129.54	114.264	333.654	66.0443	50.659	44.3337	37.7917	24.8253	9.01645	53.7796	25.8462	40.5974	175.755	25.4021	27.1632	396.514	203.719	118.059	120.165	90.5787	142.892	116.541	45.6913	44.063	60.6117	375.241	53.9084	281.47	30.3532	32.6044	10.7508	71.5484	27.5955	120.15	238.052	322.477	325.385	109.543	269.564	19.8996	150.485	90.798	239.425	44.1237	32.3774	42.3036	52.3496	41.7409	50.6418	179.677	114.989	305.434	25.495	37.0293	88.5445	159.198	152.673	199.398	261.099	99.9748	92.2118	88.4103	73.1244	225.202	78.9838	135.346	77.2124	94.0942	40.7604	44.0468	80.79	32.0528	97.4906	246.793	68.6263	91.1955	74.4209	40.717	81.7952	73.0079	31.9743	38.0537	42.3584	50.4763	169.19	79.19	97.2234	46.3881	153.481	118.178	183.511	43.078	70.2643	50.8373	118.486	263.843	216.905	211.342	155.119	169.025	247.956	181.85	17.3584
FTDQVL	58.5001	56.5933	25.7443	24.1142	52.3621	64.4535	159.625	195.28	35.1638	122.796	79.4154	6.91439	25.3814	16.1057	48.599	113.783	84.6285	2.09287	92.135	56.4069	108.851	43.1432	67.4371	80.8387	55.035	30.4538	138.343	114.844	172.873	213.856	51.4745	13.5882	24.1049	117.64	92.2902	88.1034	113.125	70.319	152.193	226.646	58.9513	17.4231	54.5519	21.3304	24.0158	47.4956	12.7419	36.5584	31.456	189.395	57.9007	28.8722	346.538	235.922	130.216	141.089	103.494	69.8386	129	28.1513	23.3082	44.4219	180.279	251.42	69.7437	11.0498	28.5311	14.2712	58.2849	14.9872	139.991	193.379	235.497	198.508	238.202	131.225	61.1914	96.9531	122.979	51.7367	36.2953	34.3473	21.2476	42.1005	43.7379	35.4038	148.065	151.091	63.7613	20.3305	23.8329	83.4093	100.437	136.321	144.085	202.049	117.691	79.7074	113.539	41.9797	132.183	81.5973	127.242	58.8641	81.7416	43.7723	39.0723	100.057	41.7598	69.1097	161.126	109.422	72.5579	77.5786	27.7622	69.2132	67.1306	30.2449	28.8088	13.4413	46.3865	44.5045	50.1737	94.6834	42.6825	128.498	133.7	88.3964	40.39	28.858	29.223	103.833	251.014	219.052	202.583	127.357	189.728	144.307	50.1948	143.191
TDQVLS	88.5491	17.5352	14.4364	19.9748	39.9719	26.7056	63.9796	200.663	14.5143	123.869	30.2415	11.0201	34.2382	10.1351	30.1393	80.6976	102.216	9.46107	64.7587	48.7898	37.733	45.313	55.441	47.8079	63.7096	32.528	184.281	71.9605	172.551	170.997	32.6459	10.5608	17.7252	75.2408	98.2048	92.6263	72.5447	85.9992	69.6253	144.885	44.5567	15.0457	27.1669	15.609	3.03962	9.35312	25.4402	28.905	42.9923	97.3958	26.8054	23.4582	153.725	106.557	120.923	109.327	32.0989	73.0998	65.2019	28.9043	17.0928	42.1644	148.22	74.6861	60.0337	16.3717	23.5338	7.91065	-7.56602	23.5323	88.6833	155.781	243.769	120.618	118.92	90.1319	22.1412	42.5289	88.3225	107.658	17.2464	16.8292	21.3781	18.1972	17.3992	18.2052	64.9352	120.607	140.751	21.8875	18.0389	70.571	91.9214	114.833	114.013	158.695	67.0727	88.2959	50.6944	65.2613	124.603	73.578	99.8107	42.1108	58.5876	33.2072	58.2516	53.9855	21.6203	59.9205	109.529	70.3847	44.8788	54.3083	24.6658	62.289	48.652	7.01752	47.2044	31.677	28.1177	31.316	36.8737	78.3027	18.1155	59.1396	104.843	101.832	21.3406	19.3899	30.0499	62.6643	112.82	204.093	188.634	108.701	151.321	144.93	32.6169	42.964
DQVLSV	69.6052	6.85211	14.309	11.8105	43.9051	31.6146	45.1535	227.923	0.468513	117.096	19.8254	20.2966	19.4978	18.1417	41.6147	61.7849	33.2842	11.3251	52.2323	49.5605	33.9844	47.8374	46.6428	32.9507	56.219	30.6679	246.721	98.4331	160.277	187.838	31.9525	8.7553	7.94888	96.0106	88.8196	88.4405	92.2577	66.0247	110.746	185.013	38.945	-2.19106	22.3968	-0.933254	11.4314	20.2418	6.85123	16.1847	19.2207	126.017	22.7112	16.6141	220.891	84.2868	78.5681	57.1295	22.957	47.0143	25.7134	17.1316	12.2407	27.5635	230.492	45.5548	104.105	10.6544	21.0723	18.1055	28.1059	14.4545	71.7406	149.489	145.067	161.9	77.5429	138.171	10.7954	74.9218	50.1086	92.3926	6.78205	22.2084	10.734	8.512	24.1923	12.7563	99.5976	73.0102	100.056	14.3497	18.9823	75.2652	108.516	113.411	110.989	170.113	81.0495	61.247	66.5793	29.6497	99.6654	31.8449	74.8235	19.3738	40.8185	33.7518	23.4217	36.8405	10.2603	81.7634	109.289	35.2851	74.785	52.4233	19.0881	58.724	62.0603	13.4203	38.5137	13.7314	16.5668	62.799	29.9756	46.0718	13.5031	104.966	74.5732	90.9376	25.9558	12.638	28.5451	93.0538	170.955	160.838	194.697	87.5567	95.7568	138.906	22.1386	9.91768
QVLSVL	43.4595	-15.3714	-8.77313	6.68534	14.9333	13.2312	46.5202	154.351	-3.17032	87.1523	7.67387	5.04411	7.89229	2.96294	4.70175	80.6942	48.1031	-2.71554	40.5994	23.864	26.37	20.6321	21.7053	22.3734	30.4477	13.2599	115.804	70.0778	175.736	75.9505	7.55431	-7.74838	0.0876022	53.9131	69.7653	62.547	57.1574	63.9771	83.5532	167.033	15.1743	1.63399	-10.5176	-2.84145	-10.6883	-8.99526	-10.1424	2.53343	9.9385	123.21	33.5396	16.2976	153.953	102.479	104.036	77.5265	-12.9321	35.7568	54.3098	8.5379	-6.94137	3.0427	90.7376	92.6873	7.53501	3.13113	-10.4909	11.3558	-7.94909	-0.422683	56.3908	182.811	229.839	48.0677	126.821	55.4783	-17.3427	24.3469	62.1031	26.0473	1.73289	-4.43732	-4.97873	12.6158	-1.81215	4.32679	43.2617	97.9314	53.65	1.44673	-0.626812	48.9723	67.3675	123.824	119.99	173.714	74.2328	69.2677	71.7935	37.3679	102.7	45.1591	84.0184	26.7379	32.472	4.76756	10.9011	52.9609	-1.34938	47.7616	113.499	25.9934	45.7359	53.2145	10.0608	28.6721	42.731	1.16939	17.6228	1.6765	-12.4985	15.7406	6.18636	29.9556	-2.77486	45.5322	92.2048	37.4354	-1.50558	-6.64985	7.67137	50.3378	102.516	149.091	163.541	83.8035	155.144	58.1417	7.86484	-4.52049
VLSVLK	67.8948	-9.38291	-8.05018	-9.57389	26.0062	2.33316	28.1623	165.613	2.75446	107.977	12.5071	-4.36495	13.6723	-0.759019	22.4602	68.4524	73.0211	-17.1737	35.0373	29.1115	39.2909	10.95	35.8252	13.9063	23.2204	8.12658	180.592	71.6412	72.101	157.567	10.1014	-3.15038	-10.4271	56.9458	43.9361	46.5741	57.1401	60.116	108.603	210.574	12.1127	1.91152	-2.77154	-7.57002	-11.4533	-16.6219	-10.6378	-1.87338	16.7575	118.179	10.22	0.693783	213.869	123.802	102.474	29.1458	36.6164	54.3555	68.9041	-5.67914	-23.6853	20.0885	168.818	-11.1437	42.0021	-16.7074	-0.709208	-13.8457	-11.4543	2.02335	64.8499	186.23	224.719	115.181	27.5494	105.037	-17.0915	73.1134	10.3638	63.2114	6.97126	-6.55093	-8.892	13.3631	-3.16087	-2.37508	120.863	25.009	91.3585	-5.69669	-7.92115	50.1135	95.1309	94.3265	95.74	151.823	59.0376	47.3726	54.5178	40.1906	106.73	43.16	76.2363	22.2017	41.2508	7.495	30.3104	37.4118	13.9452	41.9771	141.99	30.5092	49.8603	35.9416	4.58711	44.7165	17.249	-13.3391	23.2171	3.79796	-14.7413	5.05173	-3.94457	44.6692	-20.2791	92.3959	41.5965	91.9616	-3.21338	-6.98975	1.47223	40.3191	200.309	160.337	152.501	93.623	101.641	149.787	-6.73034	4.14536
LSVLKG	29.4801	-6.95144	-1.56067	-9.64622	6.09363	13.4657	10.3875	190.204	-11.4433	59.8738	-0.448292	-16.0801	-13.3203	-9.75101	14.3241	36.674	118.759	-6.92371	31.571	34.4714	13.7626	14.0035	38.6041	3.93862	27.673	15.2643	4.06133	-1.84334	139.652	177.691	11.5141	-9.44664	-3.80958	99.5193	58.9956	50.9071	88.6614	101.264	84.4814	-15.5354	-13.9282	1.18328	22.916	-10.5193	-9.92948	-15.606	-5.47867	-6.09517	0.948782	47.1763	7.10595	-2.58317	128.676	138.874	61.3259	106.94	-5.99993	31.1836	53.6969	11.2483	-0.620554	11.8718	81.8439	23.9212	22.106	-5.41321	3.83954	-6.31801	35.2581	0.255573	75.8443	100.308	251.022	128.082	54.0968	58.3523	-17.3395	7.47575	61.5512	4.34338	-8.08486	15.4868	0.363474	-4.19887	15.8159	2.16696	23.4896	98.1745	19.6146	-2.74841	-1.07277	43.2771	47.9656	93.8671	67.8213	113.228	31.0922	35.6653	45.2541	14.7861	58.7596	23.6616	53.4948	3.53376	22.7791	5.34474	1.75857	-1.48843	-3.27514	58.479	50.6399	64.4883	39.2605	40.4131	-5.31426	42.899	22.9258	-4.11908	12.2839	3.54325	28.3545	-18.1054	-14.9759	29.7241	-9.14925	10.0266	105.543	34.4708	0.92177	-6.84401	6.84748	66.1987	74.2581	145.992	132.589	64.4955	153.554	85.7898	-11.157	-19.309
SVLKGE	69.3864	6.87806	17.8358	10.2366	51.7658	42.0314	58.9319	178.876	43.4501	98.8661	13.1858	6.62237	23.1225	21.6527	13.5366	90.9985	52.0751	9.15805	61.9565	45.2513	64.1943	44.3577	39.969	35.2105	52.018	23.513	166.482	103.951	195.621	168.988	23.0665	13.8387	1.27714	72.7497	122.071	113.263	72.3354	92.409	143.366	255.78	32.7596	13.8259	10.5258	13.4168	12.1914	17.2085	27.2211	1.847	6.90574	61.0148	-0.501681	-0.984153	196.801	75.8342	15.4381	34.1508	84.6228	63.3685	104.731	31.2099	22.0208	33.8533	196.426	48.1404	126.195	17.8157	28.7909	22.8942	19.7458	25.6759	62.3191	233.425	232.636	222.897	85.924	164.962	17.5437	176.093	28.7451	47.8228	39.4704	17.126	17.757	53.9404	15.7404	23.9995	207.996	43.6669	72.4601	33.6943	24.6812	78.4922	11.5493	111.404	117.806	153.323	90.9036	17.8562	84.6028	13.0897	101.269	30.7476	20.0503	34.1974	12.0312	9.68791	11.4545	24.8231	42.9822	73.1342	184.025	26.9172	73.0434	77.0583	19.9989	48.7239	52.1187	28.6222	12.7303	21.5673	5.34022	83.3949	15.4611	50.5647	2.43887	170.19	42.2956	89.472	25.4923	14.306	34.6283	66.5188	277.994	97.9195	187.453	70.328	20.1271	159.904	52.8857	5.89238
VLKGEE	129.25	52.7429	33.5234	31.232	89.0286	57.8682	65.5314	77.0852	46.4602	164.497	71.6972	19.5421	33.7614	45.1203	18.4026	118.877	155.696	8.75231	109.378	94.1846	101.58	93.9201	59.7442	40.0538	49.3663	30.2541	151.516	141.39	192.396	52.3189	84.1227	29.6226	20.3653	111.6	88.8221	90.3297	100.125	142.391	103.707	233.788	82.5257	53.5388	86.2075	27.73	66.7958	50.6869	39.0681	29.5525	41.4746	107.624	34.1257	25.1795	199.544	202.623	107.08	202.677	69.1044	104.575	138.414	79.2519	35.8453	74.7427	61.3234	134.857	32.8081	43.1196	51.4922	33.9495	82.5425	43.9636	164.461	200.879	308.389	133.727	167.775	31.7427	42.6712	83.9778	193.311	45.1381	63.5634	70.8792	24.9234	67.2454	64.4532	30.4904	86.1262	217.56	59.3183	59.4251	54.6445	106.092	28.4099	121.93	141.203	184.886	107.145	78.5002	98.4001	67.0919	130.858	59.4285	108.173	68.158	74.8236	16.3064	46.7767	51.875	74.3427	121.787	167.115	112.12	98.1693	103.397	45.3721	58.3838	47.4839	71.0194	31.5327	42.1407	100.709	30.0489	36.5896	89.2446	19.7531	82.5812	191.797	49.2257	81.3992	31.3065	54.9112	88.5526	194.582	131.434	123.288	125.233	230.991	27.5441	38.3806	89.4556
