Sequence	1yjp_1	1yjp_2	2kib_1	2kib_2	2m5n_2	2m5n_3	2m5n_4	2okz_a	2ol9	2omm_1	2omm_2	2omp	2omq	2on9	2ona	2onv_a	2onw	2y2a	2y3j	2y3k_1	2y3k_2	2y3k_3	2y3l_1	2y3l_2	2y3l_3	2y29	3dg1_a	3dg1_b	3dgj_1	3dgj_2	3fpo	3fth_1	3fth_2	3ftk_1	3ftk_2	3ftl_a_1	3ftl_a_2	3ftl_b_1	3ftl_b_2	3ftr_a	3ftr_b	3fva_a	3fva_b	3hyd_a_1	3hyd_a_2	3hyd_b_1	3hyd_b_2	3loz	3nhc	3nhd	3nve	3ow9	3ppd_a	3ppd_b	3pzz	3q2x_a	3q2x_b	3sgs	4nin_1	4nin_2	4nio_a_1	4nio_a_2	4nio_b_2	4nip_a_1	4nip_a_2	4nip_b_1	4nip_b_2	4np8	4r0p_a	4r0p_b	4r0u_a_1	4r0u_a_2	4r0u_b_1	4r0u_b_2	4r0w_a_1	4r0w_a_2	4r0w_b_2	4rik_a_2	4rik_a_3	4rik_a_4	4rik_b_1	4rik_b_2	4rik_b_3	4ril_a_2	4ril_a_3	4ril_a_4	4ril_b_3	4ril_b_4	4ril_b_5	4rp6_1	4rp6_2	4rp7_a	4rp7_b	4tut	4uby	4ubz	4w5l_1	4w5l_2	4w5m_1	4w5m_2	4w5p_1	4w5p_2	4w5y_1	4w67_1	4w71_1	4w71_2	4wbu	4wbv	4xfo	4znn_a_3	4znn_a_4	4znn_a_5	4znn_b_3	4znn_b_4	4znn_b_5	5e5v_1	5e5v_2	5e5x	5e5z	5e5c	6cb9_a	6cb9_b	6cew	5n9i	6cfh_4	5vos_a_3	5vos_a_4	5vos_a_5	5vos_b_5	5vos_b_6	5w52_5	5whp	5wia	5wiq_1	5wiq_2	5wkb	5wkd_a_1	5wkd_a_2	5wkd_b_1	5wkd_b_2
ETLKMS	40.754	3.6768	-14.0166	-7.88111	13.3066	18.8344	53.1637	180.151	-1.07172	71.8309	6.23734	-8.03997	2.66201	-8.00669	13.5351	80.2995	89.5191	-7.13982	55.9097	24.5638	36.4117	3.6988	37.3491	43.4198	31.0336	6.368	79.1538	50.464	163.655	152.851	27.8579	-15.595	-8.97061	59.2054	108.483	92.936	70.5635	93.2521	72.111	98.1157	4.10526	8.21359	15.8954	-10.1003	-7.25963	-10.9934	2.5356	-0.853575	9.86127	79.1771	8.45619	-1.78276	122.357	60.4424	83.9679	91.8263	44.564	40.641	31.8836	-5.97152	0.333951	3.71312	172.348	79.142	77.8599	-8.75622	-6.51636	-4.67919	1.61573	1.54054	56.009	170.424	258.364	178.979	128.539	123.546	-2.48373	67.3304	46.6366	36.4134	8.87193	-8.78492	5.99152	10.3227	-12.4318	-4.25204	105.122	64.4114	51.3512	2.57323	-7.56461	48.7	77.5841	117.238	96.5001	142.345	67.9558	32.6742	62.3403	8.52046	100.834	36.3563	54.7868	17.0738	24.0623	10.0415	8.18836	35.0188	8.71787	49.2776	109.073	54.4785	61.913	37.1003	2.43137	43.2963	50.8854	1.22763	22.7791	7.67735	-0.996345	30.3712	23.5233	29.378	-5.99308	56.272	67.6499	74.8067	6.22441	8.65719	3.46895	51.3033	158.928	133.931	174.039	81.7583	135.98	132.48	41.0781	23.5579	
TLKMSM	70.9627	-4.64011	-18.0922	-11.1757	4.89334	13.5313	52.3933	162.422	-12.093	112.411	17.2644	-15.4791	-14.5494	-6.14933	6.43657	52.7734	11.1471	-14.4558	63.8362	21.455	46.6399	21.3992	24.2582	28.1947	41.9658	-0.469566	183.514	66.3014	152.296	114.595	14.089	-20.9642	-12.2967	52.1815	62.5547	70.4476	39.5717	40.4309	97.4092	238.178	12.6449	-26.4787	-3.62067	-25.3464	-6.61425	-2.78364	-20.5366	-3.71035	5.50686	76.9754	-2.46685	-13.3059	183.281	81.7443	67.0009	71.0234	15.6937	50.6838	69.7495	4.47959	-20.7641	15.3849	160.156	88.7381	86.4333	-27.7718	-7.96678	-14.2609	-7.52636	-23.2878	65.1048	161.86	146.086	172.75	116.852	115.513	6.5285	70.2879	73.0089	25.1809	-15.9135	2.10978	-23.2677	-10.9352	2.41607	-19.0666	90.3614	108.115	43.0275	-13.1845	-8.68245	51.3541	92.643	111.413	111.659	142.155	46.6147	47.0871	32.9824	27.2038	101.635	40.7837	58.5665	11.2707	30.1712	6.39577	33.0039	50.9741	13.7689	39.5065	136.571	35.936	38.6861	44.1388	-15.6663	32.2312	28.6918	4.32325	10.8417	-9.29332	-4.48254	23.9776	26.5923	65.9939	-3.73328	61.3865	50.8809	41.6454	-0.587243	-10.0529	4.81695	44.9534	240.076	117.07	133.989	51.616	63.7294	117.935	-0.604836	38.0097	
LKMSMF	58.3051	-19.6851	-29.818	-12.0265	14.5286	0.271394	39.3086	139.418	-15.2483	108.96	-0.513831	-25.4136	6.57601	-20.7321	21.5392	57.222	67.4405	-8.90577	52.9534	51.0466	58.8692	38.4283	17.62	25.4879	43.5247	4.09631	249.275	95.7148	99.0093	63.3753	2.59078	-23.8006	-18.96	39.1774	48.6313	78.1955	46.9332	49.6617	160.798	184.799	-10.3883	-34.4734	-7.02307	-9.33078	-29.5602	-22.7334	-23.5853	-30.1841	-8.60379	107.241	2.41683	-1.4424	282.982	116.46	75.431	71.983	25.9906	40.5442	52.2755	16.0034	-10.1101	-20.1197	143.299	60.9806	61.0919	-18.0152	-25.8919	-22.0752	3.7001	-21.0681	64.5792	152.223	221.554	114.125	72.3923	94.2985	-24.4635	86.4229	74.8478	71.5785	-16.7273	-7.51313	4.7028	-13.9044	-14.0707	10.6869	162.055	100.19	97.0961	-17.8545	-11.033	15.4624	121.123	101.816	87.5893	155.842	43.7794	27.9148	51.124	11.6705	83.7844	36.4138	52.5928	-5.85908	25.6011	10.4112	-10.6928	53.4713	37.691	31.1307	57.3017	43.656	43.5625	28.164	0.67863	18.2947	27.703	-14.8865	10.2157	-7.11624	2.16253	12.7654	-2.93548	40.2901	-9.6608	72.8612	74.362	44.951	-3.45427	19.4756	-12.2913	27.1609	241.357	108.512	112.855	78.2598	133.768	66.791	16.269	-14.4862	
KMSMFL	50.9652	-7.71109	-26.0305	-18.5904	27.1672	15.396	50.1116	141.492	-12.5564	76.0995	3.95548	-12.4221	-6.36267	-1.02104	14.3566	90.1228	228.985	-23.2167	81.7274	95.6414	31.5993	92.9005	78.1605	12.7043	34.4421	-6.68732	196.721	74.3224	62.3013	126.217	3.24755	-31.3263	-21.7787	86.8248	42.4986	35.5519	92.3863	129.505	113.368	189.762	-0.553674	-5.85764	3.365	-16.7461	-27.918	-24.1744	-21.4267	-16.8673	-8.33129	90.1284	12.3641	-6.23434	234.754	100.025	65.9557	162.186	21.4172	24.6588	76.8584	3.20581	-28.0408	3.15515	181.616	58.0312	100.818	-28.7862	-18.7038	-9.72875	26.3646	-28.3897	56.3065	136.011	383.296	151.658	64.9168	108.438	-10.9877	64.1458	93.9487	72.4803	-11.7401	-10.4695	-18.19	-12.5723	-13.7371	-18.0292	88.6514	166.045	83.6002	-13.0258	-12.7754	31.7852	76.1682	106.682	94.5155	161.074	38.0394	40.1857	25.5845	35.0008	94.1646	40.1054	43.9049	25.5351	38.7895	4.6635	2.85142	42.8714	-1.38673	36.2976	88.1823	14.3892	19.5117	26.8144	-16.1837	34.3111	15.2217	-12.699	10.4395	6.39006	10.4765	12.3597	15.4761	31.0103	-1.20535	82.8638	103.706	47.6785	-9.34262	-14.2224	-11.5903	24.6978	186.56	118.104	138.65	53.3585	110.166	107.576	20.4281	24.5349	
MSMFLE	44.8467	4.29668	-14.2141	-26.5602	46.6029	35.7203	38.4178	169.686	6.44193	72.0252	8.27184	-35.1696	0.534939	-20.1859	14.5195	62.0279	81.2665	-28.2551	85.1183	28.2734	101.876	29.0052	34.6606	42.572	23.1695	-6.04473	115.995	76.0053	129.714	210.814	11.4598	-27.3145	-28.171	83.317	92.516	102.952	82.1801	89.4151	234.994	222.74	-1.91032	-2.84032	-0.267179	-11.3435	-11.1412	-23.5592	-7.79864	-30.0953	-2.55384	73.88	-12.487	-31.3099	244.704	94.4349	68.4903	67.9963	105.608	18.2908	74.7316	-3.66634	-14.6293	20.8375	187.343	72.2348	180.511	-19.4589	-14.5443	-22.3538	-15.5969	-18.4865	65.4737	167.983	202.812	303.619	71.2617	123.922	-18.6119	244.518	61.587	17.4507	21.9006	-15.399	-16.1903	31.5667	-5.95664	-17.5176	288.258	75.9691	62.2653	-11.7717	-4.69721	28.1851	-19.1352	70.5522	77.0141	100.974	49.9917	21.9501	44.2775	-0.354747	54.599	42.1236	62.2624	24.8196	35.732	18.7105	10.0762	15.3778	28.6413	36.6212	107.936	52.3146	92.7936	30.2005	-14.4335	32.6474	15.1658	8.75952	10.0214	-7.39291	-4.3082	58.1445	14.6111	42.515	-10.4042	180.143	100.179	84.6121	-1.3685	1.5573	-6.97858	79.5623	367.505	177.028	127.08	51.8311	136.654	106.626	73.8662	17.2113	
SMFLEA	31.6348	3.42035	-10.1555	-13.3777	43.4621	41.4812	48.5161	179.238	-6.9545	40.0571	15.1157	-21.4854	-18.9457	-6.77136	10.4586	62.0971	112.85	-23.2492	95.1181	73.3588	82.1982	51.5681	65.3079	27.9894	44.5968	-21.3945	144.45	52.7289	201.563	166.862	72.8405	-29.3669	-20.4495	123.193	68.3964	59.7952	127.023	151.013	69.97	65.8801	40.3871	-9.14087	39.0415	-8.73619	18.7482	-0.3745	-15.7239	-20.1991	-2.22894	15.0483	-4.1636	-4.3563	98.1315	71.6273	47.1908	287.503	8.34917	35.555	54.0504	13.5336	11.2533	49.2082	151.584	172.824	51.8066	-18.4706	13.8685	-5.4909	46.6832	-12.9199	104.266	129.014	282.72	118.019	120.661	86.7681	5.54616	41.7844	222.947	57.5997	-16.0436	35.9139	-10.9466	-12.6176	36.3622	-10.298	62.9736	286.814	85.5126	-2.05379	10.206	36.7874	60.6801	61.4061	104.44	147.964	53.7263	46.8411	43.2017	14.19	82.5844	9.26186	67.4352	45.013	17.5213	10.2354	12.6484	22.4204	26.2909	132.044	68.1136	62.0382	41.042	66.3641	0.168687	66.8037	40.018	1.88138	-1.63163	1.97859	51.3335	18.7163	10.5801	58.8881	14.2256	37.1321	216.568	76.8467	58.6735	-15.6155	19.1343	84.6158	124.055	191.108	179.476	124.772	256.104	129.366	-13.5001	69.0172	
MFLEAQ	122.699	-10.4868	3.94054	-10.3883	49.647	29.3688	62.8308	232.407	9.05894	159.273	5.8965	-9.73946	25.2308	5.47351	38.8598	91.4084	51.0726	-14.7825	87.1805	93.3213	43.8836	97.8647	69.5683	40.5521	55.6994	-1.52254	459.81	69.802	177.33	165.716	39.4127	-2.70021	-27.3661	59.8876	126.184	154.337	56.5012	47.7073	138.91	340.067	13.6636	39.5001	8.90008	10.3929	-22.831	-18.0078	43.4601	-18.4849	7.29106	111.764	-8.25733	0.0145039	385.544	127.358	58.0184	49.7112	102.058	71.7488	80.6448	6.91566	19.2298	9.34392	351.871	38.0444	289.721	1.97998	-2.71063	-13.8602	15.6986	17.9971	55.1911	239.686	211.725	296.013	71.6658	282.46	-19.681	137.7	37.9104	208.623	42.0936	-14.4459	33.7586	65.6166	-7.48351	27.276	182.553	57.0345	261.542	2.8248	-0.520932	53.3757	134.527	102.003	148.166	178.978	74.0793	35.5582	77.6223	10.7064	177.603	36.0673	77.347	30.4794	46.5534	7.72444	6.72398	40.8163	19.1922	69.5438	200.649	16.9659	91.0092	47.9496	19.2579	51.1441	52.6812	10.4324	25.5132	1.14485	-14.7684	149.141	42.941	55.1737	14.8671	162.728	33.4915	186.076	5.23869	57.3891	18.1739	99.0718	280.136	135.444	180.125	95.0627	58.3539	239.76	117.02	-20.5622	
FLEAQF	46.6077	48.0357	7.57764	2.78638	52.8847	51.5634	94.5988	137.968	22.6292	103.71	88.679	-5.78534	31.9697	20.4502	89.0231	105.753	100.946	-9.31238	72.2379	51.7652	145.614	34.921	47.9826	77.0304	44.0904	14.8272	191.67	162.315	148.623	83.0999	40.7643	9.52468	-5.07543	92.549	44.668	23.6212	97.7821	75.7289	151.364	234.42	61.8699	-17.5847	70.4628	0.496074	39.4162	36.777	-4.63639	21.6543	21.6935	170.488	28.8643	20.2381	298.929	235.22	85.942	162.609	44.9884	64.9471	105.346	32.0197	-2.12526	41.8676	118.929	267.424	31.1736	-3.59241	28.0464	-1.20628	66.5929	1.16124	145.965	182.219	268.326	92.3715	252.731	55.8527	43.8719	109.725	166.554	36.8563	10.7421	56.2935	1.62226	15.7325	61.3692	11.7394	182.613	194.996	59.8163	5.79736	13.727	73.3139	120.458	91.6113	126.348	166.495	92.7431	55.9399	83.0057	42.3995	106.745	108.34	93.8665	50.9862	67.0815	13.3803	28.5163	115.739	69.7079	84.2125	106.456	108.884	69.5308	71.7823	8.54066	67.6686	39.2881	24.4004	20.8032	2.68209	70.662	-8.15666	27.1642	65.1483	20.5264	69.685	166.825	30.7219	59.4269	-4.69535	15.2972	83.3183	233.553	119.693	145.216	115.195	201.081	50.4995	6.13883	110.605	
LEAQFK	85.2939	8.40056	14.3449	5.46889	51.3768	38.5647	58.2036	145.92	27.9021	126.931	21.9728	-3.80174	14.0384	0.421143	45.2991	104.189	245.347	8.23839	95.491	105.055	51.1651	93.9581	75.8874	39.2862	55.5266	29.5616	235.512	79.2205	52.2137	156.27	48.9199	10.111	15.2679	94.6871	110.271	102.835	95.4596	123.459	165.995	260.946	17.8016	36.6501	25.3907	12.9792	13.8307	-10.9529	30.76	5.86245	18.8343	117.081	36.8928	15.0087	333.412	145.275	99.7253	175.833	70.8984	66.9149	67.0704	28.9246	9.19634	25.2495	228.276	19.6983	129.621	15.9582	4.18633	1.60914	32.1309	19.7833	87.9796	204.977	389.187	191.055	19.7198	148.988	-1.94438	116.445	122.061	129.134	21.3822	9.7542	24.2581	26.772	8.18328	37.4439	154.815	179.099	161.51	15.632	11.3337	36.8252	111.381	161.529	136.513	188.015	73.6597	53.0929	69.2911	34.9129	149.299	48.5481	82.9485	59.857	65.9832	40.0248	21.8068	53.9485	33.2779	43.1736	179.268	27.0033	87.578	48.6375	25.5844	67.9278	47.406	13.1027	30.4197	44.3506	24.2632	81.714	39.9489	52.3544	9.07009	128.104	108.558	117.55	22.0893	51.5656	21.0117	48.252	255.77	164.096	111.011	86.4706	111.772	175.113	55.9208	6.01633	
EAQFKK	38.9194	20.6662	10.8325	10.2279	53.5921	53.7988	55.3789	217.861	15.9773	76.2249	26.5625	11.6612	23.6011	14.3661	47.5506	50.1056	116.315	-1.42801	88.1137	53.9041	102.595	51.899	46.4721	64.6654	47.1331	17.9218	130.203	94.632	143.376	210.331	22.7076	3.62542	6.02803	92.7215	88.4484	79.6293	95.8321	102.95	214.392	204.451	30.6983	3.23312	64.5043	11.2676	1.68344	16.916	7.36308	24.9567	30.8105	104.813	24.8329	12.4218	159.836	65.7389	89.8805	153.011	105.39	43.9825	43.7553	7.54984	4.02124	51.411	175.827	115.306	182.437	0.443099	18.9263	14.7392	48.2568	7.18832	78.8993	191.997	212.037	291.994	106.357	129.744	19.9148	273.273	131.753	22.3005	39.9682	24.3992	3.26247	35.7015	24.6009	4.07494	326.533	157.805	71.0475	15.6022	9.35037	66.0098	100.577	100.204	85.3556	115.862	63.2104	56.8067	56.3487	30.878	67.2586	78.3696	80.3239	38.9185	56.615	37.196	28.9146	57.0544	22.7309	49.704	79.8331	87.6886	88.8285	49.2529	6.45666	45.3465	40.6718	23.2704	35.5265	10.6409	21.9229	45.7805	46.1444	47.5363	23.2682	200.724	114.338	74.4784	23.5831	15.0306	13.1623	78.18	348.285	174.226	159.96	71.6464	164.292	97.1612	74.9189	26.5522	
AQFKKS	42.532	3.96833	6.87515	2.65964	26.4434	60.1134	57.7862	194.926	-2.20765	62.5255	14.7438	-6.40113	1.32756	2.28505	26.9552	107.878	113.615	-3.3099	99.4037	81.7965	108.595	56.4911	57.2645	50.7933	59.2934	10.424	197.259	79.0651	198.427	145.688	45.028	-4.71962	-4.33825	82.1079	96.252	93.233	103.623	110.301	58.9221	122.809	52.317	4.71707	34.7463	-7.66868	22.7066	2.48607	16.3328	0.179237	26.0983	35.7478	14.6958	16.212	199.809	82.6035	72.0135	259.189	43.0304	38.8612	65.035	22.9579	41.2985	28.2996	212.344	175.958	138.673	8.95213	12.7346	-2.95053	62.3352	10.91	84.2495	147.751	273.241	159.739	103.334	158.79	12.229	81.6017	248.019	94.8428	10.6483	34.0078	10.1034	13.4717	44.5357	11.9074	108.999	301.724	117.19	10.0321	8.63034	51.4988	97.1338	84.9417	128.204	167.765	67.172	54.3079	49.9483	25.4911	103.34	41.5998	73.3883	52.2557	42.3511	32.8109	18.0348	12.2403	30.3783	59.8678	73.7429	41.5717	57.5224	65.0095	13.7973	69.8832	44.3919	7.92296	25.3869	21.086	38.6593	74.9267	32.0042	48.7025	25.723	62.1911	220.332	97.9836	59.0819	28.9116	19.8699	73.3999	137.917	152.775	168.154	112.852	253.017	142.612	44.3955	51.6946	
QFKKSA	84.4452	27.9944	9.22495	19.4334	34.5208	35.473	94.4224	211.888	19.1654	144.647	41.7148	6.84316	18.778	22.744	27.899	102.686	52.0254	-2.59335	99.5936	100.016	78.347	100.561	46.6835	58.1714	60.3887	10.597	385.826	52.307	170.733	176.154	47.6603	1.49442	6.09369	63.2942	106.486	120.438	57.9638	52.1567	61.4063	152.744	35.629	12.7547	24.4365	37.4899	5.38721	28.5653	27.1117	17.6742	30.0815	100.039	12.3236	11.5573	382.737	142.208	83.3209	98.7817	32.9627	88.1231	103.116	17.063	29.6997	25.0869	384.378	139.126	287.778	10.3885	12.6358	14.0822	13.807	17.8149	66.8403	209.477	198.974	277.139	145.233	299.495	32.1707	81.8118	97.1304	243.994	23.0994	30.9477	40.8457	23.3632	24.6111	49.1481	108.525	115.074	288.994	13.4867	14.7269	60.3856	110.419	95.8399	140.481	173.841	69.7672	50.4437	62.7728	21.4005	176.144	47.9659	59.5673	20.4557	26.1651	43.4293	31.4072	51.7481	42.7721	59.4331	116.095	37.5362	69.7334	63.004	34.981	54.4268	77.1049	22.4257	22.5625	17.7435	25.1602	145.884	64.2957	84.4863	64.2218	48.1725	73.5275	215.197	21.6046	65.2046	22.7302	78.5029	167.377	150.438	149.41	101.237	76.8615	269.896	123.925	63.4034	
FKKSAL	64.838	42.8873	11.9399	25.1387	25.7719	42.5298	118.375	172.944	20.3404	155.268	66.9899	2.47903	14.1629	32.0043	28.5365	81.9372	36.0958	21.3532	87.5091	70.1524	104.926	70.8538	34.6017	41.4178	83.6975	41.5034	266.807	110.099	201.725	85.0953	38.5107	3.03575	17.0308	68.3257	79.0109	76.431	63.5119	54.0063	88.0261	149.048	50.0655	6.96132	45.0066	22.1563	27.1088	39.4348	25.808	26.4097	31.6479	160.911	27.88	31.5457	331.625	234.478	91.0694	112.013	17.2225	84.5056	106.242	49.9874	14.6042	28.9202	171.96	297.907	97.8479	15.3017	22.882	23.7646	40.5428	12.4816	128.571	148.885	152.729	181.8	292.256	119.307	70.7948	33.4091	89.6081	101.34	24.5017	34.7648	32.4205	26.9705	35.3138	36.6899	46.0429	125.977	118.395	26.1242	24.7539	87.0805	100.182	105.933	124.916	168.096	70.7035	59.2963	64.3858	35.493	93.8928	69.4123	66.9724	43.1149	48.3148	38.8035	31.2879	89.8562	44.4071	68.4122	97.2044	67.5618	66.9133	70.7701	36.2583	52.934	65.4688	34.7829	37.1545	31.0674	48.4973	40.3825	44.9227	103.402	42.1468	52.5876	72.0761	89.5249	34.9682	44.8029	23.9545	69.8018	103.382	127.741	168.916	105.924	77.6202	96.1647	45.663	117.951	
