Class	Sequence	1yjp_1	1yjp_2	2kib_1	2kib_2	2m5n_2	2m5n_3	2m5n_4	2okz_a	2ol9	2omm_1	2omm_2	2omp	2omq	2on9	2ona	2onv_a	2onw	2y2a	2y3j	2y3k_1	2y3k_2	2y3k_3	2y3l_1	2y3l_2	2y3l_3	2y29	3dg1_a	3dg1_b	3dgj_1	3dgj_2	3fpo	3fth_1	3fth_2	3ftk_1	3ftk_2	3ftl_a_1	3ftl_a_2	3ftl_b_1	3ftl_b_2	3ftr_a	3ftr_b	3fva_a	3fva_b	3hyd_a_1	3hyd_a_2	3hyd_b_1	3hyd_b_2	3loz	3nhc	3nhd	3nve	3ow9	3ppd_a	3ppd_b	3pzz	3q2x_a	3q2x_b	3sgs	4nin_1	4nin_2	4nio_a_1	4nio_a_2	4nio_b_2	4nip_a_1	4nip_a_2	4nip_b_1	4nip_b_2	4np8	4r0p_a	4r0p_b	4r0u_a_1	4r0u_a_2	4r0u_b_1	4r0u_b_2	4r0w_a_1	4r0w_a_2	4r0w_b_2	4rik_a_2	4rik_a_3	4rik_a_4	4rik_b_1	4rik_b_2	4rik_b_3	4ril_a_2	4ril_a_3	4ril_a_4	4ril_b_3	4ril_b_4	4ril_b_5	4rp6_1	4rp6_2	4rp7_a	4rp7_b	4tut	4uby	4ubz	4w5l_1	4w5l_2	4w5m_1	4w5m_2	4w5p_1	4w5p_2	4w5y_1	4w67_1	4w71_1	4w71_2	4wbu	4wbv	4xfo	4znn_a_3	4znn_a_4	4znn_a_5	4znn_b_3	4znn_b_4	4znn_b_5	5e5v_1	5e5v_2	5e5x	5e5z	5e5c	6cb9_a	6cb9_b	6cew	5n9i	6cfh_4	5vos_a_3	5vos_a_4	5vos_a_5	5vos_b_5	5vos_b_6	5w52_5	5whp	5wia	5wiq_1	5wiq_2	5wkb	5wkd_a_1	5wkd_a_2	5wkd_b_1	5wkd_b_2
NA	GIVEQC	49.8747	10.7741	17.8765	11.4681	58.4991	53.7309	40.1204	205.776	6.54679	47.3083	23.362	4.65285	9.24965	19.0669	27.2646	122.833	100.923	-3.13956	66.4566	74.301	31.4461	62.7624	70.0272	33.8011	39.6822	9.96884	180.364	65.0597	220.237	218.404	47.7102	10.2155	2.83221	84.878	138.797	130.137	82.0893	139.137	91.0612	215.126	23.9085	34.523	0.142275	17.5631	6.49389	10.0741	36.5267	4.69441	15.4837	33.3435	12.424	10.7801	181.039	52.6031	64.6522	39.8418	73.0224	24.4923	72.3399	32.3313	51.5243	21.5257	205.611	16.055	143.512	20.1847	17.8997	17.7076	35.6773	27.8192	11.3744	225.72	326.6	153.558	13.5016	175.012	13.0853	119.928	38.5184	51.0629	37.6334	6.13551	13.1028	46.5782	11.4667	18.1053	147.88	50.8536	69.9962	20.694	17.1455	69.9244	118.63	146.225	152.838	181.104	92.1853	46.1228	84.9352	21.8704	124.076	24.133	59.7654	59.9123	30.8126	19.2869	13.0922	3.50442	20.4797	84.1973	132.798	9.10271	82.0418	58.3271	21.2777	65.1155	53.7406	28.0232	17.8447	19.4614	5.80581	74.7996	24.4984	16.6528	1.68727	108.618	79.3158	92.2676	20.3045	43.2642	26.3016	88.9284	190.208	152.081	174.802	87.9614	143.38	189.476	81.3033	9.48346
NA	IVEQCC	106.118	38.3176	33.231	26.8595	50.4856	47.6163	76.0811	181.053	28.6141	175.475	56.0244	19.2725	34.326	33.8773	28.2734	99.9767	81.5985	21.4062	86.7407	48.9566	84.6403	33.1613	52.6356	47.3913	44.7319	32.545	120.383	89.2022	210.298	180.646	41.188	28.9877	18.0241	102.034	78.2397	73.0948	103.803	87.6172	93.9347	162.194	53.8636	24.5166	52.5806	12.8916	32.9878	34.4735	12.0864	31.0724	33.9383	146.67	32.3236	31.417	259.955	202.944	108.934	104.232	38.3664	126.595	111.28	34.4509	22.0249	46.3504	151.137	126.139	59.294	19.1397	28.6923	4.98361	38.9107	20.6904	145.587	224.522	258.61	208.261	148.608	104.521	40.0208	81.2164	111.722	48.7387	24.9336	46.2688	13.1486	35.4189	45.5065	14.4393	122.827	130.35	63.3209	30.7476	23.8529	97.1341	98.323	149.468	136.604	196.771	106.368	64.3701	106.074	51.8184	130.237	76.9692	110.473	62.8665	80.7587	24.5299	37.3647	56.2611	39.6011	79.7427	107.894	73.3687	57.7574	82.3387	22.6433	70.4838	59.4495	31.0072	29.2605	25.3709	47.8398	28.2221	41.9157	88.39	18.7368	67.3197	96.9794	93.2902	53.27	10.0923	33.5128	91.2769	205.3	151.483	148.141	111.183	149.185	145.338	14.5026	63.0358
NA	VEQCCT	122.749	31.5609	33.3301	33.3389	52.629	39.0611	75.4975	175.343	33.1957	172.424	33.502	26.5297	36.1106	31.646	33.6807	92.2474	59.2767	31.651	71.9213	74.5489	58.2477	68.5189	64.5019	33.3676	52.9973	46.7268	227.618	106.164	180.417	119.089	46.4685	29.5115	23.7512	84.507	104.846	102.604	85.7324	66.8479	62.5201	201.146	60.457	44.9467	30.8187	37.0022	35.2922	21.9437	51.237	21.2769	40.0412	119.07	35.7258	38.896	238.96	170.878	112.484	79.597	46.0568	96.9135	94.7697	55.6906	36.0387	43.1828	185.691	80.3091	111.107	32.6227	41.0387	18.2217	15.8536	38.6083	117.383	161.654	185.585	166.342	141.137	99.8258	15.643	55.0526	88.4502	101.72	36.2369	37.39	43.9461	39.0094	40.7119	40.6613	67.1889	109.649	129.826	37.9336	37.0524	72.9854	103.042	141.891	145.369	196.221	90.8003	86.0072	87.0118	69.2003	140.897	65.0985	95.8296	64.0341	67.0198	34.0705	48.1442	59.2612	33.7749	76.8094	151.186	49.9366	58.9051	75.0781	44.916	64.7953	53.6775	39.7562	47.0923	46.8803	18.4933	69.2264	44.4759	85.737	20.4728	55.7233	88.1203	71.5469	44.086	46.2244	47.5645	68.4621	151.038	161.573	160.805	106.06	101.705	89.1257	65.1092	23.7229
NA	EQCCTS	78.8008	45.4597	23.431	28.568	42.1792	42.2496	71.6004	137.013	34.9827	113.527	52.4315	27.5306	42.7496	34.4914	32.8744	83.3256	41.2458	22.6357	56.2864	47.2318	42.277	53.5359	46.3058	37.2912	53.1803	37.8045	190.878	81.0048	110.546	126.79	33.6183	25.7066	19.0455	75.889	73.4038	71.6034	70.4494	45.4981	83.091	112.362	45.4298	25.9613	36.2162	27.8095	30.103	36.4105	38.2722	30.07	34.9571	102.785	50.8369	31.6404	106.286	90.329	126.592	65.1273	34.5951	78.5794	63.1939	29.9809	27.7578	38.4002	141.551	83.7386	76.1287	28.7701	39.0157	32.5011	31.6485	31.6292	78.8342	159.973	171.32	99.5981	66.952	67.4528	33.6489	36.0514	47.5265	81.6211	33.6773	35.7201	32.9734	39.3674	38.8174	30.9152	51.6946	54.7594	116.283	36.7146	30.7131	83.9254	100.767	105.744	118.331	169.478	79.0082	73.2015	70.8857	42.4131	110.846	60.3907	94.688	35.4415	53.3292	34.0985	41.3361	52.7611	34.8843	72.2798	103.793	59.5881	82.8746	67.0126	34.7011	45.9961	51.6377	37.1719	49.1849	36.0937	29.0818	44.187	30.337	65.1704	21.2166	44.6714	61.1681	57.0059	35.1164	32.8368	39.1219	57.502	96.804	171.757	142.772	112.817	104.719	69.2771	38.5556	36.9899
NA	QCCTSI	53.1798	30.762	27.5548	30.8385	44.3021	22.7833	76.074	175.005	28.0421	91.7437	40.3725	23.0186	25.5709	35.4867	28.9614	54.1134	38.4772	24.6679	54.8226	47.4005	35.5006	47.3116	42.2024	23.1329	53.4695	39.4016	137.077	128.525	110.618	174.963	21.5309	19.3867	20.9018	77.2205	62.6796	53.3732	68.1013	62.475	100.864	177.164	55.4479	8.57319	27.0959	30.2807	27.2994	38.6854	17.1246	24.5606	22.4893	138.285	37.6029	25.8637	195.069	125.365	88.9465	40.4673	37.5257	57.7254	86.5534	40.4172	13.3315	46.8936	127.077	54.5784	49.7317	23.8008	36.0877	26.597	30.0771	24.696	80.656	126.503	135.582	102.939	51.0049	72.8301	37.1279	88.4249	38.2951	38.0419	18.8997	32.8842	29.3718	24.2619	34.7803	35.9375	114.992	52.9707	52.7018	29.4109	36.7554	72.4117	91.6262	97.0463	96.8868	142.774	84.5864	62.2993	61.4611	37.5605	78.2901	49.4554	72.2724	21.9929	44.3746	29.3798	26.4199	67.5098	24.2825	69.2925	103.772	45.767	55.9549	67.4945	36.4184	45.7053	39.1895	32.8749	34.0356	28.9094	29.9674	25.5827	29.4404	52.0455	19.8143	115.852	43.2062	44.5264	34.3453	15.0699	33.9586	57.1229	105.871	155.654	193.594	77.7166	75.8153	88.8558	26.5556	32.9883
NA	CCTSIC	57.8475	10.5601	14.5505	24.6533	30.9816	23.7959	35.5847	155.779	22.6996	71.9869	31.7463	17.9555	29.3615	22.327	18.6128	49.4527	79.7351	15.9192	40.2567	32.8879	31.4612	25.5251	36.3684	26.6408	42.3423	30.2708	73.7769	66.2236	164.11	124.137	10.0563	7.31505	16.2251	83.1287	53.9057	48.6139	92.1444	89.8852	85.764	78.5928	22.5987	20.7176	15.9346	21.4975	19.1188	10.1432	17.6092	13.721	18.1857	85.0238	43.8095	28.7713	50.336	35.6581	110.156	88.4544	21.791	35.64	15.7532	30.7633	25.5423	13.6664	51.7433	36.5163	16.3288	22.0869	16.5844	20.5678	23.0682	17.9656	49.0473	121.389	213.494	43.8446	56.6031	26.9158	11.0461	26.8263	80.0059	27.7332	23.1087	10.2917	19.1042	27.9632	13.7425	19.2345	41.2447	106.982	51.5751	28.4137	19.5342	82.6553	100.373	89.6365	85.1563	124.794	64.3972	77.3564	59.383	40.6035	66.5323	41.1982	102.631	27.9049	47.3228	22.1331	30.2925	33.8603	25.9832	67.7031	70.298	35.38	63.46	51.3787	28.7137	30.8414	38.1554	22.3433	40.2034	21.288	14.4687	13.7834	10.6742	31.022	9.80804	28.5899	107.281	30.4041	17.7166	25.1378	19.5353	72.1366	45.7209	185.292	149.118	91.1467	183.651	58.7378	24.2973	25.3325
NA	CTSICS	48.7406	17.2932	12.9316	14.2324	31.3146	18.4395	46.9457	176.053	13.2967	63.1261	27.8745	17.5464	19.5668	20.495	26.3608	64.5681	58.3692	14.4984	54.5866	49.0824	30.804	34.5121	40.2796	22.0735	46.9614	23.4601	110.193	69.4579	119.619	218.673	15.211	13.0581	8.30279	67.9396	85.8482	74.5243	68.4859	75.3909	74.6237	114.059	29.7931	11.1526	5.44706	15.4585	24.6207	12.3657	16.8175	17.412	26.8736	73.2113	20.9548	23.5669	93.7667	46.9243	79.5436	21.3526	41.6414	38.6255	22.3147	26.4716	3.55067	46.4804	157.047	10.8956	77.3731	8.83492	26.3	15.1797	19.039	20.5221	57.9064	184.794	195.404	129.369	29.0002	132.287	23.4203	60.3053	20.0827	81.9133	14.8997	20.2038	11.8207	23.979	25.8576	6.98817	93.1212	19.4197	112.932	23.6766	21.7924	80.7542	82.629	113.589	104.525	145.475	83.0712	55.5007	80.9	26.6481	96.0369	27.3516	69.1361	23.3917	29.1869	26.6606	27.5501	24.2201	16.5853	60.2625	80.7017	24.8075	55.193	63.7764	18.4165	48.3625	29.4859	21.0757	36.4591	26.4361	9.7562	18.1011	12.0136	43.2945	3.9655	75.7167	25.4653	107.51	25.3609	12.6502	28.2314	49.9838	152.531	171.249	178.596	91.3069	51.9342	175.291	18.7603	25.0007
NA	TSICSL	80.6764	12.8339	25.1777	24.6109	38.5653	23.8371	39.0111	191.131	20.2408	118.68	20.7218	7.31564	7.53828	10.5786	23.0496	39.8119	33.3135	19.0681	48.3976	35.142	38.0885	28.45	37.9379	24.2904	47.4426	37.8037	93.4875	91.6389	209.116	122.933	11.5332	13.1951	16.9947	92.8101	75.1515	58.5073	92.5395	66.8432	112.091	82.7649	25.7685	2.90832	0.79014	19.4257	13.2967	12.5003	10.6997	4.25801	13.4708	90.7993	21.8357	15.4069	146.755	103.73	75.5291	71.7453	9.53837	65.7982	65.0719	31.8258	27.4416	32.7934	106.426	66.4081	38.2858	16.5654	29.1674	14.3903	24.3234	14.3425	92.1202	116.203	133.115	96.4402	138.154	49.8167	25.9002	18.2131	56.627	22.7131	3.08569	10.7394	20.4251	15.7636	16.762	21.903	40.6073	84.5117	30.598	13.3445	19.1159	72.0506	99.0828	130.98	93.9662	136.588	58.3286	68.7887	59.9451	47.7769	76.2606	52.0979	76.8723	17.2479	39.3806	18.7709	29.1458	55.9402	24.0914	81.4389	79.5526	36.175	65.3243	55.3802	23.3033	45.1205	44.3977	13.3784	37.8129	19.1195	14.1483	21.0678	13.5388	57.4908	10.4095	52.9018	70.5945	28.1308	24.6565	12.0618	23.3087	106.449	118.777	122.043	184.053	50.2047	101.439	43.9698	11.4659	11.6103
NA	SICSLY	47.4087	-3.49207	-10.1134	18.9936	44.2706	29.7022	30.8041	108.781	-0.935214	65.4144	10.7732	0.750315	14.8461	14.1111	32.662	107.412	84.5436	1.10486	35.0415	33.1641	103.298	28.0437	30.8202	51.7306	35.1157	4.14816	195.676	110.885	102.827	72.5849	16.7711	-8.62384	12.5018	36.6498	76.5062	62.7142	38.3931	77.7735	169.637	276.054	8.11215	9.73278	-0.0277055	6.67225	-2.48338	7.23371	-20.7854	8.0917	11.0388	78.5271	28.4815	4.30123	128.55	44.4082	85.7125	20.4179	71.5843	30.0155	70.5845	11.8148	-3.65285	6.31131	129.076	10.8198	29.1873	1.95757	-3.76944	4.74861	-1.87792	11.0164	38.9561	249.305	282.523	39.0044	41.2351	57.6674	11.4059	189.77	10.9286	42.307	32.7604	-6.30025	8.48367	36.0817	-2.31618	16.4747	248.723	33.2797	76.699	8.93697	6.39065	68.9725	129.335	127.182	127.131	174.534	76.3184	48.7148	77.9178	40.8405	104.331	40.2361	53.8698	23.8814	22.7632	9.03182	12.2971	66.702	53.8381	53.1456	168.007	20.3249	65.3656	56.6156	5.52871	29.7381	37.339	10.1318	17.7146	6.33979	-5.22055	17.8939	-3.89723	31.9969	1.62708	171.933	60.853	52.984	-1.21829	9.56748	8.51687	37.2738	326.943	123.527	114.682	66.8748	102.901	81.6935	2.80425	4.17248
NA	ICSLYQ	79.2033	11.9712	5.82474	0.301708	51.8102	30.6185	49.7537	169.551	6.79181	130.004	18.2863	5.3507	15.9213	3.4701	42.9009	90.2106	279.564	-3.0385	94.5283	110.273	47.8867	107.147	74.502	22.6053	49.4438	20.9638	99.7824	91.7107	68.016	175.71	27.1379	6.46899	5.09354	104.207	37.4486	40.4382	118.422	154.663	161.06	132.865	19.9822	21.1902	53.9528	-3.86068	6.97396	-13.7902	-0.599154	11.9757	12.6469	130.103	28.1193	16.7919	204.153	173.205	118.384	229.009	26.5792	90.5635	76.162	23.2241	-9.83408	33.292	109.679	21.0151	39.8937	-2.66293	11.5324	-7.89285	55.6773	3.45604	122.736	137.378	432.283	163.589	40.785	70.0658	1.42243	67.1082	199.397	19.3517	6.45952	30.4089	-2.52893	9.77537	32.2855	7.38463	81.4645	259.102	51.4005	11.8399	13.4115	53.2655	81.6047	141.394	93.0765	163.261	59.1421	54.9543	61.9029	56.3668	102.272	53.061	83.189	37.652	68.7599	19.5983	20.2037	56.3522	6.46216	45.639	106.493	89.7558	42.3778	48.3132	16.2473	56.4279	24.3329	11.7883	33.4516	32.4947	69.4208	27.7589	43.7981	54.3514	-3.54353	64.4781	196.995	61.6897	26.1057	-0.567179	7.47962	49.7982	212.935	176.099	122.884	81.0093	187.524	105.528	14.0503	18.2137
NA	CSLYQL	53.8411	-13.1257	4.67399	1.80363	42.3121	47.5622	50.5727	231.352	17.1575	72.2541	5.60419	-8.84214	-16.0439	-7.74343	38.5647	56.21	83.442	-1.78652	79.4459	43.0071	107.395	55.1216	63.6968	64.2251	40.4729	18.9262	137.056	89.5673	211.571	238.833	13.9704	-6.04408	0.365775	85.2846	98.7731	101.633	91.9096	108.081	226.781	289.575	2.87224	11.7035	8.18165	5.23288	-5.67191	-7.24492	21.4935	3.37093	18.5983	60.2579	13.1808	7.66223	217.239	11.9396	64.1764	80.8023	128.286	13.7334	8.51886	10.3422	3.04512	44.5096	270.553	25.7695	244.886	-0.371936	8.62937	-0.46572	15.205	-4.7624	60.2824	190.413	211.958	348.573	63.1043	227.579	-3.91595	296.772	60.5599	31.1349	42.1154	-1.28479	5.27902	41.9541	-2.74393	3.94745	338.09	80.6926	81.2305	0.382643	3.95255	47.3877	122.857	78.1407	98.8923	117.497	41.8039	46.6798	44.8971	18.9661	67.3798	59.6407	68.0756	26.8799	34.4737	29.4062	16.6327	29.53	3.12707	55.9877	162.824	30.9146	86.4377	34.4257	0.655379	69.3609	53.8388	26.9742	35.0041	5.01132	-3.69945	99.2828	45.277	36.7492	11.6879	206.42	61.674	122.961	19.1078	19.1773	1.05763	107.033	396.04	170.421	171.871	52.1973	166.472	146.349	140.059	-4.5558
NA	SLYQLE	70.811	35.5771	-3.31947	4.79409	48.6746	48.0186	57.1368	182.402	29.1581	79.8274	35.4169	-18.4057	6.64123	7.4328	10.4918	140.561	75.8081	-32.2107	106.741	60.2596	153.926	57.9499	54.8515	65.9746	46.2945	-16.7856	192.58	97.387	240.11	144.763	47.0947	-18.382	-8.27701	52.6314	95.4785	87.2885	60.1829	89.7747	152.07	290.166	52.0068	21.8194	80.0813	-3.64262	40.021	16.3016	2.41274	-6.3955	17.3687	42.6689	-10.2402	-2.45284	176.706	79.7411	72.1284	271.736	75.475	51.1177	72.7876	21.9623	30.7176	16.5565	160.191	232.732	91.6759	0.113299	-8.76044	-0.637597	4.69179	13.9054	83.7357	188.439	247.4	174.387	183.838	115.527	32.9282	117.167	330.614	51.613	37.4567	48.8765	-14.0965	51.6819	30.6946	-6.61184	154.879	333.269	65.0915	13.0159	8.74033	61.8147	-4.91094	72.5163	118.065	157.846	75.1667	28.3213	53.5666	15.0013	85.2758	48.5216	73.8852	66.8101	30.1659	20.1381	43.9666	43.6671	58.6415	69.716	162.947	119.98	75.0761	54.9587	6.55286	61.8828	63.7885	35.8503	16.895	7.50539	107.212	35.5744	57.3813	59.4729	36.6779	129.242	279.599	59.8651	12.8348	12.3477	19.8181	106.322	244.221	154.148	179.469	151.281	244.064	157.185	-4.92255	124.577
A	LYQLEN	79.9508	22.6229	10.5553	-2.1305	52.3801	38.192	64.5966	245.447	12.9655	139.651	24.3201	-20.6241	10.5763	4.5385	64.9818	115.708	148.166	-16.9825	109.781	134.188	59.7424	152.486	72.4368	33.1081	71.282	12.6971	481.042	121.478	139.469	186.966	87.1081	9.37919	-15.4614	120.622	99.8034	167.058	114.822	114.881	88.5303	192.883	56.6962	11.4908	39.7848	44.3664	7.23231	11.2364	16.0465	20.2791	9.16579	120.293	17.4742	7.38725	417.077	173.749	79.7886	134.056	24.8771	88.3084	88.6151	22.9986	-1.66119	41.9168	419.872	79.3304	265.163	-13.7432	19.6176	-1.68382	48.0239	-9.51383	130.065	208.957	324.132	286.007	83.8731	291.052	9.98508	57.8408	142.254	318.025	4.40926	38.6597	30.0442	5.22733	38.7873	39.1127	83.6193	161.323	325.282	12.5716	16.0634	60.5093	131.575	137.988	167.19	226.79	77.9742	57.9066	75.381	41.5384	213.876	39.0482	101.643	54.2535	55.0608	19.2858	19.159	42.0184	19.0244	84.3817	123.056	92.3515	53.8998	62.9979	3.27667	100.493	70.3035	25.4992	18.5647	10.4273	46.9137	178.487	80.0179	85.5608	42.9845	61.3623	136.364	255.46	84.6288	30.4745	24.8358	64.933	205.924	220.962	156.498	177.759	169.922	294.963	122.108	-10.3156
NA	YQLENY	142.863	-8.15195	12.7829	15.0801	61.211	61.487	149.177	220.026	-2.09683	209.482	23.2418	3.00553	38.0255	12.4407	118.608	87.0626	66.9549	1.50328	90.4054	82.7374	159.668	59.4837	80.2614	97.6011	61.6998	11.5125	259.221	125.986	177.95	204.798	44.3356	-0.248084	6.79036	68.22	127.633	107.111	63.9886	68.0703	286.131	310.224	10.9965	41.8463	29.168	-3.72912	-3.28368	15.892	35.6836	6.06609	31.472	218.214	17.7747	12.7386	424.009	182.909	75.7077	65.6388	230.222	87.8464	103.619	40.2376	24.125	18.6505	278.09	238.524	159.58	12.1266	-1.53227	3.67589	21.2453	13.1342	111.875	251.333	208.722	191.805	311.464	173.138	10.609	303.832	60.8461	91.9702	51.7944	17.3597	29.2377	59.6899	16.2075	36.402	389.138	86.2891	128.305	10.466	22.771	50.6856	191.686	115.939	142.627	177.967	82.4356	61.5527	87.2488	43.2669	129.101	135.737	106.599	54.5736	79.1345	46.1543	38.9887	142.512	107.437	59.3525	230.898	49.8622	117.087	45.2851	12.1641	73.5938	73.5803	18.9381	28.5803	11.4576	22.4289	107.944	57.539	94.6697	29.0238	290.195	73.6088	95.9275	9.17746	61.6931	23.0813	96.8072	506.366	156.262	213.867	91.316	159.911	150.357	104.548	100.132
NA	QLENYC	57.8005	55.9583	15.3207	15.9488	64.1749	47.661	67.3356	192.255	19.536	72.2841	53.8732	12.0494	16.4709	30.4464	57.0195	127.184	342.289	-1.80843	89.526	128.385	72.2105	108.174	75.9284	49.6121	55.7835	11.8433	157.869	96.3437	170.781	141.439	59.5731	9.70516	0.102708	137.554	50.8431	39.862	153.904	206.126	90.0269	149.376	59.4293	12.4002	101.361	-4.81783	30.1847	33.8915	-0.434196	28.8809	37.8235	95.5038	35.8173	19.6536	179.235	137.521	97.2735	357.934	15.5579	59.6915	79.7449	16.2757	5.80014	59.6508	130.904	138.152	51.6939	-0.599578	26.9665	6.56595	146.995	7.99712	135.231	150.131	538.853	124.189	130.504	87.3429	36.5662	27.2451	276.772	58.6417	-7.33226	56.0928	-12.7163	6.05588	42.8581	-4.67514	50.3846	394.872	89.4853	20.2022	7.78049	70.1392	70.6234	150.117	153.488	182.191	83.8177	61.3103	84.1202	45.6314	158.749	66.354	101.559	69.2533	83.9835	36.5956	38.9229	60.4139	43.4906	86.422	92.9899	154.435	47.5173	66.2253	9.01499	91.4938	62.2306	25.8444	33.0417	34.5681	93.13	5.37849	63.6842	53.5278	45.8277	58.3113	298.996	56.9667	63.1974	-4.84324	11.0607	91.8927	114.291	182.322	149.441	108.168	285.121	122.925	36.25	69.3223
NA	LENYCN	113.101	10.0867	24.7433	15.7849	50.4228	52.7668	71.9183	237.208	8.1602	188.204	17.5829	5.34037	10.7451	1.66697	57.1382	101.745	70.1653	8.27562	92.3255	57.2665	136.083	71.0454	69.4345	83.0965	47.0036	23.5922	277.017	74.9946	141.277	261.174	39.7529	26.1657	9.06036	86.5947	153.71	177.525	78.5801	64.5723	187.161	402.23	7.57393	17.154	15.3512	25.7325	10.1712	1.51414	38.3433	8.73393	30.3278	101.463	11.0113	17.9403	471.709	128.776	88.6854	59.172	155.988	59.3278	77.8833	31.9251	38.658	46.6117	397.282	44.3661	341.403	13.2881	9.45424	2.60262	14.9515	24.6912	70.8819	239.577	158.679	446.616	67.71	296.211	15.5255	277.584	45.1905	127.689	45.4184	-3.80531	36.8095	35.9566	-1.45305	38.0799	314.035	48.7637	196.979	9.53388	17.3137	30.7006	106.223	128.643	138.195	207.401	84.9793	62.4078	83.3854	48.7328	137.222	86.3016	93.093	75.2156	61.7214	48.3641	50.1251	60.1368	25.2846	38.6848	230.371	25.9435	100.036	44.6515	20.4189	88.3161	76.2881	6.30852	40.9448	11.2742	7.13663	195.978	66.8351	78.0356	30.5973	194.364	57.8837	241.999	18.1802	62.6152	24.3965	95.9546	439.439	226.665	173.693	116.064	74.683	248.375	176.068	17.3062