Sequence	1yjp_1	1yjp_2	2kib_1	2kib_2	2m5n_2	2m5n_3	2m5n_4	2okz_a	2ol9	2omm_1	2omm_2	2omp	2omq	2on9	2ona	2onv_a	2onw	2y2a	2y3j	2y3k_1	2y3k_2	2y3k_3	2y3l_1	2y3l_2	2y3l_3	2y29	3dg1_a	3dg1_b	3dgj_1	3dgj_2	3fpo	3fth_1	3fth_2	3ftk_1	3ftk_2	3ftl_a_1	3ftl_a_2	3ftl_b_1	3ftl_b_2	3ftr_a	3ftr_b	3fva_a	3fva_b	3hyd_a_1	3hyd_a_2	3hyd_b_1	3hyd_b_2	3loz	3nhc	3nhd	3nve	3ow9	3ppd_a	3ppd_b	3pzz	3q2x_a	3q2x_b	3sgs	4nin_1	4nin_2	4nio_a_1	4nio_a_2	4nio_b_2	4nip_a_1	4nip_a_2	4nip_b_1	4nip_b_2	4np8	4r0p_a	4r0p_b	4r0u_a_1	4r0u_a_2	4r0u_b_1	4r0u_b_2	4r0w_a_1	4r0w_a_2	4r0w_b_2	4rik_a_2	4rik_a_3	4rik_a_4	4rik_b_1	4rik_b_2	4rik_b_3	4ril_a_2	4ril_a_3	4ril_a_4	4ril_b_3	4ril_b_4	4ril_b_5	4rp6_1	4rp6_2	4rp7_a	4rp7_b	4tut	4uby	4ubz	4w5l_1	4w5l_2	4w5m_1	4w5m_2	4w5p_1	4w5p_2	4w5y_1	4w67_1	4w71_1	4w71_2	4wbu	4wbv	4xfo	4znn_a_3	4znn_a_4	4znn_a_5	4znn_b_3	4znn_b_4	4znn_b_5	5e5v_1	5e5v_2	5e5x	5e5z	5e5c	6cb9_a	6cb9_b	6cew	5n9i	6cfh_4	5vos_a_3	5vos_a_4	5vos_a_5	5vos_b_5	5vos_b_6	5w52_5	5whp	5wia	5wiq_1	5wiq_2	5wkb	5wkd_a_1	5wkd_a_2	5wkd_b_1	5wkd_b_2
KQFTLE	54.8862	34.1796	-0.845757	-5.89646	48.0742	38.0179	84.2382	216.617	29.397	90.0795	40.9374	0.189499	15.8752	16.5131	29.2725	105.423	82.3873	-17.5709	100.947	74.5642	144.754	54.0744	42.2509	59.9401	45.5522	1.88747	204.939	82.642	233.038	155.349	25.1001	-9.92577	-9.53209	67.57	91.7557	90.2011	60.6125	99.461	116.267	179.957	38.8988	27.9186	45.9869	-5.03976	25.2035	9.95888	23.498	-16.0299	11.5012	96.9775	-2.95533	4.54865	217.914	148.818	79.027	221.765	40.8952	56.5206	88.0834	30.9197	36.6283	21.5938	174.224	287.369	74.1064	1.72455	-9.23151	22.7623	0.211701	15.1131	83.9635	151.018	232.369	97.0039	249.319	91.5904	27.0081	51.4048	244.002	84.0225	14.9393	19.5829	0.581368	23.5859	21.8761	-1.31898	75.3693	262.075	114.368	15.4474	8.34636	48.7788	-7.25264	96.1503	113.976	176.277	75.0057	38.5046	61.1565	19.764	95.8971	53.6418	87.6161	48.1277	46.3843	20.5722	21.4408	55.5547	54.0878	58.0838	99.2356	114.603	64.0258	49.7988	0.783967	49.693	57.1931	24.1984	18.9546	7.90839	59.8985	26.1562	41.4603	65.3315	17.238	107.638	200.826	78.3451	4.83486	7.82753	16.0541	80.84	145.216	170.776	261.168	151.753	213.684	75.3334	21.9399	115.64	
QFTLEM	83.5842	3.68366	-9.1363	-2.60913	56.4875	36.4581	45.5193	263.339	-1.73037	111.747	3.85375	-17.0526	1.73275	-9.21791	39.8302	98.6517	143.447	-14.8372	92.7143	118.585	53.3312	120.856	67.8532	22.27	44.1767	1.66566	402.838	94.7219	143.771	180.438	30.0622	-22.7937	-14.1599	135.785	111.426	94.5466	121.216	117.183	121.241	214.631	31.1111	7.47544	14.628	14.3007	-15.7321	9.40992	-3.44194	11.3283	6.18665	125.732	22.8018	-8.91502	358.072	120.026	72.2215	79.8559	29.9655	61.9893	86.386	6.3659	-4.58744	29.1366	382.097	37.449	223.076	-24.1886	-0.263703	-12.3199	36.4488	-23.5785	76.2183	190.966	319.257	270.035	47.1922	264.287	-8.622	60.0268	31.1339	249.476	-15.2194	13.7666	18.4735	-10.7915	18.0475	36.9821	88.0161	42.3087	270.91	-9.56986	-0.672961	52.4247	122.873	101.873	147.696	213.982	64.0818	63.0191	50.3156	24.7582	175.948	36.4887	80.1367	35.42	46.7846	33.8561	16.0116	42.4501	12.8968	98.6686	134.657	17.277	50.9666	39.4946	-2.10017	71.7631	49.3691	18.8733	17.786	-4.411	0.301406	152.018	47.5252	48.4152	35.3932	68.3547	99.7436	225.713	35.3584	13.4408	15.1969	65.4748	223.204	216.314	168.273	133.99	166.588	243.031	96.3418	-4.56977	
FTLEMA	56.6998	53.5529	6.0403	-2.85077	44.7845	43.3603	90.8374	182.584	2.97665	116.278	40.9172	-18.5769	0.0345328	-3.99715	36.0623	95.363	108.014	-12.8751	72.4178	56.6083	70.9663	45.4189	56.6649	62.6007	44.7699	-3.34957	64.571	50.0091	181.433	201.817	50.2779	-9.82588	-22.8308	75.7864	119.806	90.9146	83.3555	105.168	113.88	108.879	5.53568	18.1442	18.0188	-16.3016	1.418	0.230223	22.163	-8.91352	12.9037	127.721	6.46624	2.80033	276.113	211.53	86.6847	104.291	48.7847	63.3563	91.454	30.9395	11.4714	11.352	134.281	213.899	95.86	-10.0979	-6.92753	3.31026	6.08832	4.31504	113.244	186.102	275.504	179.243	251.464	103.909	10.5438	75.0118	62.6784	9.85326	31.904	10.2905	0.813314	35.4286	5.67939	2.67353	106.206	82.046	29.7547	3.92566	2.36203	46.1323	76.371	132.569	123.485	159.223	81.8784	43.4455	82.8077	14.9	118.01	49.2206	73.6239	49.0409	41.5474	13.5971	19.6122	56.8152	28.4225	60.6352	127.017	64.7666	75.3484	54.7301	3.11706	59.7684	45.8545	14.6071	14.3264	12.8874	6.18692	37.9935	23.5973	58.5373	-2.71688	70.9835	74.4386	58.4562	6.49842	26.1216	14.271	87.6362	153.196	140.319	206.84	84.2028	150.387	137.617	39.9044	80.363	
TLEMAF	70.7584	3.96076	-7.79857	5.46553	36.399	41.6672	52.8954	172.803	15.9817	104.398	19.9455	-0.515056	28.0688	2.33831	53.0965	58.8776	45.3083	-12.9313	50.7153	29.7784	71.3312	17.2051	36.9465	32.9033	38.6566	5.49245	231.724	119.153	155.239	124.413	20.0052	1.93484	-4.08432	82.8938	48.4558	60.7484	82.0981	48.6316	251.093	295.114	27.1355	-17.7302	21.7767	-7.03424	5.90562	22.0286	-14.7026	9.44916	15.721	98.1005	15.8488	4.6608	247.004	91.1709	69.9095	56.4814	154.111	69.1944	81.1223	8.5108	-12.2626	27.3813	212.142	61.75	98.3275	-17.6995	11.6222	-10.837	28.5494	-12.488	84.6873	211.067	187.431	167.376	95.8079	114.285	20.2327	168.918	68.6909	38.4984	-5.17943	18.4707	-9.52183	-0.493889	18.5893	-2.02314	243.147	92.1299	55.9106	1.19637	4.52351	64.6209	128.9	113.525	118.397	148.871	77.1943	50.9452	66.863	37.8404	95.6304	58.419	71.3937	21.1514	48.9154	9.52329	22.1461	88.125	54.6191	65.4077	232.049	35.7879	102.857	57.5223	-1.3472	59.0611	43.9667	15.0362	19.6655	-2.48669	19.426	19.3621	25.3962	78.345	6.58077	164.176	61.6093	44.9287	25.7189	-3.35459	12.8293	81.4264	421.46	116.194	132.557	81.272	84.2682	121.241	13.5099	16.0334	
LEMAFL	67.3675	5.58115	-0.698688	-11.5305	24.0242	25.987	45.9464	110.78	-16.6674	113.475	5.25563	-25.3388	-15.7726	-19.4468	6.88833	81.6022	263.526	-9.83583	82.9419	67.1359	14.9992	63.9269	56.4593	15.8015	35.1615	22.2311	183.052	87.4075	105.92	53.7175	22.1559	-3.11412	-7.37544	83.7401	75.4202	72.1053	93.8563	179.284	89.076	156.977	0.924599	2.20465	80.8692	-4.36071	0.0756484	-16.0564	10.0539	-17.9071	10.173	100.839	28.7169	3.65822	239.543	131.629	89.7157	254.272	-12.4964	48.905	39.568	10.083	-5.17004	11.1214	126.25	74.338	63.8624	-2.549	-4.4416	-16.1938	111.917	-6.75116	87.6047	119.341	417.229	127.942	63.0324	65.7497	-26.2721	3.55892	166.255	52.5244	-11.029	-4.32356	-1.56001	-4.332	-3.25609	6.44026	21.5142	250.976	89.9614	-3.3349	-1.45211	19.2311	89.488	143.793	130.441	192.384	55.3326	54.4398	53.0391	36.9265	154.154	36.1276	77.9201	61.7294	58.9147	12.0478	6.7344	30.4894	-11.8886	53.6938	113.323	119.137	18.4782	39.0151	11.1051	44.1837	36.5845	-12.728	19.6524	26.6669	51.6785	23.3833	24.1956	50.3365	1.65433	19.2846	180.204	36.5807	16.4929	15.5613	8.41147	27.4234	95.1758	132.355	112.107	87.088	218.41	62.0789	36.8871	-0.761598	
EMAFLS	61.6382	14.6077	-3.1228	-7.79402	30.6809	19.0968	41.4493	153.519	-2.42035	132.717	16.9091	-3.7057	6.99806	-0.0803451	6.81189	76.3025	72.3719	-20.7726	52.3922	30.5845	66.6386	22.4441	38.9803	45.8571	28.5091	-0.652904	204.594	50.4564	65.2355	219.041	9.55119	-0.457595	-5.60497	75.3201	91.0019	95.877	61.7541	73.3306	128.871	221.786	2.64052	1.88295	4.41767	-14.4866	0.242697	2.86573	3.44584	10.2649	16.2459	72.8209	17.0288	-6.16715	297.664	41.6094	95.8841	36.6222	79.7795	42.8089	36.1436	-11.5864	10.6785	31.4437	304.803	39.0024	245.414	-12.283	-2.63124	-3.69578	-10.3291	-0.560648	37.4366	172.161	195.204	330.262	54.3258	225.778	14.8437	172.586	1.59922	68.9295	13.7599	6.78119	-11.5685	8.24198	-0.263792	-21.5186	229.111	8.8885	121.999	-5.65313	-4.59091	67.3235	87.6516	65.9166	83.617	129.962	47.4322	36.588	41.4154	18.6331	71.7456	55.6725	66.3151	29.5172	33.4866	22.8354	21.098	59.896	17.3501	42.5193	82.2016	24.7598	58.5944	26.887	-5.08176	47.4825	29.1158	-0.168248	26.3884	3.43467	-7.94911	127.754	30.734	41.7573	4.08877	100.101	34.9919	197.807	-11.893	5.54545	2.55548	72.3903	319.394	211.952	110.632	58.2511	77.6236	196.099	135.671	31.8519	
MAFLSK	21.2338	7.61103	7.69114	-3.98401	13.3104	26.3986	29.7734	181.203	1.34729	58.0528	24.015	-20.8453	0.827825	-10.5039	16.1065	55.4412	14.9158	-20.0898	48.338	29.8477	78.171	18.7983	29.5468	26.8436	31.7705	1.56589	77.2757	72.8763	207.055	150.592	-1.88651	-15.9321	-1.78481	71.678	65.938	51.7494	61.3643	49.5449	110.623	77.2994	25.7709	-24.2179	14.8373	-7.56087	-5.5366	-6.57185	-9.65949	-22.0936	-11.7698	74.1922	-1.92752	-12.9254	140.876	110.509	60.5082	178.88	21.2031	42.0247	49.6477	3.32307	13.3354	20.9436	82.1902	247.285	28.6333	-12.8469	-5.39108	-15.7231	36.188	-6.44547	69.5806	126.327	95.9769	109.45	191.807	48.7271	8.21338	64.8289	196.031	-6.13539	-7.02417	5.75742	-6.11171	-1.12067	23.2801	-5.11522	96.0237	227.275	3.01793	-10.2753	-8.34834	39.1093	70.4307	67.2443	74.8575	110.953	63.3788	22.6635	59.9887	-5.58069	49.25	15.4434	54.1608	16.5441	28.2159	17.1574	-3.07147	42.8263	30.7699	41.2238	82.1733	32.853	76.1997	33.5238	0.759868	58.115	21.2901	-4.34448	0.400068	-9.60101	30.55	-19.1449	19.0432	27.423	12.3871	71.4331	112.181	18.7597	17.3503	-10.5923	3.19408	63.3762	154.998	151.027	200.882	71.4064	135.598	63.1266	-15.2576	100.843	
AFLSKA	38.4186	-4.84985	-7.36566	8.24894	23.4096	26.9801	43.4476	202.572	-0.233436	37.0808	6.18261	-4.69822	4.49818	1.9261	9.99369	91.3259	126.817	-12.0693	51.1685	101.112	18.4772	97.6094	43.4588	10.8219	37.35	-3.5517	345.002	58.2656	159.637	65.9224	26.5187	-14.6062	-13.7481	73.2227	67.9002	67.096	68.406	86.9273	41.6636	106.049	17.9794	-0.232971	13.3504	5.6068	-10.6576	2.62689	3.93437	3.78727	13.5414	46.3049	7.53261	-2.2763	141.43	66.3917	70.8642	104.895	10.1679	27.8211	68.8307	3.59296	2.80161	22.9634	188.277	32.0741	140.276	5.96823	4.42298	2.41927	49.555	2.35173	48.8635	183.773	320.932	98.1772	50.7098	142.247	-4.25586	17.6586	71.145	169.904	10.4743	0.764344	3.35621	6.63992	5.80475	5.77867	31.8946	104.668	223.634	3.38393	3.81626	62.4922	77.849	90.9109	139.803	198.075	57.2677	51.2794	50.6835	32.7133	155.213	19.2305	47.7911	9.36031	21.4209	0.402972	18.3016	16.3979	3.42983	64.3309	89.1186	32.0231	49.2913	56.339	5.32232	44.7754	42.2082	3.05991	12.4112	10.2489	-8.41179	38.9614	23.7417	35.0947	14.278	17.0214	79.5418	73.5687	11.4453	14.8146	16.7834	62.8793	35.2955	156.686	141.487	82.8648	181.15	119.976	43.87	-10.0864	
FLSKAL	89.1013	11.8697	4.06493	6.05509	19.046	25.1913	134.338	151.2	24.4034	153.396	19.6156	-0.525226	12.1807	7.33637	29.6079	61.1005	35.06	3.79057	54.7623	37.1033	102.213	33.7014	37.4177	55.7663	42.0277	14.9895	234.697	92.9452	91.7843	185.456	38.3496	-4.07291	-3.49691	78.4265	112.947	98.3279	74.6689	38.9281	135.862	295.258	34.6933	25.0321	23.8909	3.63383	-0.436672	9.84128	18.26	-0.691382	15.1023	158.835	17.4641	14.3919	392.174	211.659	74.9507	28.9254	87.6995	60.3998	126.415	21.612	20.7828	23.6149	238.524	125.898	145.771	14.7133	12.3087	3.51041	9.33524	8.26826	107.248	186.255	159.143	278.925	130.464	178.393	9.41453	141.602	19.8589	71.1748	29.9671	13.5447	22.6426	48.6396	13.8417	27.3075	159.469	36.0653	91.2777	7.33394	7.12986	56.0339	128.374	84.1366	114.179	153.286	68.0671	46.053	66.0508	18.3617	89.1471	64.9181	63.314	25.7459	40.5545	23.3375	14.465	74.3901	19.3174	53.5715	201.243	42.2495	76.8616	53.1388	29.743	49.0309	46.328	16.2104	26.7614	4.29235	12.5766	76.6767	17.9121	99.0763	6.13218	117.898	27.9756	104.766	24.2333	37.7496	11.8962	82.7674	280.322	121.224	177.019	94.5256	41.3044	184.021	98.1537	49.3626	
LSKALS	52.2466	58.6073	10.8212	8.8347	18.92	12.8894	45.1369	132.606	13.2268	82.6664	64.1108	8.33972	24.9828	20.0131	7.79594	44.4045	73.6461	15.408	54.6534	38.608	30.8882	35.0579	35.8162	30.5359	38.3402	33.8677	53.2923	60.0111	179.328	69.1093	18.8923	9.02998	8.94772	50.3816	66.1428	62.5154	50.289	79.2778	51.4085	50.2514	43.7847	15.7152	60.0952	5.77879	35.6059	25.3229	16.4106	19.4085	17.6854	80.0338	20.9208	25.4294	160.184	160.768	89.8234	162.96	15.6942	50.4624	67.9309	38.5216	20.1428	11.9732	39.3713	137.69	10.1398	13.0493	11.402	7.00193	2.966	18.8798	85.5709	113.23	185.448	70.9452	157.522	29.4195	56.3859	16.2516	136.992	14.1025	17.6366	46.77	17.2282	25.4114	39.3815	14.9057	30.3573	149.352	28.8666	21.993	20.916	73.9974	85.9229	94.744	80.7768	114.007	61.2259	50.699	57.2206	32.3338	60.12	39.7326	65.6138	29.3519	36.4005	22.7295	23.5123	34.5735	29.2176	59.5517	68.624	106.487	49.358	53.3457	24.3357	27.2851	37.4373	18.1127	35.6599	28.4094	76.3177	12.777	7.62309	47.8588	7.13968	20.6351	148.037	13.6972	7.57715	18.8854	17.1668	58.2882	37.9652	116.678	123.059	82.2778	149.056	27.9927	23.1998	92.7482	
SKALSE	82.1331	27.7745	12.7864	14.9317	52.3989	37.0624	44.3081	141.841	34.8209	84.6763	36.8377	8.29233	14.5067	36.4427	8.66802	74.8024	41.2265	11.1578	80.0995	70.7214	55.2262	70.3845	41.4502	12.0375	50.941	16.9886	304.142	102.83	63.3007	179.91	27.5472	5.54656	7.8795	86.1988	104.097	93.4747	73.7016	53.7226	144.251	229.408	46.2964	22.6518	22.6808	39.0871	26.9936	32.0259	39.7088	3.58289	13.7945	58.5993	13.1645	5.69316	215.192	84.5247	71.2771	30.4125	59.985	57.9028	94.2627	39.6956	12.3104	42.0403	249.957	18.9518	128.177	19.0583	31.2886	28.1371	29.9907	26.1052	71.1288	194.957	155.965	185.511	43.778	165.208	30.5927	96.1184	31.8678	151.309	32.9116	31.8962	35.4658	36.5465	32.5479	41.0999	109.925	45.5809	169.218	36.8978	42.6233	84.1363	15.5917	83.5456	97.5735	151.968	77.5343	55.7505	63.829	22.7022	84.5887	19.7986	38.4375	13.1718	12.2062	15.1756	20.5511	22.1031	42.673	66.8131	145.842	40.8561	80.1726	67.8181	22.1295	38.7429	28.7229	45.3032	35.3105	29.177	23.6907	86.6238	11.087	52.0117	4.38276	102.769	41.1754	150.947	34.4663	14.9756	34.8697	64.3998	234.848	177.055	130.316	66.2288	43.8485	141.587	30.4155	28.1725	
KALSEM	36.8738	24.1616	14.0575	14.3016	39.0604	34.5358	60.6789	159.675	26.8315	72.6151	38.2875	1.17679	6.58893	5.59403	12.045	38.8912	131.644	6.32875	74.1848	54.0756	69.255	49.4518	46.9335	20.442	41.4894	26.2169	78.8641	115.936	173.23	104.334	26.3658	4.68512	5.94771	110.664	67.7723	40.7573	117.442	127.747	88.8287	77.7852	36.7097	14.8519	41.5912	18.5774	16.3777	28.3221	12.1767	6.85935	15.3369	93.8731	27.7299	19.0381	158.616	126.624	70.5226	117.106	8.07655	48.7666	91.8057	39.727	12.9229	59.1309	67.2068	89.3956	25.6884	16.8015	31.8563	31.5738	54.3849	14.9913	134.666	95.7878	247.033	73.9094	121.565	34.1207	12.7969	34.9147	96.0467	29.9669	17.0376	27.5805	21.9349	17.9103	29.4848	23.1794	51.4467	108.751	46.6531	27.1177	25.3113	68.585	92.5837	97.2912	85.3235	130.269	57.0894	62.6894	56.0467	37.7208	75.2015	44.2884	87.9407	38.3661	48.322	13.2966	20.903	54.4362	40.9774	114.425	61.5579	73.4574	62.3384	83.0631	32.4527	41.5615	30.0653	43.1351	24.9846	26.6719	32.0048	17.5209	27.7294	55.9535	11.9388	52.2212	111.502	35.079	64.4731	14.4692	30.3477	65.7224	67.3069	139.872	183.873	86.8319	232.659	35.886	21.3046	26.019	
ALSEMK	90.7535	2.3148	10.3655	7.91278	60.1974	24.315	40.9982	146.984	11.941	81.6109	15.1463	8.39964	18.7173	15.429	26.1318	89.5673	78.1599	-8.6357	54.0453	64.0328	55.1366	50.3503	58.8982	26.0668	32.6817	7.93784	206.177	83.8567	98.765	191.22	21.0174	10.0863	2.52999	57.6668	92.5244	87.2682	65.7428	69.6598	128.094	298.595	22.012	45.201	1.901	8.09202	10.0114	1.22744	37.4186	0.813595	15.6506	57.8694	19.2337	8.14739	212.278	66.1015	75.7082	32.5075	92.8273	28.4856	79.2343	25.5186	32.0907	18.3803	228.942	7.94589	121.904	17.8234	9.61462	9.76617	19.9544	24.1553	43.1081	204.227	227.137	163.26	26.1825	173.402	8.64383	176.504	17.3621	56.481	59.6274	10.6575	9.05252	56.5973	12.4989	15.3261	224.429	34.9283	74.6511	11.3412	17.034	66.6279	138.772	76.269	108.611	142.189	69.2697	37.8137	70.7258	21.9805	104.017	33.1487	60.0803	36.9208	38.4455	18.0682	19.2189	27.3416	39.4802	55.456	193.224	3.76233	83.6954	49.4502	30.8421	57.638	33.5724	18.9638	31.2496	18.6164	-5.17265	78.8531	10.285	38.8604	0.637729	169.708	41.6165	71.8309	14.9401	47.603	16.9302	55.3479	303.109	144.025	132.816	76.5722	76.8015	193.965	51.1122	14.9883	
