Sequence	1yjp_1	1yjp_2	2kib_1	2kib_2	2m5n_2	2m5n_3	2m5n_4	2okz_a	2ol9	2omm_1	2omm_2	2omp	2omq	2on9	2ona	2onv_a	2onw	2y2a	2y3j	2y3k_1	2y3k_2	2y3k_3	2y3l_1	2y3l_2	2y3l_3	2y29	3dg1_a	3dg1_b	3dgj_1	3dgj_2	3fpo	3fth_1	3fth_2	3ftk_1	3ftk_2	3ftl_a_1	3ftl_a_2	3ftl_b_1	3ftl_b_2	3ftr_a	3ftr_b	3fva_a	3fva_b	3hyd_a_1	3hyd_a_2	3hyd_b_1	3hyd_b_2	3loz	3nhc	3nhd	3nve	3ow9	3ppd_a	3ppd_b	3pzz	3q2x_a	3q2x_b	3sgs	4nin_1	4nin_2	4nio_a_1	4nio_a_2	4nio_b_2	4nip_a_1	4nip_a_2	4nip_b_1	4nip_b_2	4np8	4r0p_a	4r0p_b	4r0u_a_1	4r0u_a_2	4r0u_b_1	4r0u_b_2	4r0w_a_1	4r0w_a_2	4r0w_b_2	4rik_a_2	4rik_a_3	4rik_a_4	4rik_b_1	4rik_b_2	4rik_b_3	4ril_a_2	4ril_a_3	4ril_a_4	4ril_b_3	4ril_b_4	4ril_b_5	4rp6_1	4rp6_2	4rp7_a	4rp7_b	4tut	4uby	4ubz	4w5l_1	4w5l_2	4w5m_1	4w5m_2	4w5p_1	4w5p_2	4w5y_1	4w67_1	4w71_1	4w71_2	4wbu	4wbv	4xfo	4znn_a_3	4znn_a_4	4znn_a_5	4znn_b_3	4znn_b_4	4znn_b_5	5e5v_1	5e5v_2	5e5x	5e5z	5e5c	6cb9_a	6cb9_b	6cew	5n9i	6cfh_4	5vos_a_3	5vos_a_4	5vos_a_5	5vos_b_5	5vos_b_6	5w52_5	5whp	5wia	5wiq_1	5wiq_2	5wkb	5wkd_a_1	5wkd_a_2	5wkd_b_1	5wkd_b_2
CATVYV	36.7177	15.7936	8.78839	10.0606	53.8194	37.9239	40.8768	232.414	8.77742	62.2491	28.5759	14.8983	12.2685	15.5614	51.2864	65.8351	365.297	4.42922	112.124	106.349	30.8982	106.259	71.8574	17.9502	48.2685	30.4866	103.214	124.208	163.869	190.327	26.8657	12.7085	17.5708	154.751	60.585	46.858	138.926	238.993	120.437	72.5672	40.5915	9.19545	58.111	16.276	14.8312	2.89691	3.56107	16.8899	24.012	84.6141	41.2747	20.7584	39.0402	48.8474	84.1557	287.949	11.2646	28.116	14.7729	19.6677	12.8378	56.0591	77.388	24.9913	7.34588	12.7282	19.9708	9.66098	113.917	17.9632	100.708	64.3305	469.536	63.4149	59.8412	31.7868	19.3487	53.6341	183.627	32.2203	-2.22969	40.6098	6.75743	-0.897248	38.746	17.1939	81.953	280.937	69.6272	19.951	16.2634	68.2942	89.4092	108.196	91.2935	147.403	84.0096	70.2862	67.7741	34.8528	96.1937	34.5879	89.017	46.4015	61.1808	32.3128	25.3597	34.4542	10.4183	101.31	33.262	97.7631	36.9482	50.3663	23.2966	66.3011	35.4709	22.8668	35.7333	34.7187	53.536	-3.53927	49.9497	31.1491	11.6449	72.1853	240.147	21.301	54.4562	13.6958	23.3585	78.2529	56.888	166.459	204.746	92.3988	258.249	58.6527	16.7151	44.3098
LCTVYV	44.4835	4.90597	5.40626	-3.48491	54.2354	30.4429	54.9124	222.994	2.25815	81.7892	8.48148	-6.33344	-0.0716302	1.76028	47.507	85.875	346.186	-5.35614	96.4205	120.039	30.0777	105.713	69.2195	14.2762	50.4652	30.2061	110.045	118.88	153.667	183.835	40.1114	4.25338	10.2464	123.759	44.7467	47.9901	125.667	230.352	116.182	128.122	35.2721	2.89454	49.2707	-2.28992	13.2641	3.53414	-7.98788	7.18083	17.2371	130.917	37.2284	14.8059	185.592	151.228	86.3027	294.421	8.12341	41.0482	67.8725	17.3409	1.87742	48.6317	89.2175	38.1728	9.82651	-1.13417	4.00057	-5.95077	120.173	3.49378	110.954	94.8853	483.125	93.2016	68.1191	37.9036	-1.83832	45.4255	193.842	36.4717	-19.2297	44.9418	-3.9748	-13.1964	45.3806	6.42056	73.1488	296.809	68.9475	4.55249	9.0882	50.2953	68.5847	151.911	99.3219	166.144	86.3936	63.2411	72.4742	29.6733	118.769	38.3859	89.2276	39.8245	68.3515	22.6078	27.3172	34.9462	-2.22911	81.8764	63.9029	104.307	26.1303	54.4988	10.6415	73.6857	32.2922	11.791	26.0514	30.1531	82.0054	-10.2175	49.2143	34.2535	2.35524	65.9151	270.931	37.581	38.2368	0.279242	14.326	68.1686	68.4045	162.302	200.001	97.2191	258.279	81.9077	10.6892	15.7016
LACVYV	32.8795	10.9483	11.372	1.09341	42.6591	26.0514	45.6897	178.128	10.4464	66.8402	20.4965	-4.16072	-0.967169	2.3814	32.0106	70.0382	306.472	1.83503	90.7298	103.822	25.4368	104.383	65.0313	5.09084	47.2798	29.3969	105.504	125.181	88.8301	182.944	30.3473	9.34629	13.4045	111.693	45.2487	33.2139	105.576	176.84	99.9185	72.2157	33.9288	9.9344	55.5511	4.23259	18.8905	12.648	-2.65967	6.58036	16.4113	116.787	38.7971	10.7091	158.18	154.929	91.5583	244.719	0.838718	40.6339	69.7287	20.7437	-6.75274	44.9781	74.2681	28.43	3.60256	9.55258	16.9872	5.46471	86.7212	14.549	111.739	63.1278	420.15	80.1102	33.4027	25.9398	2.48445	47.6099	177.399	23.4212	-8.29371	27.4465	3.98713	-5.20206	31.2694	15.8227	74.9178	245.302	58.2604	9.40678	12.0341	64.6564	78.1018	118.129	95.8652	141.976	76.5222	58.8576	57.3887	33.7609	86.4501	43.3346	79.0452	47.2659	63.3337	28.7152	15.9411	39.0773	-6.1214	59.4778	28.6306	97.2193	23.2809	43.4673	18.1103	56.0485	22.0092	17.8626	30.9669	27.5079	59.5484	-9.4565	37.7906	36.3402	-2.88897	69.0317	198.494	16.3969	38.3138	3.28277	11.9696	41.6124	64.1755	162.93	168.883	95.2027	199.015	52.8382	15.0273	21.0685
LATCYV	43.431	12.2001	13.2533	10.981	47.1771	31.3434	47.5936	166.764	13.2871	99.0899	27.1765	6.77627	17.9224	17.1278	29.4617	63.8923	358.889	12.7651	86.7654	105.397	36.1984	83.9029	54.2691	19.219	47.0744	37.9859	98.788	130.582	144.614	121.919	32.1396	18.6576	21.2061	152.843	44.0973	40.0785	142.354	223.126	105	76.7931	46.1159	23.208	67.9909	24.7063	33.8252	17.0867	13.2673	6.21779	18.9127	129.343	44.6454	23.312	160.556	165.424	96.6761	311.819	1.4224	50.2151	78.8449	34.7617	15.0283	43.3862	64.0671	53.4846	11.1904	15.6934	19.3505	9.85574	127.314	16.0598	123.783	76.8475	467.057	84.4088	81.6987	16.7993	9.30347	25.8285	209.185	26.5664	12.7619	53.9255	16.6936	13.4203	60.2269	24.5398	48.9698	309.69	54.8822	25.1212	19.7657	66.7784	93.8303	128.904	98.4973	144.038	79.2393	62.1404	75.6519	40.1921	87.3679	39.9865	86.1657	57.3197	77.6102	21.1613	15.2727	46.3536	11.4014	96.603	49.8397	109.571	50.8356	61.1928	21.8961	59.5802	40.8451	24.6568	30.9526	39.7176	89.0496	6.15892	45.4518	43.6311	9.71507	36.8382	249.948	18.9026	53.4028	21.9264	24.9768	74.9938	60.9217	137.894	165.293	92.2368	270.008	38.9662	29.7704	14.4419
LATVYC	38.6189	2.50303	7.31958	-3.15549	36.6924	27.9528	34.4304	222.548	9.33307	86.668	14.5166	-1.84126	2.50009	0.00856965	37.0423	61.9228	374.877	3.73594	94.8277	84.3485	24.0897	87.7646	67.0928	15.5126	44.2324	27.2022	67.5765	92.2341	150.749	185.323	26.8243	7.4563	10.5411	127.999	57.1255	42.0523	126.278	233.494	110.358	49.5381	28.6932	9.0002	62.6561	-0.809313	18.4638	7.31653	-0.079099	3.54573	15.7184	102.975	38.7873	13.9428	145.752	151.419	88.925	294.859	3.67474	38.247	65.9785	21.3962	4.12314	50.8282	57.3314	41.2093	2.26633	5.31836	6.12018	-1.999	106.968	5.68041	117.826	65.9764	454.634	83.9669	61.4854	22.7119	0.194422	20.1293	194.24	24.2303	-0.583287	41.3858	0.045791	-0.629399	45.7335	-2.6336	45.6931	272.797	59.2908	10.2483	4.51385	55.8521	70.183	116.402	80.0887	138.108	66.7141	63.4101	60.9195	25.2041	80.9689	33.3368	89.6687	49.9402	68.9909	21.3769	18.3142	43.7782	-2.86007	85.6064	27.5509	101.36	36.3583	47.3866	11.4121	63.5593	36.0875	12.8572	26.4377	27.5979	78.7057	-13.3798	36.9954	33.9958	-3.73801	38.314	249.464	11.303	37.2038	5.84716	12.9706	60.8784	51.8021	161.27	187.598	97.0917	252.736	53.6017	13.2435	16.974
VQIVLK	83.0163	-24.1513	-17.2776	-18.5127	38.0098	1.94921	25.4166	248.097	-13.1774	115.588	-13.0796	-20.0177	-1.20054	-32.7382	48.3065	36.9406	84.2164	-29.9799	49.0782	28.1805	20.6717	20.8938	35.0949	25.6887	31.6741	4.05747	179.163	61.4724	184.451	183.963	-1.64264	-16.2817	-18.2454	76.7977	73.0127	91.7543	80.845	87.6313	132.137	176.851	-7.98316	-5.48533	2.67948	-15.4923	-27.1212	-27.6454	0.691665	-25.2945	5.67564	111.498	-0.728046	-4.67789	218.024	112.237	96.6179	62.7487	14.2307	40.3517	54.799	-12.5747	9.8108	10.0085	177.358	39.0357	66.1309	-18.5813	-22.6996	-32.402	-6.55469	-1.17257	63.9918	153.354	235.126	106.324	101.681	77.2976	-18.7479	54.7001	32.7675	74.8383	-10.5903	-19.4774	-15.6969	-1.82294	-12.8187	-9.90385	89.5112	59.2121	116.414	-15.5716	-16.6295	19.8229	87.8073	136.397	111.381	163.387	51.8182	47.0771	48.9	25.2812	91.9051	42.1806	76.4547	19.4906	41.5097	1.52171	16.2974	44.8202	-7.71234	47.4606	111.514	29.9444	47.4039	16.6612	-10.8294	53.5377	31.5854	-29.9422	15.4734	-6.22251	-0.88313	9.20063	14.5626	35.7826	-15.4141	74.5642	95.0649	75.315	-3.97981	-5.48013	-5.59341	85.3996	170.143	150.18	179.991	95.9628	173.766	97.9191	2.42601	3.16487