Sequence	1yjp_1	1yjp_2	2kib_1	2kib_2	2m5n_2	2m5n_3	2m5n_4	2okz_a	2ol9	2omm_1	2omm_2	2omp	2omq	2on9	2ona	2onv_a	2onw	2y2a	2y3j	2y3k_1	2y3k_2	2y3k_3	2y3l_1	2y3l_2	2y3l_3	2y29	3dg1_a	3dg1_b	3dgj_1	3dgj_2	3fpo	3fth_1	3fth_2	3ftk_1	3ftk_2	3ftl_a_1	3ftl_a_2	3ftl_b_1	3ftl_b_2	3ftr_a	3ftr_b	3fva_a	3fva_b	3hyd_a_1	3hyd_a_2	3hyd_b_1	3hyd_b_2	3loz	3nhc	3nhd	3nve	3ow9	3ppd_a	3ppd_b	3pzz	3q2x_a	3q2x_b	3sgs	4nin_1	4nin_2	4nio_a_1	4nio_a_2	4nio_b_2	4nip_a_1	4nip_a_2	4nip_b_1	4nip_b_2	4np8	4r0p_a	4r0p_b	4r0u_a_1	4r0u_a_2	4r0u_b_1	4r0u_b_2	4r0w_a_1	4r0w_a_2	4r0w_b_2	4rik_a_2	4rik_a_3	4rik_a_4	4rik_b_1	4rik_b_2	4rik_b_3	4ril_a_2	4ril_a_3	4ril_a_4	4ril_b_3	4ril_b_4	4ril_b_5	4rp6_1	4rp6_2	4rp7_a	4rp7_b	4tut	4uby	4ubz	4w5l_1	4w5l_2	4w5m_1	4w5m_2	4w5p_1	4w5p_2	4w5y_1	4w67_1	4w71_1	4w71_2	4wbu	4wbv	4xfo	4znn_a_3	4znn_a_4	4znn_a_5	4znn_b_3	4znn_b_4	4znn_b_5	5e5v_1	5e5v_2	5e5x	5e5z	5e5c	6cb9_a	6cb9_b	6cew	5n9i	6cfh_4	5vos_a_3	5vos_a_4	5vos_a_5	5vos_b_5	5vos_b_6	5w52_5	5whp	5wia	5wiq_1	5wiq_2	5wkb	5wkd_a_1	5wkd_a_2	5wkd_b_1	5wkd_b_2
MFSKMA	88.3273	-15.0778	-9.07073	-12.5339	9.79914	7.65056	49.4623	175.925	3.49594	135.062	-0.423547	-14.237	1.55667	-7.1252	11.4279	102.825	79.7451	-19.0447	70.7873	70.9254	46.1926	80.9653	52.6472	33.3785	40.8873	-2.47513	371.242	23.5673	77.0594	162.354	26.5389	-6.01257	-24.5642	61.1099	108.324	112.491	63.0317	47.907	67.3969	147.327	11.0984	35.4025	3.78333	15.3512	-20.3139	-11.8783	10.2897	-16.6277	-2.78862	74.3835	-1.25798	7.53159	364.035	119.75	87.5686	41.1542	24.9558	61.1537	76.1883	-1.86776	12.2471	-3.06308	365.018	25.7915	306.667	-5.64583	-9.3232	-19.2441	4.42787	2.57277	58.3193	193.914	255.555	287.778	29.6539	284.737	-17.4759	60.5823	13.5918	239.231	10.006	-7.10939	30.4426	8.13583	-9.53338	29.3174	92.6452	30.8259	303.95	-9.4402	-7.54982	40.1108	110.781	73.1901	129.068	174.957	48.3971	34.0144	47.6222	11.4494	146.86	29.6931	64.0026	15.3609	29.5932	23.6873	8.78674	38.0969	6.42435	34.0186	99.2318	12.7124	50.432	31.9997	19.7773	33.2174	33.6682	-3.01915	10.7009	2.16542	-18.9178	119.308	17.8365	66.7769	7.20979	48.8739	30.0535	197.271	8.76251	64.0046	1.11713	49.3352	157.304	144.082	113.851	100.859	76.6063	243.816	102.256	-18.9161	
FSKMAK	45.5225	31.8835	9.36941	9.71823	26.2528	47.7132	92.5553	171.335	30.5175	111.616	50.4606	5.14709	33.0386	20.5632	46.9948	62.7846	28.81	0.620834	53.7933	50.8318	79.256	44.992	35.2501	49.7916	51.1656	23.9511	101.424	94.4628	186.648	131.363	36.3231	3.61984	6.93332	69.2277	76.3145	73.3205	61.2212	55.7629	149.34	128.137	31.9636	6.44311	36.1918	6.66616	19.8213	27.4505	17.4667	16.1835	11.4291	159.666	20.9124	3.19461	270.694	216.772	76.3696	100.606	60.6286	74.1109	93.2401	33.3532	3.16895	24.2546	118.68	325.465	71.2937	9.04634	18.9158	10.8697	38.9285	6.69081	117.068	155.227	105.349	155.355	288.983	75.6755	47.7721	105.341	89.7913	14.5118	21.5916	25.3716	15.45	22.6448	20.392	20.8209	127.064	107.467	28.5187	18.5199	11.4142	76.7254	100.711	88.7291	89.9701	132.185	73.411	41.9539	69.2367	12.5256	61.7945	49.4141	62.6953	30.4196	40.7223	30.366	16.9259	101.986	48.7286	52.268	119.128	60.4566	86.0255	58.2591	13.7325	31.025	37.5601	20.6286	22.9306	19.5484	33.9035	26.8313	22.5006	70.4248	15.4433	108.995	63.9938	37.3536	25.1295	30.7014	13.1479	52.6766	170.821	133.994	157.658	70.1323	69.9153	76.1157	33.0368	112.463	
SKMAKS	49.3495	7.57052	-1.76101	8.8512	26.6192	21.8684	46.5373	117.203	10.3184	58.2601	22.0879	-2.86183	11.9798	15.4477	14.7698	97.4871	110.858	7.53919	60.4305	67.7644	34.8628	51.7656	38.5897	14.3607	54.232	10.3007	192.533	67.488	118.429	62.4784	16.4896	-3.78284	5.57475	68.8405	71.8475	70.4699	74.2054	94.6352	49.4797	90.597	18.0932	7.00756	30.6963	13.047	7.15476	14.1967	14.3118	0.685548	15.6498	46.9189	25.7563	9.31062	103.196	67.1488	78.0873	116.074	12.4663	45.0495	70.701	25.3573	7.53942	37.5118	98.6388	66.6213	60.3734	12.2542	11.1346	11.7852	61.855	15.7768	64.5226	140.931	278.608	59.7448	69.746	73.2309	9.65132	19.1341	106.838	68.7575	17.3553	11.4159	20.0878	18.9836	13.42	17.93	31.7167	135.448	94.79	19.9426	17.1166	61.3885	85.7364	99.3588	107.973	164.141	64.4946	56.1016	41.732	28.0115	94.4573	30.134	52.792	10.8688	18.497	11.5937	25.0192	13.0003	26.0099	69.6851	75.8869	58.4193	60.2828	60.2502	22.1786	28.6964	30.993	19.5396	26.446	39.8135	13.8267	20.624	16.1752	44.9208	7.46052	22.0182	105.004	41.8149	23.1671	21.6933	30.4272	48.7743	35.5277	127.23	126.337	86.9526	156.246	59.8209	13.2415	24.3713	
KMAKSL	86.6207	11.8507	3.83364	11.6343	29.712	14.9012	70.7083	131.065	30.6593	123.67	23.8776	6.40067	1.38918	15.7421	12.9877	49.2351	24.2068	1.52016	54.1362	30.5161	61.3865	35.1338	34.8742	47.2473	43.8301	22.6499	232.108	94.0029	84.6102	171.659	21.2397	-6.83505	7.39785	74.4766	75.6282	82.1268	66.2272	37.4465	116.539	282.035	23.6211	19.0019	9.75574	9.24722	3.92725	9.64622	24.4947	-0.179946	10.5264	112.139	16.0814	6.47795	309.845	116.757	65.7473	12.327	72.9033	51.1287	110.723	19.9909	27.2256	25.2972	261.25	23.4912	161.585	23.1514	10.0262	11.0241	9.2525	17.117	66.6235	171.971	143.786	258.178	35.3186	173.743	7.39282	140.976	9.65127	87.6828	31.5779	9.80788	25.5792	32.1009	13.1141	30.3708	158.129	22.2493	109.616	13.0208	17.9711	59.2838	133.781	76.7558	93.5274	138.734	58.8232	52.3635	55.3497	18.9464	74.3239	50.2644	49.1803	11.7866	25.2392	25.4388	11.857	51.7072	23.4238	59.8539	147.177	29.9819	71.0526	53.7293	29.5301	35.4016	30.7262	9.19275	30.1979	13.2404	11.0467	87.5136	21.9826	58.2148	5.29752	139.147	13.4312	156.782	12.0159	34.8504	19.6132	64.4494	255.891	133.974	142.335	58.9993	31.0735	145.676	84.896	11.5125	
MAKSLF	26.4849	42.4014	-10.1822	5.33425	26.8188	16.2082	40.1002	146.857	-1.82145	65.0696	56.2744	-12.0446	24.7704	22.1189	34.834	29.1669	60.8732	-5.38085	47.9048	36.8387	88.6775	26.0418	22.28	28.8782	35.9633	20.5349	93.2198	117.803	147.993	77.5382	1.47539	-12.1058	-1.79035	35.4048	49.5912	30.7448	43.3508	49.5148	166.526	110.997	30.2197	-16.0627	72.4179	1.221	15.2284	27.2721	-13.4006	4.54635	-4.61135	93.0232	18.1674	11.8698	191.146	110.825	77.7656	156.601	37.6061	39.956	57.6629	26.8937	-0.0196289	3.90059	67.7991	131.811	2.97064	-4.72719	-7.63174	-11.4116	-3.97812	-0.0521771	59.2488	106.128	147.371	44.6708	155.769	23.4216	54.9737	98.1081	140.827	-0.395464	3.9124	34.4989	6.75722	6.89967	43.4268	15.5666	169.815	159.656	14.494	3.40804	6.54763	63.6177	104.463	78.0386	63.8444	108.044	47.528	38.2206	54.7922	22.7061	41.7746	31.16	56.7826	22.224	33.8459	9.07925	4.01668	71.4964	60.638	49.8427	45.3179	88.2648	60.5291	38.2718	3.73214	12.991	31.6915	1.95585	19.6656	2.93009	65.5049	-4.8365	4.85113	26.5307	-1.20598	98.6997	142.536	-0.400021	-9.37324	-0.124633	0.0231742	45.0509	165.637	110.018	124.921	69.2223	137.782	25.6284	6.5164	76.1195	
AKSLFL	34.0117	-8.10997	-21.2994	-1.41393	39.802	13.233	39.1918	167.053	-2.52292	52.1682	8.97631	-10.5598	-10.7984	4.84102	25.437	78.495	239.106	6.80845	93.6685	99.6358	18.137	107.937	60.9927	9.96334	49.133	4.21966	289.433	80.9827	55.8624	164.952	14.717	-12.8234	-4.67969	89.8163	58.6041	58.1354	98.724	134.281	110.973	177.688	12.6267	3.73259	16.1196	11.1288	-14.2747	-13.5736	-15.8681	3.4537	3.40805	46.6936	20.1776	10.4572	209.914	60.479	63.42	155.285	4.67124	5.16121	57.7661	7.69066	-17.7418	15.4871	250.294	-1.65327	126.647	-5.59968	-9.71065	-8.22307	37.2963	-8.61113	39.3796	135.243	383.354	143.997	13.4386	192.743	-3.96536	44.4248	91.3024	133.234	-13.9412	0.0545296	13.0224	-14.0311	0.757824	17.6115	67.4462	166.794	171.051	2.81159	-2.52423	47.0895	113.664	145.61	107.667	170.212	47.6159	40.6931	35.4538	18.9926	137.962	20.518	40.3937	30.3648	25.5766	17.6291	2.76113	20.274	-1.20187	40.029	84.1715	4.666	24.7907	36.2997	13.4565	46.2195	21.1486	12.6138	30.2514	30.3332	1.86149	57.1179	19.4925	16.3046	8.89133	65.3847	102.624	138.484	9.20386	10.5451	-6.728	34.3457	174.095	169.294	114.061	71.4388	118.297	176.685	36.1221	14.4575	
KSLFLL	25.6337	-9.81989	-16.3807	-22.2856	16.3393	21.7192	56.5557	210.802	-0.0882664	57.6407	-4.32295	-26.114	-27.1083	-19.2194	25.0013	31.1433	80.421	-16.3962	64.7171	21.1375	74.7622	13.4109	43.8261	48.09	26.6011	3.92242	126.384	53.8832	151.568	205.142	4.30805	-25.8443	-13.0732	74.4216	83.3403	80.6522	79.233	81.2826	166.109	230.751	-12.5956	-13.2974	-15.8199	-17.4101	-28.3653	-27.6043	-14.0786	-8.60691	-0.905461	97.6959	-7.70904	-19.2122	247.031	82.6269	66.116	50.671	81.5777	9.9829	66.7581	-5.14421	-15.4408	12.7058	201.135	92.5948	198.233	-24.5464	-22.5779	-7.53144	-30.7392	-14.0211	43.6116	149.849	184.302	295.586	116.376	119.498	-7.80413	236.162	26.5435	23.5644	4.58427	-25.9449	-15.6086	23.1697	-31.6454	-11.178	258.866	48.6227	66.1544	-14.9935	-8.40505	24.5072	83.8018	79.9568	67.5856	98.317	27.0001	28.4411	28.2664	8.59235	45.375	65.843	44.9444	13.7551	12.4476	15.3462	14.093	25.2777	-7.00306	37.0212	103.228	28.453	41.4874	19.2548	-17.3329	32.4826	34.5049	0.135266	21.1328	-13.1057	-22.1566	66.5345	29.0942	34.3588	-4.17838	185.533	61.5006	95.04	-21.8979	-8.04617	-9.4466	93.3478	340.05	155.444	180.408	57.3871	140.763	109.627	78.924	18.9449	
SLFLLA	4.74764	-3.08151	-23.1943	-18.7298	-2.39463	10.044	35.6397	161.432	-22.701	16.8329	-1.07905	-29.6199	-28.2336	-17.6102	-8.81026	70.7596	48.271	-39.2023	48.1638	27.7403	54.9757	9.87259	31.053	25.3267	38.7879	-38.6276	124.333	18.1644	197.712	133.847	-11.2552	-40.0028	-23.7735	58.0583	50.234	45.3578	61.1131	82.9386	48.3455	69.5022	21.5919	-34.8913	22.8412	-19.4442	10.3988	-18.3581	-45.936	-26.4821	-15.7019	10.0299	-27.3618	-14.869	96.4232	40.9889	53.9055	195.277	-8.99038	0.749942	30.1637	-19.3403	-0.796093	-10.7813	120.253	169.231	17.7103	-27.6461	-29.1969	-23.0677	-16.9059	-24.3513	37.6311	128.117	219.868	103.845	99.0282	71.4917	-3.99926	18.4102	234.716	27.0016	-34.0488	11.9872	-37.7371	-21.4466	3.24221	-40.0623	42.6268	240.176	52.4095	-23.7492	-21.1271	25.4538	38.571	57.3802	84.8488	120.705	40.1656	18.8998	21.0079	4.69979	77.7625	15.0363	43.0979	44.505	1.37865	-0.780625	-6.33122	27.0009	16.0433	48.7563	66.2471	54.8571	19.5687	21.8016	-14.9105	44.8132	42.4133	-32.3404	-0.076993	-20.6254	24.6555	-12.4462	15.5505	33.5621	8.21087	17.4023	222.28	51.9543	-21.3784	-29.0126	-9.71832	60.5801	95.1261	141.876	146.402	106.081	174.987	124.465	-38.1926	85.9772	
LFLLAE	96.8799	-26.3074	-15.5645	-14.4636	30.9095	25.1443	42.0609	226.616	1.6116	129.294	-10.5428	-31.7609	3.94897	-6.538	21.9285	78.2638	47.463	-36.831	73.5719	94.9903	37.4265	81.4508	35.5523	-1.39455	29.4824	-16.9777	418.437	78.8882	145.467	141.701	27.2902	-24.5168	-35.0289	63.7078	122.531	105.54	52.3246	43.697	151.323	268.167	13.9353	9.49975	-11.0653	38.118	-30.42	-28.3645	6.0311	-13.966	-9.22646	94.1853	-12.071	-25.5809	420.275	141.379	56.6037	44.8362	46.5742	62.4813	82.1145	-6.42529	-12.6388	3.55666	356.636	24.8793	202.711	-23.8214	-3.51026	-14.127	1.43604	-18.1573	59.6718	217.054	204.173	262.557	54.3173	250.028	-24.1756	92.7287	32.5675	227.268	22.0908	-20.1712	16.1764	10.0723	-11.9894	22.6281	116.461	48.4628	263.018	-6.19854	-7.77912	37.7199	19.2446	96.1152	131.004	168.059	69.5278	15.4258	64.2543	-6.15866	160.276	18.4385	39.4639	2.47371	11.1059	-3.55253	-0.98217	34.7183	16.6475	47.6314	197.155	13.0435	82.8844	34.6797	-3.60333	54.282	48.6198	7.97182	10.0386	-22.5701	-25.5534	166.46	15.2012	45.0799	6.75584	100.859	27.6246	184.011	2.08728	1.04129	15.02	52.1321	245.389	145.802	154.431	101.44	52.6145	236.266	75.9165	-31.7792	
FLLAEK	50.9616	37.6338	5.86993	-11.0556	46.4792	44.7946	79.36	139.307	18.1848	113.076	49.1806	-13.168	0.364948	1.73228	46.0884	86.8586	129.81	-29.2416	58.153	50.2186	98.0766	54.9061	51.1799	56.7566	32.4073	1.37899	140.766	107.063	153.848	75.4744	54.4997	-3.69622	-25.8652	106.321	71.6178	63.61	101.291	127.097	97.3736	189.905	38.3572	10.4681	49.0715	-7.00915	26.0411	7.38443	2.44864	-4.27662	7.90842	141.739	8.4382	-12.5841	246.513	209.248	70.9521	126.586	31.9681	66.4652	97.2796	16.1483	-8.79204	58.8602	96.1919	182.716	25.48	1.69446	22.6243	2.53563	72.2213	-1.01668	158.054	175.134	291.23	97.0361	217.567	48.515	8.90669	45.6564	93.7651	38.2772	20.4065	36.5303	-1.16888	28.543	39.107	1.22732	78.1099	111.252	58.153	3.75507	4.86798	55.4077	85.7225	98.2396	129.532	174.301	84.3448	58.0461	75.0311	31.6731	106.443	34.0521	86.7396	49.5944	54.618	-12.7526	24.4483	63.7524	24.6626	104.072	154.307	101.586	68.0774	68.4668	8.49867	59.8926	28.8471	19.7991	5.36599	2.41926	32.8196	-0.37262	22.1234	51.6415	-7.47527	38.8327	113.026	28.6116	61.6649	7.89989	22.0789	64.2934	128.051	142.796	170.967	100.598	230.931	49.985	9.10178	76.2487	
LLAEKT	112.169	20.1781	16.6888	7.98917	55.5527	38.6693	65.9176	139.911	21.9527	149.385	26.7367	6.55899	19.8267	15.6441	18.4535	96.0928	92.7543	3.86124	67.2318	81.5004	37.4715	54.826	63.9829	25.953	43.2895	22.0018	227.601	102.287	94.0224	182.216	47.7436	23.0218	-1.34026	81.975	94.8949	93.6229	72.6599	71.398	110.482	286.539	46.3311	48.3455	31.2427	10.2766	20.6568	12.0025	33.3717	5.18832	23.5911	116.035	25.2255	19.6026	323.589	166.405	93.0679	93.7015	76.911	55.3871	83.6998	35.7925	37.942	39.9413	219.675	16.5446	135.707	22.8773	26.0218	11.1383	33.0027	34.3088	97.9706	198.227	249.377	236.327	32.6931	172.727	6.14531	153.746	79.6327	62.6961	53.0251	25.8089	8.51227	55.1543	29.4645	14.176	175.358	96.461	81.301	17.7268	26.4182	73.0947	128.793	110.298	119.337	171.695	90.9335	56.2682	67.0464	40.9937	114.858	48.3032	89.0598	46.5623	64.3112	9.85745	23.8056	37.9637	22.3617	61.1206	181.623	59.3207	87.1139	68.2246	33.4673	55.4966	31.5946	17.591	23.2792	25.7094	31.7273	86.46	29.0851	61.7388	7.16373	124.253	68.604	79.0111	35.8057	42.3192	32.3418	64.5242	236.974	155.898	142.22	94.1899	82.5695	179.182	66.253	-0.122426	
LAEKTQ	64.7654	46.8235	24.4716	20.2579	49.47	39.5447	66.6086	176.734	50.2983	109.702	63.7961	8.18115	24.9394	28.0821	25.278	64.041	66.6781	6.6407	81.8021	41.7433	85.0534	35.7669	48.2012	43.73	45.0215	29.0611	121.025	104.068	164.517	179.913	43.1633	19.7132	22.972	103.585	77.2577	58.8067	98.7136	51.2651	146.06	141.136	56.1939	19.0091	53.7447	24.332	35.034	27.9918	30.2513	29.815	20.1389	119.756	46.5393	23.8605	243.298	169.507	113.729	134.422	73.8934	64.2365	87.2128	36.9108	32.8333	48.5551	129.534	129.765	97.7846	27.6975	33.7958	15.648	48.7924	24.1566	118.389	135.204	140.159	179.052	120.611	89.7296	42.0568	126.83	138.661	34.1665	32.223	45.5333	30.8751	30.7077	48.751	33.7293	181.14	174.324	55.0685	30.2024	23.2631	93.7165	114.822	103.097	88.4725	127.785	71.8493	63.5435	71.3878	25.8117	77.5954	54.269	108.892	41.1324	68.0563	40.6403	27.2141	40.9768	48.3752	76.6501	88.8994	84.3814	102.399	66.888	36.0626	61.4414	37.5675	33.8842	33.1699	24.8854	43.2525	37.5527	20.7334	70.5821	25.2315	141.422	125.255	51.1461	45.909	22.5222	23.4425	85.8866	203.67	186.175	154.107	108.028	167.054	86.7386	56.8389	57.0456	
AEKTQE	101.717	41.257	29.246	21.2447	76.805	53.3144	59.1446	207.428	36.3467	100.329	53.5202	9.35476	24.6584	42.8899	42.9699	104.409	86.9371	9.37502	100.641	79.5977	73.5726	100.296	57.2574	39.791	48.9976	24.6691	249.141	116.683	180.635	184.688	57.9672	18.3322	13.2275	80.5955	124.235	120.856	79.5554	105.379	133.316	244.845	65.7433	59.6566	60.8934	38.8529	36.1628	39.1051	78.0703	29.4465	24.7449	58.526	20.1201	24.2878	198.26	108.277	82.4584	173.686	74.7977	53.9971	83.3145	53.8339	52.8623	48.2036	218.887	102.408	121.17	41.5489	32.7566	34.5642	41.0922	53.4755	75.5543	175.391	237.348	129.106	99.9867	137.354	38.2309	88.7931	152.229	125.875	55.1176	47.0129	42.053	58.865	45.0962	48.265	109.275	169.228	151.093	32.6321	40.1028	70.4251	54.7761	105.943	114.729	164.833	77.6278	58.07	71.3225	30.8061	122.503	39.2989	78.1956	56.4116	51.3203	35.1385	25.7566	38.3829	52.2113	79.3673	166.02	94.3843	76.14	81.1054	45.5992	61.7462	42.5564	51.5336	31.1965	39.0716	44.4054	89.7073	23.3136	68.2385	26.9896	136.647	135.264	107.381	47.0251	54.432	43.314	72.9757	196.488	197.895	196.505	115.966	150.489	133.681	70.0418	63.4144	
