Sequence	1yjp_1	1yjp_2	2kib_1	2kib_2	2m5n_2	2m5n_3	2m5n_4	2okz_a	2ol9	2omm_1	2omm_2	2omp	2omq	2on9	2ona	2onv_a	2onw	2y2a	2y3j	2y3k_1	2y3k_2	2y3k_3	2y3l_1	2y3l_2	2y3l_3	2y29	3dg1_a	3dg1_b	3dgj_1	3dgj_2	3fpo	3fth_1	3fth_2	3ftk_1	3ftk_2	3ftl_a_1	3ftl_a_2	3ftl_b_1	3ftl_b_2	3ftr_a	3ftr_b	3fva_a	3fva_b	3hyd_a_1	3hyd_a_2	3hyd_b_1	3hyd_b_2	3loz	3nhc	3nhd	3nve	3ow9	3ppd_a	3ppd_b	3pzz	3q2x_a	3q2x_b	3sgs	4nin_1	4nin_2	4nio_a_1	4nio_a_2	4nio_b_2	4nip_a_1	4nip_a_2	4nip_b_1	4nip_b_2	4np8	4r0p_a	4r0p_b	4r0u_a_1	4r0u_a_2	4r0u_b_1	4r0u_b_2	4r0w_a_1	4r0w_a_2	4r0w_b_2	4rik_a_2	4rik_a_3	4rik_a_4	4rik_b_1	4rik_b_2	4rik_b_3	4ril_a_2	4ril_a_3	4ril_a_4	4ril_b_3	4ril_b_4	4ril_b_5	4rp6_1	4rp6_2	4rp7_a	4rp7_b	4tut	4uby	4ubz	4w5l_1	4w5l_2	4w5m_1	4w5m_2	4w5p_1	4w5p_2	4w5y_1	4w67_1	4w71_1	4w71_2	4wbu	4wbv	4xfo	4znn_a_3	4znn_a_4	4znn_a_5	4znn_b_3	4znn_b_4	4znn_b_5	5e5v_1	5e5v_2	5e5x	5e5z	5e5c	6cb9_a	6cb9_b	6cew	5n9i	6cfh_4	5vos_a_3	5vos_a_4	5vos_a_5	5vos_b_5	5vos_b_6	5w52_5	5whp	5wia	5wiq_1	5wiq_2	5wkb	5wkd_a_1	5wkd_a_2	5wkd_b_1	5wkd_b_2
TKFSSF	111.362	15.952	1.50434	21.2221	32.0478	39.4141	50.9972	197.437	3.50276	146.224	37.3321	-1.40142	9.51308	15.8634	57.5847	81.7126	41.8427	15.1966	82.0145	73.156	123.367	52.254	36.0792	41.6886	57.8056	31.1747	275.8	116.438	248.641	93.8689	11.4994	-10.2635	10.6978	52.0873	93.3451	80.036	59.8204	58.612	164.794	215.796	21.2572	-21.939	15.9064	23.9677	5.87186	19.8678	4.15683	-8.42965	15.1541	91.0369	19.2825	7.59478	228.453	103.313	88.1157	163.339	54.884	79.4388	77.8612	30.7828	40.3929	37.1635	201.071	226.298	94.3185	16.7454	15.0942	6.01069	27.4472	6.32416	91.2837	180.645	166.131	121.965	210.864	115.329	34.3598	111.741	191.832	98.7076	11.3207	13.0323	29.2185	9.88759	11.035	34.7456	171.298	230.006	111.9	7.73806	16.9374	57.4008	158.304	115.015	116.95	189.956	59.4248	62.4718	63.8095	45.0326	97.9698	62.2181	72.9825	25.6242	45.1339	26.8274	36.7956	75.6918	53.2099	60.4439	74.6621	47.943	73.9097	59.9871	26.177	45.802	54.9201	12.4632	25.3444	21.6369	40.2711	32.843	32.5663	77.1866	35.1878	100.697	109.278	71.5228	28.0177	47.4132	21.5727	81.3539	269.389	124.214	180.485	89.2075	145.399	86.6915	42.2764	99.0861	
KFSSFA	67.549	23.1789	-0.0799848	10.8924	21.9145	30.8262	70.3561	159.158	24.1663	87.8969	34.8267	8.89734	25.3388	26.6524	24.2592	125.993	275.381	2.99773	69.5461	120.961	53.5953	132.462	59.6897	44.5223	56.0061	18.0544	357.524	49.8443	95.4332	94.0088	33.2923	-0.393603	-1.55765	85.9754	54.6541	55.547	94.268	148.011	77.0009	121.051	31.7783	17.5366	28.8914	11.0268	2.86324	-0.751806	12.2727	8.50713	10.0551	94.2379	34.7027	9.80665	205.639	150.013	106.044	187.993	18.9228	80.7925	93.6509	26.5369	10.7823	25.3226	227.852	84.6651	153.949	11.2772	10.3979	17.583	51.2147	12.6728	77.9726	194.255	465.693	139.433	82.0672	147.199	23.8019	25.5662	112.329	197.004	20.5649	18.8892	23.6619	17.2182	16.2439	16.8344	41.5482	181.455	243.626	18.3687	16.9632	69.6572	87.816	110.53	162.28	210.879	63.0318	48.9878	54.0583	36.7377	174.76	40.9411	95.2125	31.0631	52.9163	26.2406	14.5745	55.3688	28.2617	58.8603	95.5462	31.4223	50.1488	61.0853	23.4015	33.5935	35.872	16.2844	19.962	38.3499	35.8264	42.3573	25.1511	70.8838	28.774	26.966	112.357	97.6691	29.6762	28.0435	20.6689	43.9175	75.1921	168.228	117.189	83.106	134.712	144.489	69.5035	43.9956	
FSSFAL	58.9607	22.7259	17.3568	15.601	31.5367	19.0467	108.542	191.993	25.0128	131.059	33.4019	8.87111	10.0495	12.9488	22.832	37.1462	56.608	12.3072	69.7261	52.7817	100.027	53.9806	43.4535	61.5134	53.356	29.1658	169.141	102.591	94.6031	244.036	18.833	14.0376	10.1078	102.01	85.586	102.716	88.8448	71.9685	260.036	268.728	36.4967	24.5074	28.7822	22.193	16.8031	14.9516	13.666	16.021	20.7315	168.512	28.637	11.1437	397.578	221.748	81.8729	39.2967	122.488	58.9934	106.024	33.0282	15.665	54.5939	231.078	151.549	226.764	5.80106	24.5196	23.2119	23.6357	12.2252	108.092	183.642	112.948	356.148	152.172	207.621	34.6129	271.467	34.2018	47.5137	60.5401	19.2253	23.0028	77.9062	20.1415	25.1401	288.774	48.8428	84.1566	17.0966	20.256	66.1244	112.779	82.1316	80.9205	126.793	60.5505	44.674	64.2852	22.0523	64.6916	72.0175	69.1702	27.0447	46.9029	37.3974	30.1769	88.2358	17.0694	49.7109	156.035	40.8436	85.257	53.5997	16.0639	32.7916	38.9475	32.7064	32.3102	8.48072	20.438	71.6859	15.3682	92.1292	21.7069	172.524	38.4743	115.954	30.965	28.4264	18.6004	107.07	369.32	155.586	179.029	69.4188	44.6427	137.032	131.39	60.0919	
SSFALL	34.8639	21.7673	-1.15932	16.9691	12.0092	20.5048	32.076	134.476	7.71732	39.7741	27.2376	-2.08745	-0.402857	5.51043	5.56808	42.3793	65.8916	-0.283919	54.3454	35.8019	72.4907	27.8825	32.407	34.79	43.6867	18.7171	74.1008	92.5797	217.293	60.3291	1.94856	-6.00446	17.289	55.6111	76.2237	57.4005	55.3464	86.0533	71.5028	70.4453	71.8621	7.34189	39.0204	10.5721	50.7338	7.75468	4.03298	-4.76926	14.7477	48.6382	22.1766	16.1442	80.1071	67.1036	74.5105	219.117	-3.34072	18.7514	53.9841	10.5977	28.6333	13.3603	71.3985	200.872	14.3318	8.95918	-5.89283	4.77238	3.58	6.46179	67.275	86.4886	190.925	46.5824	149.284	28.5916	17.5274	9.42534	250.934	16.6736	-1.6924	30.9734	1.74235	7.75634	37.4733	8.39653	27.2152	266.321	35.1292	-2.01255	11.9914	57.0333	88.2014	69.8915	88.4368	122.951	53.0722	54.2666	40.5459	31.7426	48.1536	41.9192	66.5885	18.985	20.2605	24.1351	22.4357	28.0212	13.6736	67.6632	55.585	86.7876	33.2911	43.7395	11.7399	21.9834	29.8429	10.7987	26.4866	15.2898	57.3746	11.3908	22.8872	33.2911	15.8574	23.0567	186.145	13.9294	4.55907	9.29092	14.211	79.9476	52.7497	103.392	160.82	91.5624	233.871	22.6413	2.95546	104.346	
SFALLA	32.6827	-4.07149	-6.24871	0.73972	16.1946	10.6514	27.7506	160.31	-1.24497	56.7636	8.33312	-11.3965	-8.7081	0.227047	-5.35152	96.1101	74.5333	-19.8562	34.3826	48.7574	20.8443	68.9902	32.7984	12.4498	39.0233	-8.07604	364.677	28.6824	47.0906	144.819	11.913	-15.7433	-9.38048	58.5045	65.9527	74.5775	47.3972	44.5047	56.5142	99.7065	9.62485	2.84293	-5.65341	19.4809	-16.605	-2.71731	-9.06785	5.82032	-8.28011	43.053	13.1342	-11.9354	213.648	44.3467	84.0095	9.55963	-2.90091	34.977	56.3215	-10.8738	-18.6781	-6.11184	356.552	-1.18025	178.343	-17.2883	-8.07525	-6.13786	-20.8118	-11.8102	19.106	183.055	249.592	173.621	13.7275	252.758	-0.483656	44.6198	-8.70792	271	-5.44211	-5.40246	16.38	-6.11325	-6.30311	30.8563	63.7058	4.99621	279.335	-4.80601	-7.23889	55.8341	89.3988	66.5237	129.849	164.654	42.833	43.2878	34.5822	15.6921	143.207	10.6067	25.7502	6.99623	-3.45185	15.1405	3.75425	6.97257	-3.62907	35.6906	90.762	8.94621	28.7491	25.2155	2.22255	21.8911	21.5515	-17.241	17.2662	-1.27345	-25.3278	87.7998	-4.45019	33.4117	10.8979	33.815	11.5186	212.558	-6.79881	8.74878	7.99362	34.0783	131.226	189.33	90.8207	69.4631	59.3029	239.207	51.1327	1.44735	
FALLAQ	25.7712	7.16252	-2.4916	3.91061	22.7774	23.7528	77.4432	186.747	6.9595	99.0089	15.65	-6.15035	9.03516	-2.00972	43.2058	20.2962	35.202	-8.05528	39.4074	32.887	26.9859	24.5099	25.214	22.0199	38.11	11.8075	90.5641	73.4649	143.747	156.966	30.3276	-12.9516	-11.1022	83.6327	70.0669	57.2068	70.0351	47.6225	111.391	84.9533	7.3435	-4.40229	10.556	-7.798	-8.86375	-4.71524	-1.49156	-6.81057	2.86605	156.371	9.18444	-5.08753	227.047	193.897	58.8208	59.9023	16.2385	50.5886	81.4447	16.5095	-16.0204	13.6365	90.3204	190.784	35.6778	-4.64458	7.92178	2.68436	18.6987	2.0757	96.7082	111.447	89.2551	136.07	261.166	53.6985	7.10135	58.2168	48.2891	-0.241147	8.04282	-6.21397	3.33677	7.70569	-1.99424	6.70807	82.735	63.5082	15.7961	2.1068	3.07343	55.6866	65.8508	75.0631	63.2127	115.473	56.8389	29.1001	55.3456	6.81438	46.2798	37.9986	55.7144	14.1123	24.6742	-1.65924	6.273	87.2318	8.16958	56.5142	77.7322	39.6102	65.3603	40.7013	-1.64549	41.9949	25.6633	11.2454	5.95115	-4.02882	-7.35706	-3.68837	-5.58508	54.631	-8.75855	56.9137	44.8741	21.86	-1.79527	2.56737	8.98944	61.6962	148.392	141.443	197.563	60.8464	66.3361	72.8911	2.99883	51.4103	
ALLAQK	32.8779	-6.71834	-1.03542	2.74099	31.0876	17.3187	34.5723	138.225	6.58465	27.6901	8.68072	3.9687	1.39047	-0.159136	17.8508	67.1313	69.4159	-21.2044	34.101	29.1806	30.1229	17.2092	30.8383	14.964	26.0872	4.58774	141.825	83.0658	143.429	50.4161	27.3217	-5.54878	-8.48383	65.1747	52.1726	41.8744	62.4196	88.2824	64.4144	178.607	9.24501	5.24345	4.01255	-4.64963	-4.42605	-2.38657	0.797234	-3.20763	9.41344	39.9117	6.10626	-7.19152	73.6484	52.269	59.6589	63.0513	23.4079	15.5092	70.5959	0.846487	-8.37095	29.731	89.5805	32.1193	20.8667	8.28572	6.14438	5.43311	23.5324	4.99763	54.4634	172.387	262.22	34.8154	55.2829	50.5269	-9.14345	43.558	52.592	32.1424	8.79457	-1.6995	-5.84909	20.5313	-2.99602	2.51715	87.2873	73.8039	52.193	13.4177	1.09525	51.1623	89.3273	78.5067	108.291	156.289	67.2336	42.7	62.1206	25.3194	96.9133	21.4083	46.4484	17.7984	18.4198	-5.21347	7.65227	10.7156	10.5299	68.6986	123.856	31.6206	50.4059	52.6857	7.82447	33.1914	33.1742	2.15874	14.1235	4.52874	-8.58758	-7.44113	7.35822	15.6031	-8.94363	45.272	58.2166	25.2879	22.7997	-2.63589	11.3585	53.3156	116.749	106.742	141.92	67.6162	143.199	49.4419	-7.41481	-10.5394	
LLAQKE	89.3153	13.5845	12.5987	6.37812	56.9567	34.6395	48.9514	124.769	23.5978	117.898	19.4345	-1.39351	17.6211	14.0761	24.5826	96.6364	84.4116	-8.21049	67.9969	67.9276	51.0634	59.7651	45.2211	21.7464	41.1279	18.3586	207.619	95.0226	59.9598	147.798	41.1358	9.00671	-3.62069	88.3639	92.9276	82.7754	70.5332	72.3191	162.077	299.736	36.3766	32.7277	33.1438	0.968895	14.0263	10.0803	12.9952	3.80375	17.3643	119.424	22.6675	9.21117	301.543	160.539	82.6187	97.8211	71.0257	54.5543	90.037	37.4431	19.6654	27.6877	162.174	19.7285	66.0628	10.5282	19.8464	12.3813	28.537	20.8298	94.4749	197.45	248.074	205.656	31.9901	134.245	4.85569	129.285	64.0409	57.5388	42.768	24.3901	2.33777	53.3599	25.0157	9.98206	162.814	102.916	66.7327	10.7262	18.2108	68.7217	8.64027	100.492	115.583	159.716	81.1563	48.0713	73.1387	32.3741	103.17	44.5188	80.914	49.245	45.8997	12.1724	19.8017	31.7405	28.4104	46.5512	176.816	59.8228	92.4624	64.5398	20.221	50.0906	20.5037	37.713	14.8734	19.5507	31.1866	54.3231	24.1885	53.604	-4.54057	145.942	67.9866	72.44	29.1788	18.5179	27.7132	50.6776	267.97	152.64	110.443	93.0253	86.3463	162.608	9.03181	-4.54873	
LAQKEM	82.9536	30.0777	17.0528	20.4002	41.6065	38.296	50.4022	160.256	27.0938	119.997	35.664	-7.12399	4.00504	14.3188	25.6515	56.881	117.959	1.81041	97.1538	51.7252	97.3961	48.5573	58.8397	41.5456	45.5332	30.1843	111.116	120.691	155.67	200.056	41.2199	13.9878	9.32043	113.393	72.9088	57.3449	106.27	111.087	124.076	135.082	52.3702	12.9356	51.7902	14.8702	18.426	15.8789	17.2381	19.517	6.91097	111.549	37.5194	15.0656	242.56	154.361	73.7265	156.686	61.6618	66.7705	110.155	36.2016	18.8757	50.1809	135.065	86.4645	95.1284	11.0827	33.0473	6.99165	46.2703	13.5906	145.975	124.544	230.317	175.579	90.9885	85.9586	31.2124	122.696	130.339	35.0953	16.7193	59.6016	26.6419	11.1123	59.205	25.5828	169.047	161.147	60.7062	28.0384	12.9529	70.9555	96.9093	104.293	96.0493	133.138	57.6781	57.0017	52.0009	29.3436	87.7701	49.3658	88.7861	48.5801	57.8946	28.7639	6.2817	34.5592	45.3188	88.8862	82.4513	81.1384	91.2042	68.4975	28.0106	53.0137	33.3276	49.153	26.2106	20.6615	60.3163	28.2709	33.4541	57.8838	15.5755	108.496	141.774	57.4088	67.2776	23.271	17.4819	76.3382	199.203	165.043	160.236	111.704	195.951	85.5142	39.395	36.5943	
AQKEML	85.5857	27.3034	11.0131	12.8877	49.4678	45.8613	57.3063	187.133	1.03626	87.3322	35.2686	-1.45916	5.26707	24.4129	23.7126	100.705	78.8036	3.76757	98.4422	82.6626	60.3783	94.4714	58.3775	42.6304	54.2651	18.7789	236.756	98.346	187.523	196.177	32.3443	2.67703	7.08295	49.6501	109.956	112.94	59.0886	74.1708	113.98	252.729	35.5071	35.8396	49.8741	0.194113	25.3653	20.8276	40.4703	19.3102	23.8963	60.6481	23.388	19.3532	224.394	77.1597	76.4513	150.814	90.7818	37.7634	73.0527	37.7531	26.6303	7.93781	265.406	93.7733	153.87	18.4127	3.65865	12.1374	16.1525	21.2587	61.2436	160.312	206.337	168.813	85.0452	155.487	26.8331	149.592	118.678	83.9988	44.8199	18.429	14.2019	49.7447	17.0005	34.1829	172.704	128.992	119.518	12.1774	24.6967	76.6711	142.677	105.689	112.687	158.58	55.9947	49.2673	49.8343	25.1196	120.692	46.4901	58.678	46.9358	36.3188	33.1384	21.2672	36.34	36.7371	53.6045	127.724	57.5744	67.0689	42.7671	24.1252	58.4668	51.3339	20.7653	37.6638	21.5629	44.5152	108.769	18.7282	47.7553	20.6705	165.141	106.599	84.7139	6.15148	57.2362	18.6323	64.3096	227.201	144.897	162.912	84.7336	107.073	169.072	71.0264	38.5268	
QKEMLK	80.202	30.5646	-2.51017	7.24904	42.0823	38.8644	63.0403	177.156	19.1703	104.409	37.6256	-6.50859	16.072	14.6735	28.8083	100.61	90.3212	-12.1756	69.3843	48.4324	65.9519	41.6461	39.9134	51.3067	34.6857	-2.42495	270.402	72.4435	154.467	137.122	36.1098	-3.29015	3.80744	77.2461	91.7721	93.3529	84.1595	64.7559	126.443	222.722	37.9876	20.0351	58.7001	15.6782	19.7738	21.649	24.9253	14.8643	21.4266	108.094	13.8925	3.58797	262.264	118.087	88.2393	108.952	60.4535	56.7926	74.2164	8.07089	7.27437	13.2066	240.647	121.984	148.954	12.3713	8.1098	-2.26772	8.89366	9.83565	79.7449	166.505	237.522	182.725	108.554	159.261	20.3684	109.765	102.78	109.125	9.99073	28.2207	20.264	9.63367	32.1829	29.1029	136.115	139.897	146.321	7.05853	-3.14614	60.6727	122.298	95.3085	102.493	164.097	68.2736	42.599	62.9367	21.8114	92.7993	49.4753	75.7438	43.7324	47.4953	17.9322	27.6814	55.1783	43.8859	56.4437	148.419	60.3062	66.6701	43.2018	10.0946	45.6382	46.2899	19.9639	22.3225	7.57872	37.2641	79.6217	33.2363	67.7016	19.6087	86.2732	133.93	102.19	14.5823	26.9373	0.49967	55.7672	221.886	153.978	140.396	99.9954	166.739	153.028	43.7768	52.9368	
KEMLKM	46.3603	-3.23203	-24.6494	-9.0999	20.1203	23.402	49.1536	161.652	-26.9804	79.7083	-5.70249	-33.8252	-21.4358	-18.268	21.0019	83.61	91.115	-12.6474	51.6098	44.8984	18.8174	38.7628	49.1295	12.2554	42.0442	5.27536	206.283	82.3391	99.2238	147.215	23.9028	-26.5501	-9.92986	84.5705	92.8695	73.7764	73.0074	69.3694	90.8812	209.196	-3.52124	-17.0138	22.0239	-9.49052	-19.6652	6.55576	-14.2134	-0.707519	-8.03425	99.5107	9.81675	-7.3747	240.256	82.3248	66.8857	103.097	14.3163	22.0255	54.6781	-3.71011	-21.1211	6.46431	197.11	92.6587	102.836	-14.8862	-15.181	-9.72407	24.9456	-18.0159	44.9063	120.999	284.118	157.107	82.0218	134.716	-18.9894	42.8613	70.1326	96.3625	-25.2077	-12.9215	-0.684086	-26.0969	-14.7479	13.0548	66.394	115.733	124.569	-27.2146	-10.8832	20.0382	71.3972	108.679	104.517	159.932	30.0824	35.1454	28.3915	17.3471	101.053	33.0029	64.0337	16.3674	30.1063	19.9389	7.28499	23.4387	1.83935	27.8517	136.71	72.188	19.3425	25.505	-9.90556	61.8209	25.1233	-11.0901	16.2416	-2.09706	1.02501	53.2223	33.046	39.3191	1.29541	49.622	80.314	102.864	-6.61008	9.90846	-0.825062	18.338	177.509	162.27	132.889	80.4348	130.846	131.429	27.9847	3.81553	
EMLKME	88.8151	0.526702	-14.3459	-18.6974	45.2447	41.8179	63.4542	204.359	7.20257	109.77	-1.15879	-8.4112	2.86539	-9.5747	23.6828	75.8673	76.1847	-30.1979	66.5446	26.2913	66.7307	26.5004	39.2949	63.6662	27.6046	-16.4401	196.156	75.4741	161.345	146.918	38.6351	-20.1294	-24.9378	54.9624	111.102	107.682	64.3572	80.4762	138.447	242.297	0.924971	4.66564	12.8549	-12.7406	-20.4629	-10.6827	2.63447	-19.0351	10.1246	97.786	1.65145	-13.4412	207.2	41.6173	82.7125	88.8168	71.9634	39.4329	44	-11.0002	7.74862	-1.20354	235.192	87.9731	150.492	-18.8527	-15.819	-5.0603	1.84218	5.92852	55.5291	163.151	237.189	224.389	144.028	158.074	-6.48093	151.304	46.3454	53.7972	16.8653	-10.5126	-14.0377	15.1647	-16.6012	-8.12728	163.222	72.9675	76.8882	0.320322	-13.513	47.8604	-6.63622	71.5532	85.6109	135.639	54.5183	24.5716	51.3224	-0.64703	70.5524	64.7058	58.7652	18.0411	33.4031	9.28089	10.0864	45.9219	38.4587	57.6035	133.254	43.5355	85.8818	34.2966	-9.31065	40.4614	43.138	11.4896	17.1942	-2.9702	-2.88491	70.7037	39.7402	31.6091	-2.92855	148.312	64.8513	96.9861	-1.95362	5.64932	-5.54408	55.071	258.316	135.476	166.414	79.1563	136.215	123.433	54.8192	12.4737	
