Sequence	1yjp_1	1yjp_2	2kib_1	2kib_2	2m5n_2	2m5n_3	2m5n_4	2okz_a	2ol9	2omm_1	2omm_2	2omp	2omq	2on9	2ona	2onv_a	2onw	2y2a	2y3j	2y3k_1	2y3k_2	2y3k_3	2y3l_1	2y3l_2	2y3l_3	2y29	3dg1_a	3dg1_b	3dgj_1	3dgj_2	3fpo	3fth_1	3fth_2	3ftk_1	3ftk_2	3ftl_a_1	3ftl_a_2	3ftl_b_1	3ftl_b_2	3ftr_a	3ftr_b	3fva_a	3fva_b	3hyd_a_1	3hyd_a_2	3hyd_b_1	3hyd_b_2	3loz	3nhc	3nhd	3nve	3ow9	3ppd_a	3ppd_b	3pzz	3q2x_a	3q2x_b	3sgs	4nin_1	4nin_2	4nio_a_1	4nio_a_2	4nio_b_2	4nip_a_1	4nip_a_2	4nip_b_1	4nip_b_2	4np8	4r0p_a	4r0p_b	4r0u_a_1	4r0u_a_2	4r0u_b_1	4r0u_b_2	4r0w_a_1	4r0w_a_2	4r0w_b_2	4rik_a_2	4rik_a_3	4rik_a_4	4rik_b_1	4rik_b_2	4rik_b_3	4ril_a_2	4ril_a_3	4ril_a_4	4ril_b_3	4ril_b_4	4ril_b_5	4rp6_1	4rp6_2	4rp7_a	4rp7_b	4tut	4uby	4ubz	4w5l_1	4w5l_2	4w5m_1	4w5m_2	4w5p_1	4w5p_2	4w5y_1	4w67_1	4w71_1	4w71_2	4wbu	4wbv	4xfo	4znn_a_3	4znn_a_4	4znn_a_5	4znn_b_3	4znn_b_4	4znn_b_5	5e5v_1	5e5v_2	5e5x	5e5z	5e5c	6cb9_a	6cb9_b	6cew	5n9i	6cfh_4	5vos_a_3	5vos_a_4	5vos_a_5	5vos_b_5	5vos_b_6	5w52_5	5whp	5wia	5wiq_1	5wiq_2	5wkb	5wkd_a_1	5wkd_a_2	5wkd_b_1	5wkd_b_2
TMMKFQ	103.692	-26.3022	-8.48482	-9.20704	43.752	30.6359	69.019	166.407	2.78713	128.283	-2.90822	-25.2872	-8.97009	-19.3697	37.7445	118.39	259.461	-23.8205	93.2484	78.4935	54.7029	83.2362	55.7486	53.4222	33.7827	-17.7624	187.386	73.0564	134.387	151.635	29.822	-22.612	-22.076	102.621	86.801	85.5518	94.7285	184.756	131.984	243.79	-23.5356	18.5916	60.9083	-15.0876	-27.7525	-1.60212	-3.22582	-21.1498	3.35467	63.0477	5.18146	-13.5077	215.53	70.2717	89.833	239.151	60.9206	46.8168	63.0392	-1.21683	8.9874	13.5794	226.088	66.0088	160.509	-10.1077	-10.6776	-20.8263	56.037	-5.47105	64.8309	164.126	399.551	213.165	80.2843	155.82	-25.1509	109.115	166.762	64.7261	12.7236	-10.0034	-14.5156	6.83677	-12.3999	-11.5126	148.926	238.871	117.511	-4.59575	-15.2109	30.5774	90.8041	131.374	119.323	186.075	56.1854	36.2253	43.5028	46.8924	105.986	58.7764	82.8747	57.1285	63.6743	6.0103	13.7135	31.7282	16.8129	43.4989	139.94	110.61	64.7422	27.2359	-3.55655	54.3412	40.4281	13.2626	1.22625	11.6887	30.9296	66.254	31.3736	44.8072	-8.0923	121.991	167.269	84.2528	-2.35486	14.0481	-7.32894	39.0746	236.463	135.767	130.488	68.6314	190.541	120.132	74.6506	13.0055	
MMKFQL	76.8136	14.8061	-11.0223	-16.4945	32.2413	47.6245	70.9855	222.214	-23.0045	143.916	29.051	-45.7056	-6.86082	-19.6465	23.4441	87.3491	57.7155	-28.533	97.8067	62.1817	88.6765	75.8581	61.6704	50.3173	36.0174	-3.23572	223.286	98.3145	164.724	205.435	36.3199	-15.6356	-21.0209	61.0493	88.2899	111.043	63.1985	85.5567	187.614	324.576	25.9363	-8.57494	18.4667	-33.4418	21.4637	-8.21885	-22.4714	-6.25231	7.62383	87.5193	7.95959	-18.0406	412.286	115.551	56.2339	149.934	84.9874	53.799	62.8471	6.79538	6.13767	39.0147	326.825	116.447	224.86	-33.2149	-22.2325	-33.9989	20.021	-32.3244	61.247	191.842	206.873	333.037	108.265	235.95	29.9194	231.003	107.346	46.4893	23.243	28.1169	-31.3417	29.631	26.6302	-27.153	279.55	160.65	106.78	-26.5492	-10.0257	46.2303	96.9893	91.3657	121.871	135.977	54.9494	41.3162	43.645	10.8487	90.5869	36.9372	65.3191	33.2347	51.2148	33.431	28.1235	47.0826	20.7879	23.679	153.427	68.7093	60.5337	45.2743	-20.3939	46.684	44.4026	0.20849	4.52136	-10.3673	32.5644	116.834	60.5084	60.5614	13.6295	220.684	124.88	134.56	-10.5985	-11.0274	-8.55651	87.8951	364.286	204.047	132.865	101.13	131.923	175.236	125.573	49.0273	
MKFQLL	79.1594	-4.91332	-21.5814	-6.72669	-1.12162	29.7743	77.3245	193.492	-17.7481	112.686	18.1266	-41.5585	-22.4913	-26.8432	18.1652	112.786	48.3851	-21.3554	99.2024	54.422	98.4036	59.7629	43.5972	40.0678	51.0198	11.1573	263.22	79.1355	213.897	132.442	37.2504	-35.0058	-12.0584	53.2502	102.874	128.414	48.9191	73.9387	115.027	174.143	43.227	-28.9433	43.5256	0.243863	20.726	-19.4107	-16.9037	-33.3757	2.7905	72.2881	2.07198	2.6756	316.292	116.043	75.0412	209.867	37.1042	57.677	52.4825	6.75882	12.899	10.372	225.453	220.359	154.279	-20.841	-22.1445	-37.2257	16.3291	-29.8384	67.3305	128.676	203.323	245.468	201.193	130.335	-17.571	54.4946	225.375	111.366	-9.28029	26.0211	5.08627	-13.8725	27.5967	12.0438	83.7496	252.239	143.664	-28.3201	-18.5048	25.5932	104.395	80.7654	119.23	180.506	53.5043	29.9007	46.8126	9.1037	91.7404	31.0667	80.0794	60.6589	58.0704	35.0149	17.8524	41.2889	12.5243	21.7776	77.6603	100.757	44.5411	23.8588	-8.00417	78.0759	48.6771	2.34423	25.3385	0.836769	38.1445	36.9192	66.4618	49.906	31.3318	80.4174	226.435	88.72	-15.7052	52.7181	-16.1627	73.3928	175.644	134.035	209.824	127.146	229.114	168.659	7.73145	88.3488	
KFQLLK	93.4673	-11.1581	-23.6328	-16.864	27.5829	11.7024	69.1969	231.259	-4.42334	101.736	5.71506	-7.79649	14.9511	-2.14958	29.985	118.609	76.4274	-30.4504	58.7622	70.7245	65.3285	82.2899	35.2027	52.9911	42.6075	0.649321	389.356	65.4099	119.28	143.111	39.8686	-25.2487	-27.5282	54.9355	94.8386	86.7451	46.4247	47.1238	102.997	246.416	10.0896	-5.78252	-7.64197	-7.88	-52.2803	-20.0741	-3.89983	-4.41519	5.36026	130.165	0.262714	-10.4896	375.653	117.866	81.6323	66.4079	50.19	53.883	73.2996	-14.1142	-29.6249	-14.6532	365.627	110.704	193.78	-30.3165	-21.1667	-17.4818	-37.8395	-22.1756	44.6971	206.944	247.644	221.68	147.032	252.561	-0.745612	88.2109	55.0348	239.669	-7.3849	-10.8272	6.86369	5.9659	-10.7816	21.7298	112.924	90.4607	284.851	-16.3973	-19.7028	28.4942	116.009	92.9706	154.423	197.329	55.1571	40.4207	55.6845	15.333	148.569	34.7605	62.4105	14.1414	23.8828	17.1579	23.1488	62.422	26.0468	29.1814	146.055	21.2426	34.4127	19.6755	-12.0948	46.7928	48.1609	-6.30726	12.1825	-8.42827	-15.6052	155.1	67.6761	58.7792	33.1429	90.1186	65.3971	197.48	-14.3688	2.90579	-1.53789	39.8611	210.735	190.293	136.012	101.015	95.4331	230.827	77.0798	21.8254	
FQLLKS	34.475	42.5262	-15.101	-13.2965	21.5162	25.2158	69.4684	190.57	-15.1647	106.371	36.4334	-21.5607	-2.87188	-11.8027	48.3437	78.866	115.168	-7.46947	55.6305	70.8867	54.6144	47.2807	35.9995	48.9399	56.8181	11.6843	168.632	69.0182	144.354	159.128	38.2537	-21.025	-26.1555	90.511	66.6502	71.5788	88.8477	86.0094	70.5883	85.7414	1.10914	-17.2279	60.2484	-32.279	-4.53149	-9.41303	-10.3025	-11.1175	3.42958	131.798	0.876076	-7.43975	306.386	197.101	69.7611	153.885	2.27916	59.9009	84.1009	5.85485	-26.8341	25.944	161.864	184.577	73.805	-15.7001	-7.23309	-15.0179	53.6795	-14.3063	113.306	129.348	282.106	144.917	242.787	95.6012	-2.77583	34.8685	101.084	60.1821	-3.51018	13.228	-10.3091	-2.65907	17.0105	-4.58414	54.9354	133.136	92.6918	-14.1969	-11.5849	33.8651	51.3019	96.5739	101.451	165.802	59.7934	44.2756	44.1715	26.4571	92.5063	36.4099	60.7586	12.7724	27.383	3.01255	14.8112	55.4778	12.2566	50.4916	84.1924	86.143	47.9509	43.6327	-6.33441	59.5618	40.74	-4.61917	14.2154	-3.67781	25.4682	26.7015	24.07	50.1343	-0.799027	32.2552	98.1359	73.9865	5.51097	-6.52976	5.09288	52.5328	128.355	164.162	183.467	96.7876	180.486	90.4513	2.61116	67.65	
QLLKSA	59.3648	-8.1824	4.10624	0.261396	20.5774	15.7346	57.7316	182.637	10.2861	96.8095	3.01077	-2.85444	4.93104	-3.54027	11.2451	52.9169	34.766	-19.8033	43.6246	16.094	43.1395	12.3142	29.7188	30.2571	30.4836	-3.56841	153.719	31.2852	162.584	174.962	23.1517	-5.35181	-10.0332	64.217	91.7289	76.8462	59.2228	53.6971	58.2777	137.192	8.38702	-2.81997	-9.90094	-6.9638	-7.63578	-2.69623	4.09334	-12.6288	2.61728	59.4267	-9.12723	-11.8614	228.557	93.6811	62.3126	64.2429	31.1889	41.2629	84.082	4.16537	19.737	20.223	180.469	66.7981	117.881	-1.46291	5.48842	6.72234	2.43045	4.46572	49.7483	167.959	173.405	214.887	82.2968	149.428	-7.71631	58.7376	44.913	52.9423	3.99575	3.69009	-5.63581	15.9027	1.91278	-1.75297	89.781	60.7631	73.9947	7.65955	-0.189232	36.8164	78.829	78.8373	98.5571	137.031	61.465	35.9503	55.6517	1.71838	89.0449	44.4382	54.5342	5.6396	19.0028	5.28455	9.42386	24.1456	14.0349	61.8993	95.7531	21.48	63.6356	50.6386	9.6831	42.3862	43.0465	-1.32883	8.58762	-0.76987	-8.52646	51.5942	17.9094	37.0533	-5.39244	41.0499	40.6508	72.0341	4.6649	1.58605	15.1274	59.3402	141.878	130.664	162.959	59.0863	76.4406	153.82	38.6427	-7.68895	
LLKSAE	80.2311	40.5374	14.1469	17.804	45.921	40.8773	57.888	143.433	26.3474	117.374	55.0322	7.73833	24.5094	26.2051	14.8146	76.7309	36.6408	1.94775	62.5191	51.4033	68.7019	56.0882	31.6586	22.3757	48.8907	22.5285	186.906	98.2637	184.786	90.9173	35.6822	14.8212	6.29792	60.3341	77.2022	72.0323	55.3882	58.6826	115.671	210.768	50.4056	31.8914	38.0419	8.73844	22.8076	27.7901	20.4085	14.3414	16.902	102.506	18.6162	9.47433	220.053	169.518	68.8063	102.027	46.2098	65.7572	92.5537	44.6066	17.0425	29.6527	106.094	129.569	36.6873	16.3484	24.2343	20.4301	15.8926	22.9928	98.1056	186.031	169.145	115.736	150.15	61.8376	45.5148	70.9082	82.8416	55.7482	38.8278	31.9005	2.40911	45.1663	32.8118	13.3099	88.7928	115.035	69.0109	25.6277	30.2541	86.1517	-3.59931	105.617	119.561	156.534	82.3202	42.5317	78.7349	25.3361	103.266	40.0719	64.4294	45.9636	46.7174	8.41537	13.5506	39.7547	45.8328	65.9804	154.518	59.235	89.6621	71.7589	28.4081	39.5998	43.3687	25.2063	4.31434	12.7943	37.8533	8.30133	13.941	72.3484	9.97107	87.6589	79.749	52.7448	35.7909	14.0577	33.5721	85.864	153.338	117.176	149.225	93.3934	70.4115	70.5835	13.7962	61.4609	
LKSAEE	91.4313	53.4357	32.2002	25.5668	83.7661	65.6991	74.6645	119.618	56.0508	135.934	57.8475	15.4719	30.9794	41.9799	30.6705	106.322	144.394	20.947	121.416	98.6951	88.8793	104.409	65.1775	28.0026	56.8181	36.7975	238.371	143.989	98.4711	104.422	68.337	32.417	18.3247	115.613	97.6032	97.4497	111.856	119.892	154.712	188.576	78.611	48.7714	68.7267	37.1169	46.0715	42.9474	49.2663	18.0467	30.2177	119.64	40.4776	29.1333	270.004	187.323	90.6556	131.484	62.4	94.6748	139.414	68.6112	32.3078	67.6306	130.328	47.5949	86.9732	36.421	49.1086	36.4957	81.785	42.7145	142.04	192.922	289.27	149.475	68.4352	91.8902	29.923	68.5302	112.902	87.0517	58.2888	57.8638	42.9389	61.6421	66.2081	46.1946	83.3833	127.635	123.179	62.6796	55.272	102.556	24.2825	108.877	130.517	187.883	98.4037	60.8249	90.8871	43.9544	112.433	47.336	97.387	59.3052	70.8324	29.0256	34.0497	49.0655	75.2208	117.288	133.497	92.1975	105.223	89.8118	49.5287	61.5544	39.4448	75.6173	38.5715	46.1083	58.7029	54.9446	30.5285	81.4733	20.0614	86.462	118.099	57.5596	77.572	33.1198	47.5023	71.0558	144.135	166.59	139.085	111.4	169.216	74.3737	37.8775	24.6904	
KSAEEK	104.621	48.1888	43.593	31.597	85.2465	72.2132	96.7337	153.997	52.5826	128.135	54.3494	27.6823	46.1753	37.3936	46.1237	93.8509	132.48	36.3686	120.139	102.007	91.8132	95.4458	96.0604	48.2905	56.4687	47.5891	136.551	125.715	90.3734	208.841	67.5476	32.473	28.3202	121.258	116.282	101.217	112.005	124.271	169.805	209.237	61.4292	71.4975	59.9887	37.0138	43.6054	44.8443	59.9975	22.6448	42.326	120.914	41.495	40.9087	258.462	153.578	88.4339	94.9661	116.155	90.6849	122.699	76.0342	54.9617	70.3075	178.52	76.1258	133.684	40.5289	46.6562	41.8144	64.7736	55.508	117.048	189.813	233.479	197.617	65.0508	133.141	34.9684	200.42	69.7827	61.4994	64.0796	52.6548	48.773	73.5861	52.4142	54.956	243.991	82.3422	77.2123	54.87	59.5227	94.54	151.632	110.289	115.736	152.68	92.7941	78.8118	88.7329	53.8314	105.405	57.0561	104.271	72.3433	73.557	42.3718	48.8417	80.9343	69.3888	116.948	154.468	67.7666	106.434	82.3436	49.4004	74.5643	44.4209	60.2888	42.3177	57.283	54.3789	86.6487	55.8039	83.4142	29.9269	187.863	83.7471	85.8903	65.3446	62.0985	48.5614	91.3349	263.892	208.479	162.732	102.951	136.037	137.744	85.2502	35.3259	
SAEEKL	82.8575	52.5173	46.4771	41.8094	73.8263	78.7115	76.0368	222.649	39.5519	90.6094	59.6348	25.3694	40.0601	34.7259	46.5933	104.663	134.975	32.7487	114.466	87.7391	91.5513	72.9601	74.641	70.8214	63.6799	39.9199	143.728	128.521	198.401	211.329	70.1147	31.2628	27.2805	101.743	89.4716	74.5476	105.012	89.3594	143.276	202.69	67.7261	57.0264	80.7461	33.7681	39.1169	42.2133	49.076	30.8338	46.601	99.109	52.553	44.9056	153.386	94.494	102.633	184.537	111.476	78.3701	95.3801	44.5873	49.737	55.2027	155.547	105.466	112.939	34.2537	49.7059	22.915	75.9433	42.6198	107.761	134.021	234.146	155.281	99.7576	109.967	50.5825	173.199	167.761	36.4524	66.638	45.8877	35.4621	68.8403	51.6888	42.7384	186.549	201.272	53.8819	46.7015	40.3551	101.304	127.759	102.569	114.047	140.099	85.5555	78.5269	71.3445	54.0523	93.5718	67.0691	93.8553	67.3361	66.8601	52.554	51.0074	67.1953	61.1019	89.5231	131.409	90.4347	86.0896	80.0503	41.697	73.3108	54.7257	57.2203	51.0844	46.9769	58.322	60.8113	58.4725	70.2551	48.8775	183.67	169.468	57.1842	60.881	49.9129	38.1827	100.2	234.115	162.556	197.931	102.1	197.019	104.663	49.0199	57.2202	
AEEKLF	70.9775	20.8519	9.39647	20.8916	61.939	68.5609	64.4353	205.628	9.27588	82.6328	33.5828	3.99905	14.1449	12.9413	51.5761	125.895	101.065	6.66889	85.3119	73.4571	114.922	52.8592	67.5054	61.0306	58.2769	21.4387	283.824	125.59	179.287	176.017	49.9674	4.23047	16.3845	85.0479	97.7106	84.1082	92.4818	65.5376	234.796	304.895	49.708	14.4524	49.28	24.8827	26.9502	21.7319	55.5977	24.6534	23.3409	82.7118	34.8017	29.3591	237.722	62.6946	93.0253	95.0402	212.328	46.6893	67.1093	34.5248	17.6664	11.4097	281.541	58.6964	151.894	18.4914	9.46892	-1.17606	17.9017	14.0006	54.9291	233.783	266.745	182.908	71.7911	180.055	22.0578	246.024	126.415	120.088	37.4396	27.0202	28.9789	27.3688	35.8834	37.4159	301.493	154.211	158.53	10.7195	25.3347	51.9595	162.326	112.799	110.833	183.5	62.8341	64.1407	67.1871	37.7379	114.603	73.2516	90.0621	66.311	55.2183	49.3814	29.1711	78.8772	56.0703	70.9481	230.322	55.6798	83.9876	46.2972	27.0618	68.9929	52.3719	21.597	48.2596	25.3337	48.9511	99.7484	42.4903	60.1864	33.0942	230.657	147.629	119.083	20.4336	50.4443	18.6381	79.9582	423.352	171.096	150.457	114.293	178.966	156.471	88.8318	21.1997	
EEKLFA	51.0645	42.2142	2.05611	11.7536	24.0582	47.9807	67.0783	200.768	6.87506	97.9952	55.3782	-2.75439	9.80179	12.3084	53.48	91.8966	263.616	-3.51356	82.3314	100.477	43.6586	108.444	66.619	51.9168	61.6458	13.461	190.867	71.8494	161.736	167.849	64.7628	-1.80732	6.84416	99.2411	76.3446	85.6447	101.837	183.681	91.4631	92.4135	37.0494	6.42209	118.658	13.2867	29.0027	42.2946	12.8487	27.8226	27.969	87.1983	30.1646	9.30652	138.913	96.8742	99.8897	343.181	13.1444	48.3949	27.4411	15.2062	-1.65797	22.9822	189.64	137.527	90.6593	7.41129	0.60502	5.6917	126.419	7.36818	128.742	129.027	405.629	154.337	154.002	128.632	23.4843	38.6356	243.111	120.38	-4.90903	29.5921	11.2387	0.249318	31.4022	23.8138	56.3121	337.704	158.034	10.3277	1.40966	50.3651	42.6544	175.394	122.905	193.389	58.1951	54.0827	48.5098	31.0417	150.18	54.2754	80.95	59.3946	61.0639	41.593	36.0787	28.7757	26.4916	42.5561	100.815	167.988	38.4296	83.4386	4.74693	61.8501	63.4164	11.9755	48.3097	38.456	96.3767	36.2248	43.1121	52.1718	31.8757	38.0024	222.396	108.295	34.1181	14.3436	12.4587	46.9255	148.082	187.259	152.288	109.841	245.387	146.416	28.593	76.2406	
EKLFAS	66.4311	-10.2226	-2.85512	0.775929	29.4894	17.1284	62.3567	220.896	2.93755	121.917	6.08003	-1.66261	12.7768	0.910177	27.6596	60.8981	47.8974	-4.38244	66.2077	45.7582	72.608	34.6257	43.0083	55.2259	52.3533	16.2583	303.605	51.4579	172.929	220.345	8.83126	-5.89465	-3.21939	78.6338	106.046	117.275	72.8936	69.2806	137.504	208.994	6.86535	-2.62754	1.76718	31.1087	-1.77852	5.88773	10.367	8.74665	26.7405	64.9074	4.35984	-3.25486	278.851	52.0649	71.616	53.6696	78.165	38.9444	43.8023	1.57912	6.42294	40.0382	360.138	62.2442	312.689	-0.675505	10.0001	10.3956	6.97493	-0.721529	50.0468	170.527	148.289	341.287	85.2112	273.818	-1.79387	191.028	43.9049	139.914	5.02876	2.90958	22.0567	0.661719	5.01748	23.3412	239.52	52.6604	192.948	9.46564	3.00668	62.0698	131.283	92.655	114.603	144.632	62.2771	45.1513	48.2367	10.4404	89.4002	69.6914	60.5144	17.7556	23.5754	24.5769	30.2498	28.2289	6.34868	58.1885	79.7043	29.5811	70.8576	39.2177	27.7869	48.8014	45.1362	6.3801	32.9546	7.72694	-11.133	140.828	31.6961	55.6337	8.48052	90.5044	45.3676	212.04	2.975	45.2944	14.8829	86.5653	305.8	170.696	172.597	107.554	57.6771	231.668	103.379	3.67753	
